EESchema Schematic File Version 4
LIBS:teensy_prototype_stack-cache
EELAYER 26 0
EELAYER END
$Descr A4 11693 8268
encoding utf-8
Sheet 1 1
Title ""
Date ""
Rev ""
Comp ""
Comment1 ""
Comment2 ""
Comment3 ""
Comment4 ""
$EndDescr
$Comp
L teensy:Teensy3.2 U1
U 1 1 5E20592C
P 4800 3550
F 0 "U1" H 4800 5187 60  0000 C CNN
F 1 "Teensy3.2" H 4800 5081 60  0000 C CNN
F 2 "custom:Teensy30_31_32_LC" H 4800 2800 60  0000 C CNN
F 3 "" H 4800 2800 60  0000 C CNN
	1    4800 3550
	1    0    0    -1  
$EndComp
$Comp
L Connector_Generic:Conn_02x04_Odd_Even J1
U 1 1 5E205A15
P 4850 1450
F 0 "J1" H 4900 1767 50  0000 C CNN
F 1 "nRF24L01_Breakout" H 4900 1676 50  0000 C CNN
F 2 "Connector_PinSocket_2.54mm:PinSocket_2x04_P2.54mm_Vertical" H 4850 1450 50  0001 C CNN
F 3 "~" H 4850 1450 50  0001 C CNN
	1    4850 1450
	-1   0    0    -1  
$EndComp
$Comp
L Connector:Conn_01x07_Male J3
U 1 1 5E205B29
P 1950 4000
F 0 "J3" H 2056 4478 50  0000 C CNN
F 1 "MicroSD_Breakout" H 2056 4387 50  0000 C CNN
F 2 "Connector_PinSocket_2.54mm:PinSocket_1x07_P2.54mm_Vertical" H 1950 4000 50  0001 C CNN
F 3 "~" H 1950 4000 50  0001 C CNN
	1    1950 4000
	1    0    0    -1  
$EndComp
Wire Wire Line
	3100 3500 3800 3500
Wire Wire Line
	3800 3400 3000 3400
Wire Wire Line
	2900 3300 3800 3300
Text Label 3200 3300 0    50   ~ 0
SD_CSN
Text Label 3200 4100 0    50   ~ 0
SD_SCLK
Text Label 3200 3500 0    50   ~ 0
SD_MOSI
Text Label 3200 3400 0    50   ~ 0
SD_MISO
Wire Wire Line
	4550 1450 4100 1450
Wire Wire Line
	4550 1550 4100 1550
Wire Wire Line
	4550 1650 4100 1650
Wire Wire Line
	5050 1350 5350 1350
Wire Wire Line
	5050 1450 5550 1450
Wire Wire Line
	5050 1550 5550 1550
Wire Wire Line
	5050 1650 5550 1650
Text Label 4100 1450 0    50   ~ 0
RF24_CE
Text Label 5550 1450 2    50   ~ 0
RF24_CSN
Text Label 4100 1550 0    50   ~ 0
RF24_SCLK
Text Label 4100 1650 0    50   ~ 0
RF24_MISO
Text Label 5550 1550 2    50   ~ 0
RF24_MOSI
Text Label 5550 1650 2    50   ~ 0
RF24_IRQ
Wire Wire Line
	3800 3200 3200 3200
Wire Wire Line
	3800 3100 3200 3100
Wire Wire Line
	3800 3000 3200 3000
Wire Wire Line
	3800 2900 3200 2900
Wire Wire Line
	3800 2800 3200 2800
Text Label 3200 3200 0    50   ~ 0
RF24_SCLK
Text Label 3200 3100 0    50   ~ 0
RF24_MOSI
Text Label 3200 3000 0    50   ~ 0
RF24_MISO
Text Label 3200 2900 0    50   ~ 0
RF24_CSN
Text Label 3200 2800 0    50   ~ 0
RF24_CE
Wire Wire Line
	3800 2300 3200 2300
Text Label 3200 2300 0    50   ~ 0
RF24_IRQ
$Comp
L power:GND #PWR0101
U 1 1 5E20A61D
P 4100 1100
F 0 "#PWR0101" H 4100 850 50  0001 C CNN
F 1 "GND" H 4105 927 50  0000 C CNN
F 2 "" H 4100 1100 50  0001 C CNN
F 3 "" H 4100 1100 50  0001 C CNN
	1    4100 1100
	1    0    0    -1  
$EndComp
Wire Wire Line
	4300 1350 4300 1050
Wire Wire Line
	4300 1050 4100 1050
Wire Wire Line
	4100 1050 4100 1100
Wire Wire Line
	4300 1350 4550 1350
$Comp
L power:+3V3 #PWR0102
U 1 1 5E20AED3
P 5350 1300
F 0 "#PWR0102" H 5350 1150 50  0001 C CNN
F 1 "+3V3" H 5365 1473 50  0000 C CNN
F 2 "" H 5350 1300 50  0001 C CNN
F 3 "" H 5350 1300 50  0001 C CNN
	1    5350 1300
	1    0    0    -1  
$EndComp
Wire Wire Line
	5350 1350 5350 1300
$Comp
L power:GND #PWR0103
U 1 1 5E20B7FD
P 3550 1950
F 0 "#PWR0103" H 3550 1700 50  0001 C CNN
F 1 "GND" H 3555 1777 50  0000 C CNN
F 2 "" H 3550 1950 50  0001 C CNN
F 3 "" H 3550 1950 50  0001 C CNN
	1    3550 1950
	1    0    0    -1  
$EndComp
Wire Wire Line
	3800 2200 3750 2200
Wire Wire Line
	3750 2200 3750 1900
Wire Wire Line
	3750 1900 3550 1900
Wire Wire Line
	3550 1900 3550 1950
$Comp
L power:+3V3 #PWR0104
U 1 1 5E20C2FE
P 6500 4600
F 0 "#PWR0104" H 6500 4450 50  0001 C CNN
F 1 "+3V3" H 6515 4773 50  0000 C CNN
F 2 "" H 6500 4600 50  0001 C CNN
F 3 "" H 6500 4600 50  0001 C CNN
	1    6500 4600
	1    0    0    -1  
$EndComp
Wire Wire Line
	6500 4600 6500 4700
Wire Wire Line
	5800 4700 6500 4700
$Comp
L Connector:Conn_01x08_Female J4
U 1 1 5E20C93A
P 2250 5000
F 0 "J4" H 2144 5485 50  0000 C CNN
F 1 "Conn_01x08_Female" H 2144 5394 50  0000 C CNN
F 2 "Connector_PinSocket_2.54mm:PinSocket_1x08_P2.54mm_Vertical" H 2250 5000 50  0001 C CNN
F 3 "~" H 2250 5000 50  0001 C CNN
	1    2250 5000
	-1   0    0    -1  
$EndComp
Wire Wire Line
	3800 4600 3050 4600
Wire Wire Line
	3050 4600 3050 5000
Wire Wire Line
	3050 5000 2450 5000
Wire Wire Line
	3800 4700 3150 4700
Wire Wire Line
	3150 4700 3150 4900
Wire Wire Line
	3150 4900 2450 4900
Text Label 3200 4600 0    50   ~ 0
I2C_SDA
Text Label 3200 4700 0    50   ~ 0
I2C_SCLK
Wire Wire Line
	6450 3800 6050 3800
Wire Wire Line
	6050 3800 6050 4500
Wire Wire Line
	6050 4500 5800 4500
Wire Wire Line
	6450 3900 6150 3900
Wire Wire Line
	6150 3900 6150 4000
$Comp
L power:GND #PWR0105
U 1 1 5E25E814
P 6150 4000
F 0 "#PWR0105" H 6150 3750 50  0001 C CNN
F 1 "GND" H 6155 3827 50  0000 C CNN
F 2 "" H 6150 4000 50  0001 C CNN
F 3 "" H 6150 4000 50  0001 C CNN
	1    6150 4000
	1    0    0    -1  
$EndComp
$Comp
L power:+3V3 #PWR0106
U 1 1 5E25F2A9
P 3300 5000
F 0 "#PWR0106" H 3300 4850 50  0001 C CNN
F 1 "+3V3" H 3315 5173 50  0000 C CNN
F 2 "" H 3300 5000 50  0001 C CNN
F 3 "" H 3300 5000 50  0001 C CNN
	1    3300 5000
	1    0    0    -1  
$EndComp
$Comp
L power:GND #PWR0107
U 1 1 5E25F2DC
P 3300 5350
F 0 "#PWR0107" H 3300 5100 50  0001 C CNN
F 1 "GND" H 3305 5177 50  0000 C CNN
F 2 "" H 3300 5350 50  0001 C CNN
F 3 "" H 3300 5350 50  0001 C CNN
	1    3300 5350
	1    0    0    -1  
$EndComp
Wire Wire Line
	3300 5000 3300 5100
Wire Wire Line
	3300 5100 2450 5100
Wire Wire Line
	2450 5200 3300 5200
Wire Wire Line
	3300 5200 3300 5350
$Comp
L power:GND #PWR0108
U 1 1 5E2607D6
P 2500 3600
F 0 "#PWR0108" H 2500 3350 50  0001 C CNN
F 1 "GND" H 2505 3427 50  0000 C CNN
F 2 "" H 2500 3600 50  0001 C CNN
F 3 "" H 2500 3600 50  0001 C CNN
	1    2500 3600
	-1   0    0    1   
$EndComp
$Comp
L power:+3V3 #PWR0109
U 1 1 5E260821
P 2700 3600
F 0 "#PWR0109" H 2700 3450 50  0001 C CNN
F 1 "+3V3" H 2715 3773 50  0000 C CNN
F 2 "" H 2700 3600 50  0001 C CNN
F 3 "" H 2700 3600 50  0001 C CNN
	1    2700 3600
	1    0    0    -1  
$EndComp
Wire Wire Line
	2500 3600 2500 3700
Wire Wire Line
	2500 3700 2150 3700
Wire Wire Line
	2700 3600 2700 3800
Wire Wire Line
	2700 3800 2150 3800
$Comp
L Device:LED D1
U 1 1 5E263D35
P 750 2900
F 0 "D1" V 788 2783 50  0000 R CNN
F 1 "LED" V 697 2783 50  0000 R CNN
F 2 "LED_THT:LED_D3.0mm" H 750 2900 50  0001 C CNN
F 3 "~" H 750 2900 50  0001 C CNN
	1    750  2900
	0    -1   -1   0   
$EndComp
$Comp
L Device:LED D2
U 1 1 5E263E74
P 1100 2900
F 0 "D2" V 1138 2783 50  0000 R CNN
F 1 "LED" V 1047 2783 50  0000 R CNN
F 2 "LED_THT:LED_D3.0mm" H 1100 2900 50  0001 C CNN
F 3 "~" H 1100 2900 50  0001 C CNN
	1    1100 2900
	0    -1   -1   0   
$EndComp
$Comp
L Device:LED D3
U 1 1 5E263F16
P 1500 2900
F 0 "D3" V 1538 2783 50  0000 R CNN
F 1 "LED" V 1447 2783 50  0000 R CNN
F 2 "LED_THT:LED_D3.0mm" H 1500 2900 50  0001 C CNN
F 3 "~" H 1500 2900 50  0001 C CNN
	1    1500 2900
	0    -1   -1   0   
$EndComp
$Comp
L Device:R R1
U 1 1 5E265C66
P 750 3300
F 0 "R1" H 820 3346 50  0000 L CNN
F 1 "1K" H 820 3255 50  0000 L CNN
F 2 "Resistor_THT:R_Axial_DIN0207_L6.3mm_D2.5mm_P7.62mm_Horizontal" V 680 3300 50  0001 C CNN
F 3 "~" H 750 3300 50  0001 C CNN
	1    750  3300
	1    0    0    -1  
$EndComp
$Comp
L Device:R R2
U 1 1 5E265D2A
P 1100 3300
F 0 "R2" H 1170 3346 50  0000 L CNN
F 1 "1K" H 1170 3255 50  0000 L CNN
F 2 "Resistor_THT:R_Axial_DIN0207_L6.3mm_D2.5mm_P7.62mm_Horizontal" V 1030 3300 50  0001 C CNN
F 3 "~" H 1100 3300 50  0001 C CNN
	1    1100 3300
	1    0    0    -1  
$EndComp
$Comp
L Device:R R3
U 1 1 5E265DBE
P 1500 3300
F 0 "R3" H 1570 3346 50  0000 L CNN
F 1 "1K" H 1570 3255 50  0000 L CNN
F 2 "Resistor_THT:R_Axial_DIN0207_L6.3mm_D2.5mm_P7.62mm_Horizontal" V 1430 3300 50  0001 C CNN
F 3 "~" H 1500 3300 50  0001 C CNN
	1    1500 3300
	1    0    0    -1  
$EndComp
Wire Wire Line
	750  3050 750  3150
Wire Wire Line
	1100 3050 1100 3150
Wire Wire Line
	1500 3050 1500 3150
Wire Wire Line
	750  3450 750  3550
Wire Wire Line
	750  3550 1100 3550
Wire Wire Line
	1500 3550 1500 3450
Wire Wire Line
	1100 3450 1100 3550
Connection ~ 1100 3550
Wire Wire Line
	1100 3550 1500 3550
Wire Wire Line
	3800 2400 750  2400
Wire Wire Line
	750  2400 750  2750
Wire Wire Line
	3800 2500 1100 2500
Wire Wire Line
	1100 2500 1100 2750
Wire Wire Line
	3800 2600 1500 2600
Wire Wire Line
	1500 2600 1500 2750
$Comp
L power:GND #PWR0110
U 1 1 5E26FE0B
P 1100 3650
F 0 "#PWR0110" H 1100 3400 50  0001 C CNN
F 1 "GND" H 1105 3477 50  0000 C CNN
F 2 "" H 1100 3650 50  0001 C CNN
F 3 "" H 1100 3650 50  0001 C CNN
	1    1100 3650
	1    0    0    -1  
$EndComp
Wire Wire Line
	1100 3650 1100 3550
Wire Wire Line
	2900 4200 2900 3300
Wire Wire Line
	2150 4200 2900 4200
Wire Wire Line
	2150 4100 3800 4100
Wire Wire Line
	3000 3400 3000 3900
Wire Wire Line
	3100 4000 3100 3500
Wire Wire Line
	2150 4000 3100 4000
Wire Wire Line
	3000 3900 2150 3900
$Comp
L Connector:Conn_01x02_Male J2
U 1 1 5E3E6DE8
P 6650 3800
F 0 "J2" H 6623 3773 50  0000 R CNN
F 1 "Conn_01x02_Male" H 6623 3682 50  0000 R CNN
F 2 "Connector_PinHeader_2.54mm:PinHeader_1x02_P2.54mm_Horizontal" H 6650 3800 50  0001 C CNN
F 3 "~" H 6650 3800 50  0001 C CNN
	1    6650 3800
	-1   0    0    -1  
$EndComp
$EndSCHEMATC
