G04 #@! TF.GenerationSoftware,KiCad,Pcbnew,(5.0.2)-1*
G04 #@! TF.CreationDate,2020-01-30T12:15:08+11:00*
G04 #@! TF.ProjectId,teensy_prototype_stack,7465656e-7379-45f7-9072-6f746f747970,rev?*
G04 #@! TF.SameCoordinates,Original*
G04 #@! TF.FileFunction,Copper,L2,Bot*
G04 #@! TF.FilePolarity,Positive*
%FSLAX46Y46*%
G04 Gerber Fmt 4.6, Leading zero omitted, Abs format (unit mm)*
G04 Created by KiCad (PCBNEW (5.0.2)-1) date 30/01/2020 12:15:08 PM*
%MOMM*%
%LPD*%
G01*
G04 APERTURE LIST*
G04 #@! TA.AperFunction,ComponentPad*
%ADD10O,1.600000X1.600000*%
G04 #@! TD*
G04 #@! TA.AperFunction,ComponentPad*
%ADD11C,1.600000*%
G04 #@! TD*
G04 #@! TA.AperFunction,ComponentPad*
%ADD12R,1.600000X1.600000*%
G04 #@! TD*
G04 #@! TA.AperFunction,ComponentPad*
%ADD13C,1.900000*%
G04 #@! TD*
G04 #@! TA.AperFunction,ComponentPad*
%ADD14R,1.800000X1.800000*%
G04 #@! TD*
G04 #@! TA.AperFunction,ComponentPad*
%ADD15C,1.800000*%
G04 #@! TD*
G04 #@! TA.AperFunction,ComponentPad*
%ADD16R,1.700000X1.700000*%
G04 #@! TD*
G04 #@! TA.AperFunction,ComponentPad*
%ADD17O,1.700000X1.700000*%
G04 #@! TD*
G04 #@! TA.AperFunction,ViaPad*
%ADD18C,0.800000*%
G04 #@! TD*
G04 #@! TA.AperFunction,Conductor*
%ADD19C,0.250000*%
G04 #@! TD*
G04 #@! TA.AperFunction,Conductor*
%ADD20C,0.254000*%
G04 #@! TD*
G04 APERTURE END LIST*
D10*
G04 #@! TO.P,R2,2*
G04 #@! TO.N,GND*
X110100000Y-117656000D03*
D11*
G04 #@! TO.P,R2,1*
G04 #@! TO.N,Net-(D2-Pad1)*
X110100000Y-110036000D03*
G04 #@! TD*
G04 #@! TO.P,U1,17*
G04 #@! TO.N,Net-(U1-Pad17)*
X106410000Y-112776000D03*
G04 #@! TO.P,U1,18*
G04 #@! TO.N,Net-(U1-Pad18)*
X106410000Y-110236000D03*
G04 #@! TO.P,U1,19*
G04 #@! TO.N,Net-(U1-Pad19)*
X106410000Y-107696000D03*
G04 #@! TO.P,U1,20*
G04 #@! TO.N,/SD_SCLK*
X106410000Y-105156000D03*
G04 #@! TO.P,U1,16*
G04 #@! TO.N,Net-(U1-Pad16)*
X106410000Y-115316000D03*
G04 #@! TO.P,U1,15*
G04 #@! TO.N,Net-(U1-Pad15)*
X106410000Y-117856000D03*
G04 #@! TO.P,U1,14*
G04 #@! TO.N,/SD_MOSI*
X106410000Y-120396000D03*
G04 #@! TO.P,U1,21*
G04 #@! TO.N,Net-(U1-Pad21)*
X103870000Y-105156000D03*
G04 #@! TO.P,U1,22*
G04 #@! TO.N,Net-(U1-Pad22)*
X101330000Y-105156000D03*
G04 #@! TO.P,U1,23*
G04 #@! TO.N,Net-(U1-Pad23)*
X98790000Y-105156000D03*
G04 #@! TO.P,U1,24*
G04 #@! TO.N,Net-(U1-Pad24)*
X96250000Y-105156000D03*
G04 #@! TO.P,U1,25*
G04 #@! TO.N,/I2C_SDA*
X93710000Y-105156000D03*
G04 #@! TO.P,U1,26*
G04 #@! TO.N,/I2C_SCLK*
X91170000Y-105156000D03*
G04 #@! TO.P,U1,27*
G04 #@! TO.N,Net-(U1-Pad27)*
X88630000Y-105156000D03*
G04 #@! TO.P,U1,28*
G04 #@! TO.N,Net-(U1-Pad28)*
X86090000Y-105156000D03*
G04 #@! TO.P,U1,29*
G04 #@! TO.N,Net-(U1-Pad29)*
X83550000Y-105156000D03*
G04 #@! TO.P,U1,30*
G04 #@! TO.N,Net-(U1-Pad30)*
X81010000Y-105156000D03*
G04 #@! TO.P,U1,31*
G04 #@! TO.N,+3V3*
X78470000Y-105156000D03*
G04 #@! TO.P,U1,32*
G04 #@! TO.N,Net-(U1-Pad32)*
X75930000Y-105156000D03*
G04 #@! TO.P,U1,33*
G04 #@! TO.N,Net-(J2-Pad1)*
X73390000Y-105156000D03*
G04 #@! TO.P,U1,34*
G04 #@! TO.N,Net-(U1-Pad34)*
X75930000Y-107696000D03*
G04 #@! TO.P,U1,35*
G04 #@! TO.N,Net-(U1-Pad35)*
X81010000Y-107696000D03*
G04 #@! TO.P,U1,36*
G04 #@! TO.N,Net-(U1-Pad36)*
X83550000Y-107696000D03*
G04 #@! TO.P,U1,37*
G04 #@! TO.N,Net-(U1-Pad37)*
X86090000Y-107696000D03*
G04 #@! TO.P,U1,13*
G04 #@! TO.N,/SD_MISO*
X103870000Y-120396000D03*
G04 #@! TO.P,U1,12*
G04 #@! TO.N,/SD_CSN*
X101330000Y-120396000D03*
G04 #@! TO.P,U1,11*
G04 #@! TO.N,/RF24_SCLK*
X98790000Y-120396000D03*
G04 #@! TO.P,U1,10*
G04 #@! TO.N,/RF24_MOSI*
X96250000Y-120396000D03*
G04 #@! TO.P,U1,9*
G04 #@! TO.N,/RF24_MISO*
X93710000Y-120396000D03*
G04 #@! TO.P,U1,8*
G04 #@! TO.N,/RF24_CSN*
X91170000Y-120396000D03*
G04 #@! TO.P,U1,7*
G04 #@! TO.N,/RF24_CE*
X88630000Y-120396000D03*
G04 #@! TO.P,U1,6*
G04 #@! TO.N,Net-(U1-Pad6)*
X86090000Y-120396000D03*
G04 #@! TO.P,U1,5*
G04 #@! TO.N,Net-(D3-Pad2)*
X83550000Y-120396000D03*
G04 #@! TO.P,U1,4*
G04 #@! TO.N,Net-(D2-Pad2)*
X81010000Y-120396000D03*
G04 #@! TO.P,U1,3*
G04 #@! TO.N,Net-(D1-Pad2)*
X78470000Y-120396000D03*
G04 #@! TO.P,U1,2*
G04 #@! TO.N,/RF24_IRQ*
X75930000Y-120396000D03*
D12*
G04 #@! TO.P,U1,1*
G04 #@! TO.N,GND*
X73390000Y-120396000D03*
D13*
G04 #@! TO.P,U1,52*
G04 #@! TO.N,N/C*
X83550000Y-112776000D03*
X79740000Y-112776000D03*
G04 #@! TD*
D14*
G04 #@! TO.P,D1,1*
G04 #@! TO.N,Net-(D1-Pad1)*
X115600000Y-102036000D03*
D15*
G04 #@! TO.P,D1,2*
G04 #@! TO.N,Net-(D1-Pad2)*
X113060000Y-102036000D03*
G04 #@! TD*
G04 #@! TO.P,D2,2*
G04 #@! TO.N,Net-(D2-Pad2)*
X113060000Y-108036000D03*
D14*
G04 #@! TO.P,D2,1*
G04 #@! TO.N,Net-(D2-Pad1)*
X115600000Y-108036000D03*
G04 #@! TD*
G04 #@! TO.P,D3,1*
G04 #@! TO.N,Net-(D3-Pad1)*
X115600000Y-114036000D03*
D15*
G04 #@! TO.P,D3,2*
G04 #@! TO.N,Net-(D3-Pad2)*
X113060000Y-114036000D03*
G04 #@! TD*
D16*
G04 #@! TO.P,J3,1*
G04 #@! TO.N,GND*
X75930000Y-128016000D03*
D17*
G04 #@! TO.P,J3,2*
G04 #@! TO.N,+3V3*
X78470000Y-128016000D03*
G04 #@! TO.P,J3,3*
G04 #@! TO.N,/SD_MISO*
X81010000Y-128016000D03*
G04 #@! TO.P,J3,4*
G04 #@! TO.N,/SD_MOSI*
X83550000Y-128016000D03*
G04 #@! TO.P,J3,5*
G04 #@! TO.N,/SD_SCLK*
X86090000Y-128016000D03*
G04 #@! TO.P,J3,6*
G04 #@! TO.N,/SD_CSN*
X88630000Y-128016000D03*
G04 #@! TO.P,J3,7*
G04 #@! TO.N,Net-(J3-Pad7)*
X91170000Y-128016000D03*
G04 #@! TD*
D16*
G04 #@! TO.P,J4,1*
G04 #@! TO.N,Net-(J4-Pad1)*
X86090000Y-100076000D03*
D17*
G04 #@! TO.P,J4,2*
G04 #@! TO.N,Net-(J4-Pad2)*
X88630000Y-100076000D03*
G04 #@! TO.P,J4,3*
G04 #@! TO.N,/I2C_SCLK*
X91170000Y-100076000D03*
G04 #@! TO.P,J4,4*
G04 #@! TO.N,/I2C_SDA*
X93710000Y-100076000D03*
G04 #@! TO.P,J4,5*
G04 #@! TO.N,+3V3*
X96250000Y-100076000D03*
G04 #@! TO.P,J4,6*
G04 #@! TO.N,GND*
X98790000Y-100076000D03*
G04 #@! TO.P,J4,7*
G04 #@! TO.N,Net-(J4-Pad7)*
X101330000Y-100076000D03*
G04 #@! TO.P,J4,8*
G04 #@! TO.N,Net-(J4-Pad8)*
X103870000Y-100076000D03*
G04 #@! TD*
D16*
G04 #@! TO.P,J1,1*
G04 #@! TO.N,+3V3*
X98790000Y-125476000D03*
D17*
G04 #@! TO.P,J1,2*
G04 #@! TO.N,GND*
X98790000Y-128016000D03*
G04 #@! TO.P,J1,3*
G04 #@! TO.N,/RF24_CSN*
X101330000Y-125476000D03*
G04 #@! TO.P,J1,4*
G04 #@! TO.N,/RF24_CE*
X101330000Y-128016000D03*
G04 #@! TO.P,J1,5*
G04 #@! TO.N,/RF24_MOSI*
X103870000Y-125476000D03*
G04 #@! TO.P,J1,6*
G04 #@! TO.N,/RF24_SCLK*
X103870000Y-128016000D03*
G04 #@! TO.P,J1,7*
G04 #@! TO.N,/RF24_IRQ*
X106410000Y-125476000D03*
G04 #@! TO.P,J1,8*
G04 #@! TO.N,/RF24_MISO*
X106410000Y-128016000D03*
G04 #@! TD*
D11*
G04 #@! TO.P,R1,1*
G04 #@! TO.N,Net-(D1-Pad1)*
X110100000Y-99786000D03*
D10*
G04 #@! TO.P,R1,2*
G04 #@! TO.N,GND*
X110100000Y-107406000D03*
G04 #@! TD*
D11*
G04 #@! TO.P,R3,1*
G04 #@! TO.N,Net-(D3-Pad1)*
X110100000Y-120536000D03*
D10*
G04 #@! TO.P,R3,2*
G04 #@! TO.N,GND*
X110100000Y-128156000D03*
G04 #@! TD*
D16*
G04 #@! TO.P,J2,1*
G04 #@! TO.N,Net-(J2-Pad1)*
X115050000Y-129536000D03*
D17*
G04 #@! TO.P,J2,2*
G04 #@! TO.N,GND*
X112510000Y-129536000D03*
G04 #@! TD*
D18*
G04 #@! TO.N,GND*
X86090000Y-110236000D03*
X96250000Y-115316000D03*
X96250000Y-117856000D03*
X86090000Y-122936000D03*
X83550000Y-125476000D03*
X75930000Y-110236000D03*
X101330000Y-102616000D03*
X76565000Y-122301000D03*
X107850000Y-100076000D03*
X99024632Y-108336048D03*
X110250000Y-112136000D03*
G04 #@! TO.N,+3V3*
X93583000Y-124079000D03*
G04 #@! TD*
D19*
G04 #@! TO.N,+3V3*
X78470000Y-104024630D02*
X80005630Y-102489000D01*
X78470000Y-105156000D02*
X78470000Y-104024630D01*
X93837000Y-102489000D02*
X96250000Y-100076000D01*
X80005630Y-102489000D02*
X93837000Y-102489000D01*
X78470000Y-128016000D02*
X78470000Y-122555000D01*
X78470000Y-110109000D02*
X78470000Y-105156000D01*
X77200000Y-111379000D02*
X78470000Y-110109000D01*
X77200000Y-121285000D02*
X77200000Y-111379000D01*
X80248000Y-124333000D02*
X77200000Y-121285000D01*
X93583000Y-124079000D02*
X93329000Y-124333000D01*
X93329000Y-124333000D02*
X80248000Y-124333000D01*
G04 #@! TO.N,/SD_MISO*
X104669999Y-119596001D02*
X103870000Y-120396000D01*
X107807000Y-121158000D02*
X107807000Y-119761000D01*
X81010000Y-128016000D02*
X81010000Y-129218081D01*
X81010000Y-129218081D02*
X81712919Y-129921000D01*
X81712919Y-129921000D02*
X91865000Y-129921000D01*
X91865000Y-129921000D02*
X97961000Y-123825000D01*
X107807000Y-119761000D02*
X107172000Y-119126000D01*
X97961000Y-123825000D02*
X105140000Y-123825000D01*
X107172000Y-119126000D02*
X105140000Y-119126000D01*
X105140000Y-123825000D02*
X107807000Y-121158000D01*
X105140000Y-119126000D02*
X104669999Y-119596001D01*
G04 #@! TO.N,/SD_MOSI*
X105610001Y-121195999D02*
X106410000Y-120396000D01*
X103616000Y-123190000D02*
X105610001Y-121195999D01*
X97796000Y-123190000D02*
X103616000Y-123190000D01*
X91700000Y-129286000D02*
X97796000Y-123190000D01*
X83550000Y-128016000D02*
X84820000Y-129286000D01*
X84820000Y-129286000D02*
X91700000Y-129286000D01*
G04 #@! TO.N,/SD_SCLK*
X105610001Y-105955999D02*
X106410000Y-105156000D01*
X105610001Y-106336999D02*
X105610001Y-105955999D01*
X103489000Y-116205000D02*
X103489000Y-108458000D01*
X103489000Y-108458000D02*
X105610001Y-106336999D01*
X100060000Y-119634000D02*
X103489000Y-116205000D01*
X88376000Y-125730000D02*
X93256000Y-125730000D01*
X86090000Y-128016000D02*
X88376000Y-125730000D01*
X93256000Y-125730000D02*
X96939000Y-122047000D01*
X96939000Y-122047000D02*
X98917000Y-122047000D01*
X98917000Y-122047000D02*
X100060000Y-120904000D01*
X100060000Y-120904000D02*
X100060000Y-119634000D01*
G04 #@! TO.N,/SD_CSN*
X100530001Y-121195999D02*
X101330000Y-120396000D01*
X99101989Y-122624011D02*
X100530001Y-121195999D01*
X97361989Y-122624011D02*
X99101989Y-122624011D01*
X93367000Y-126619000D02*
X97361989Y-122624011D01*
X88630000Y-128016000D02*
X90027000Y-126619000D01*
X90027000Y-126619000D02*
X93367000Y-126619000D01*
G04 #@! TD*
D20*
G04 #@! TO.N,GND*
G36*
X117140001Y-101098601D02*
X117098157Y-100888235D01*
X116957809Y-100678191D01*
X116747765Y-100537843D01*
X116500000Y-100488560D01*
X114700000Y-100488560D01*
X114452235Y-100537843D01*
X114242191Y-100678191D01*
X114101843Y-100888235D01*
X114098725Y-100903908D01*
X113929507Y-100734690D01*
X113365330Y-100501000D01*
X112754670Y-100501000D01*
X112190493Y-100734690D01*
X111758690Y-101166493D01*
X111525000Y-101730670D01*
X111525000Y-102341330D01*
X111758690Y-102905507D01*
X112190493Y-103337310D01*
X112754670Y-103571000D01*
X113365330Y-103571000D01*
X113929507Y-103337310D01*
X114098725Y-103168092D01*
X114101843Y-103183765D01*
X114242191Y-103393809D01*
X114452235Y-103534157D01*
X114700000Y-103583440D01*
X116500000Y-103583440D01*
X116747765Y-103534157D01*
X116957809Y-103393809D01*
X117098157Y-103183765D01*
X117140001Y-102973400D01*
X117140001Y-107098600D01*
X117098157Y-106888235D01*
X116957809Y-106678191D01*
X116747765Y-106537843D01*
X116500000Y-106488560D01*
X114700000Y-106488560D01*
X114452235Y-106537843D01*
X114242191Y-106678191D01*
X114101843Y-106888235D01*
X114098725Y-106903908D01*
X113929507Y-106734690D01*
X113365330Y-106501000D01*
X112754670Y-106501000D01*
X112190493Y-106734690D01*
X111758690Y-107166493D01*
X111525000Y-107730670D01*
X111525000Y-108341330D01*
X111758690Y-108905507D01*
X112190493Y-109337310D01*
X112754670Y-109571000D01*
X113365330Y-109571000D01*
X113929507Y-109337310D01*
X114098725Y-109168092D01*
X114101843Y-109183765D01*
X114242191Y-109393809D01*
X114452235Y-109534157D01*
X114700000Y-109583440D01*
X116500000Y-109583440D01*
X116747765Y-109534157D01*
X116957809Y-109393809D01*
X117098157Y-109183765D01*
X117140001Y-108973400D01*
X117140001Y-113098599D01*
X117098157Y-112888235D01*
X116957809Y-112678191D01*
X116747765Y-112537843D01*
X116500000Y-112488560D01*
X114700000Y-112488560D01*
X114452235Y-112537843D01*
X114242191Y-112678191D01*
X114101843Y-112888235D01*
X114098725Y-112903908D01*
X113929507Y-112734690D01*
X113365330Y-112501000D01*
X112754670Y-112501000D01*
X112190493Y-112734690D01*
X111758690Y-113166493D01*
X111525000Y-113730670D01*
X111525000Y-114341330D01*
X111758690Y-114905507D01*
X112190493Y-115337310D01*
X112754670Y-115571000D01*
X113365330Y-115571000D01*
X113929507Y-115337310D01*
X114098725Y-115168092D01*
X114101843Y-115183765D01*
X114242191Y-115393809D01*
X114452235Y-115534157D01*
X114700000Y-115583440D01*
X116500000Y-115583440D01*
X116747765Y-115534157D01*
X116957809Y-115393809D01*
X117098157Y-115183765D01*
X117140001Y-114973401D01*
X117140000Y-131826000D01*
X70560000Y-131826000D01*
X70560000Y-128301750D01*
X74445000Y-128301750D01*
X74445000Y-128992309D01*
X74541673Y-129225698D01*
X74720301Y-129404327D01*
X74953690Y-129501000D01*
X75644250Y-129501000D01*
X75803000Y-129342250D01*
X75803000Y-128143000D01*
X74603750Y-128143000D01*
X74445000Y-128301750D01*
X70560000Y-128301750D01*
X70560000Y-127039691D01*
X74445000Y-127039691D01*
X74445000Y-127730250D01*
X74603750Y-127889000D01*
X75803000Y-127889000D01*
X75803000Y-126689750D01*
X75644250Y-126531000D01*
X74953690Y-126531000D01*
X74720301Y-126627673D01*
X74541673Y-126806302D01*
X74445000Y-127039691D01*
X70560000Y-127039691D01*
X70560000Y-120681750D01*
X71955000Y-120681750D01*
X71955000Y-121322310D01*
X72051673Y-121555699D01*
X72230302Y-121734327D01*
X72463691Y-121831000D01*
X73104250Y-121831000D01*
X73263000Y-121672250D01*
X73263000Y-120523000D01*
X72113750Y-120523000D01*
X71955000Y-120681750D01*
X70560000Y-120681750D01*
X70560000Y-119469690D01*
X71955000Y-119469690D01*
X71955000Y-120110250D01*
X72113750Y-120269000D01*
X73263000Y-120269000D01*
X73263000Y-119119750D01*
X73104250Y-118961000D01*
X72463691Y-118961000D01*
X72230302Y-119057673D01*
X72051673Y-119236301D01*
X71955000Y-119469690D01*
X70560000Y-119469690D01*
X70560000Y-104870561D01*
X71955000Y-104870561D01*
X71955000Y-105441439D01*
X72173466Y-105968862D01*
X72577138Y-106372534D01*
X73104561Y-106591000D01*
X73675439Y-106591000D01*
X74202862Y-106372534D01*
X74606534Y-105968862D01*
X74660000Y-105839784D01*
X74713466Y-105968862D01*
X75117138Y-106372534D01*
X75246216Y-106426000D01*
X75117138Y-106479466D01*
X74713466Y-106883138D01*
X74495000Y-107410561D01*
X74495000Y-107981439D01*
X74713466Y-108508862D01*
X75117138Y-108912534D01*
X75644561Y-109131000D01*
X76215439Y-109131000D01*
X76742862Y-108912534D01*
X77146534Y-108508862D01*
X77365000Y-107981439D01*
X77365000Y-107410561D01*
X77146534Y-106883138D01*
X76742862Y-106479466D01*
X76613784Y-106426000D01*
X76742862Y-106372534D01*
X77146534Y-105968862D01*
X77200000Y-105839784D01*
X77253466Y-105968862D01*
X77657138Y-106372534D01*
X77710001Y-106394430D01*
X77710000Y-109794198D01*
X76715528Y-110788671D01*
X76652072Y-110831071D01*
X76609672Y-110894527D01*
X76609671Y-110894528D01*
X76484097Y-111082463D01*
X76425112Y-111379000D01*
X76440001Y-111453852D01*
X76440000Y-119054016D01*
X76215439Y-118961000D01*
X75644561Y-118961000D01*
X75117138Y-119179466D01*
X74825000Y-119471604D01*
X74825000Y-119469690D01*
X74728327Y-119236301D01*
X74549698Y-119057673D01*
X74316309Y-118961000D01*
X73675750Y-118961000D01*
X73517000Y-119119750D01*
X73517000Y-120269000D01*
X73537000Y-120269000D01*
X73537000Y-120523000D01*
X73517000Y-120523000D01*
X73517000Y-121672250D01*
X73675750Y-121831000D01*
X74316309Y-121831000D01*
X74549698Y-121734327D01*
X74728327Y-121555699D01*
X74825000Y-121322310D01*
X74825000Y-121320396D01*
X75117138Y-121612534D01*
X75644561Y-121831000D01*
X76215439Y-121831000D01*
X76556412Y-121689764D01*
X76652071Y-121832929D01*
X76715530Y-121875331D01*
X77710001Y-122869802D01*
X77710000Y-126737822D01*
X77399375Y-126945375D01*
X77384904Y-126967033D01*
X77318327Y-126806302D01*
X77139699Y-126627673D01*
X76906310Y-126531000D01*
X76215750Y-126531000D01*
X76057000Y-126689750D01*
X76057000Y-127889000D01*
X76077000Y-127889000D01*
X76077000Y-128143000D01*
X76057000Y-128143000D01*
X76057000Y-129342250D01*
X76215750Y-129501000D01*
X76906310Y-129501000D01*
X77139699Y-129404327D01*
X77318327Y-129225698D01*
X77384904Y-129064967D01*
X77399375Y-129086625D01*
X77890582Y-129414839D01*
X78323744Y-129501000D01*
X78616256Y-129501000D01*
X79049418Y-129414839D01*
X79540625Y-129086625D01*
X79740000Y-128788239D01*
X79939375Y-129086625D01*
X80250287Y-129294370D01*
X80294097Y-129514618D01*
X80462072Y-129766010D01*
X80525528Y-129808410D01*
X81122590Y-130405473D01*
X81164990Y-130468929D01*
X81416382Y-130636904D01*
X81638067Y-130681000D01*
X81638071Y-130681000D01*
X81712919Y-130695888D01*
X81787767Y-130681000D01*
X91790153Y-130681000D01*
X91865000Y-130695888D01*
X91939847Y-130681000D01*
X91939852Y-130681000D01*
X92161537Y-130636904D01*
X92412929Y-130468929D01*
X92455331Y-130405470D01*
X92967909Y-129892892D01*
X111068514Y-129892892D01*
X111314817Y-130417358D01*
X111743076Y-130807645D01*
X112153110Y-130977476D01*
X112383000Y-130856155D01*
X112383000Y-129663000D01*
X111189181Y-129663000D01*
X111068514Y-129892892D01*
X92967909Y-129892892D01*
X94487909Y-128372892D01*
X97348514Y-128372892D01*
X97594817Y-128897358D01*
X98023076Y-129287645D01*
X98433110Y-129457476D01*
X98663000Y-129336155D01*
X98663000Y-128143000D01*
X97469181Y-128143000D01*
X97348514Y-128372892D01*
X94487909Y-128372892D01*
X97292560Y-125568242D01*
X97292560Y-126326000D01*
X97341843Y-126573765D01*
X97482191Y-126783809D01*
X97692235Y-126924157D01*
X97801855Y-126945961D01*
X97594817Y-127134642D01*
X97348514Y-127659108D01*
X97469181Y-127889000D01*
X98663000Y-127889000D01*
X98663000Y-127869000D01*
X98917000Y-127869000D01*
X98917000Y-127889000D01*
X98937000Y-127889000D01*
X98937000Y-128143000D01*
X98917000Y-128143000D01*
X98917000Y-129336155D01*
X99146890Y-129457476D01*
X99556924Y-129287645D01*
X99985183Y-128897358D01*
X100046157Y-128767522D01*
X100259375Y-129086625D01*
X100750582Y-129414839D01*
X101183744Y-129501000D01*
X101476256Y-129501000D01*
X101909418Y-129414839D01*
X102400625Y-129086625D01*
X102600000Y-128788239D01*
X102799375Y-129086625D01*
X103290582Y-129414839D01*
X103723744Y-129501000D01*
X104016256Y-129501000D01*
X104449418Y-129414839D01*
X104940625Y-129086625D01*
X105140000Y-128788239D01*
X105339375Y-129086625D01*
X105830582Y-129414839D01*
X106263744Y-129501000D01*
X106556256Y-129501000D01*
X106989418Y-129414839D01*
X107480625Y-129086625D01*
X107808839Y-128595418D01*
X107826816Y-128505041D01*
X108708086Y-128505041D01*
X108947611Y-129011134D01*
X109362577Y-129387041D01*
X109750961Y-129547904D01*
X109973000Y-129425915D01*
X109973000Y-128283000D01*
X110227000Y-128283000D01*
X110227000Y-129425915D01*
X110449039Y-129547904D01*
X110837423Y-129387041D01*
X111069663Y-129176660D01*
X111068514Y-129179108D01*
X111189181Y-129409000D01*
X112383000Y-129409000D01*
X112383000Y-128215845D01*
X112637000Y-128215845D01*
X112637000Y-129409000D01*
X112657000Y-129409000D01*
X112657000Y-129663000D01*
X112637000Y-129663000D01*
X112637000Y-130856155D01*
X112866890Y-130977476D01*
X113276924Y-130807645D01*
X113581261Y-130530292D01*
X113601843Y-130633765D01*
X113742191Y-130843809D01*
X113952235Y-130984157D01*
X114200000Y-131033440D01*
X115900000Y-131033440D01*
X116147765Y-130984157D01*
X116357809Y-130843809D01*
X116498157Y-130633765D01*
X116547440Y-130386000D01*
X116547440Y-128686000D01*
X116498157Y-128438235D01*
X116357809Y-128228191D01*
X116147765Y-128087843D01*
X115900000Y-128038560D01*
X114200000Y-128038560D01*
X113952235Y-128087843D01*
X113742191Y-128228191D01*
X113601843Y-128438235D01*
X113581261Y-128541708D01*
X113276924Y-128264355D01*
X112866890Y-128094524D01*
X112637000Y-128215845D01*
X112383000Y-128215845D01*
X112153110Y-128094524D01*
X111743076Y-128264355D01*
X111487613Y-128497167D01*
X111370629Y-128283000D01*
X110227000Y-128283000D01*
X109973000Y-128283000D01*
X108829371Y-128283000D01*
X108708086Y-128505041D01*
X107826816Y-128505041D01*
X107924092Y-128016000D01*
X107882512Y-127806959D01*
X108708086Y-127806959D01*
X108829371Y-128029000D01*
X109973000Y-128029000D01*
X109973000Y-126886085D01*
X110227000Y-126886085D01*
X110227000Y-128029000D01*
X111370629Y-128029000D01*
X111491914Y-127806959D01*
X111252389Y-127300866D01*
X110837423Y-126924959D01*
X110449039Y-126764096D01*
X110227000Y-126886085D01*
X109973000Y-126886085D01*
X109750961Y-126764096D01*
X109362577Y-126924959D01*
X108947611Y-127300866D01*
X108708086Y-127806959D01*
X107882512Y-127806959D01*
X107808839Y-127436582D01*
X107480625Y-126945375D01*
X107182239Y-126746000D01*
X107480625Y-126546625D01*
X107808839Y-126055418D01*
X107924092Y-125476000D01*
X107808839Y-124896582D01*
X107480625Y-124405375D01*
X106989418Y-124077161D01*
X106556256Y-123991000D01*
X106263744Y-123991000D01*
X105995430Y-124044371D01*
X108291473Y-121748329D01*
X108354929Y-121705929D01*
X108522904Y-121454537D01*
X108567000Y-121232852D01*
X108567000Y-121232848D01*
X108581888Y-121158000D01*
X108567000Y-121083152D01*
X108567000Y-120250561D01*
X108665000Y-120250561D01*
X108665000Y-120821439D01*
X108883466Y-121348862D01*
X109287138Y-121752534D01*
X109814561Y-121971000D01*
X110385439Y-121971000D01*
X110912862Y-121752534D01*
X111316534Y-121348862D01*
X111535000Y-120821439D01*
X111535000Y-120250561D01*
X111316534Y-119723138D01*
X110912862Y-119319466D01*
X110385439Y-119101000D01*
X109814561Y-119101000D01*
X109287138Y-119319466D01*
X108883466Y-119723138D01*
X108665000Y-120250561D01*
X108567000Y-120250561D01*
X108567000Y-119835848D01*
X108581888Y-119761000D01*
X108567000Y-119686152D01*
X108567000Y-119686148D01*
X108522904Y-119464463D01*
X108354929Y-119213071D01*
X108291473Y-119170671D01*
X107762331Y-118641530D01*
X107719929Y-118578071D01*
X107676234Y-118548875D01*
X107845000Y-118141439D01*
X107845000Y-118005041D01*
X108708086Y-118005041D01*
X108947611Y-118511134D01*
X109362577Y-118887041D01*
X109750961Y-119047904D01*
X109973000Y-118925915D01*
X109973000Y-117783000D01*
X110227000Y-117783000D01*
X110227000Y-118925915D01*
X110449039Y-119047904D01*
X110837423Y-118887041D01*
X111252389Y-118511134D01*
X111491914Y-118005041D01*
X111370629Y-117783000D01*
X110227000Y-117783000D01*
X109973000Y-117783000D01*
X108829371Y-117783000D01*
X108708086Y-118005041D01*
X107845000Y-118005041D01*
X107845000Y-117570561D01*
X107735813Y-117306959D01*
X108708086Y-117306959D01*
X108829371Y-117529000D01*
X109973000Y-117529000D01*
X109973000Y-116386085D01*
X110227000Y-116386085D01*
X110227000Y-117529000D01*
X111370629Y-117529000D01*
X111491914Y-117306959D01*
X111252389Y-116800866D01*
X110837423Y-116424959D01*
X110449039Y-116264096D01*
X110227000Y-116386085D01*
X109973000Y-116386085D01*
X109750961Y-116264096D01*
X109362577Y-116424959D01*
X108947611Y-116800866D01*
X108708086Y-117306959D01*
X107735813Y-117306959D01*
X107626534Y-117043138D01*
X107222862Y-116639466D01*
X107093784Y-116586000D01*
X107222862Y-116532534D01*
X107626534Y-116128862D01*
X107845000Y-115601439D01*
X107845000Y-115030561D01*
X107626534Y-114503138D01*
X107222862Y-114099466D01*
X107093784Y-114046000D01*
X107222862Y-113992534D01*
X107626534Y-113588862D01*
X107845000Y-113061439D01*
X107845000Y-112490561D01*
X107626534Y-111963138D01*
X107222862Y-111559466D01*
X107093784Y-111506000D01*
X107222862Y-111452534D01*
X107626534Y-111048862D01*
X107845000Y-110521439D01*
X107845000Y-109950561D01*
X107762158Y-109750561D01*
X108665000Y-109750561D01*
X108665000Y-110321439D01*
X108883466Y-110848862D01*
X109287138Y-111252534D01*
X109814561Y-111471000D01*
X110385439Y-111471000D01*
X110912862Y-111252534D01*
X111316534Y-110848862D01*
X111535000Y-110321439D01*
X111535000Y-109750561D01*
X111316534Y-109223138D01*
X110912862Y-108819466D01*
X110654930Y-108712627D01*
X110837423Y-108637041D01*
X111252389Y-108261134D01*
X111491914Y-107755041D01*
X111370629Y-107533000D01*
X110227000Y-107533000D01*
X110227000Y-107553000D01*
X109973000Y-107553000D01*
X109973000Y-107533000D01*
X108829371Y-107533000D01*
X108708086Y-107755041D01*
X108947611Y-108261134D01*
X109362577Y-108637041D01*
X109545070Y-108712627D01*
X109287138Y-108819466D01*
X108883466Y-109223138D01*
X108665000Y-109750561D01*
X107762158Y-109750561D01*
X107626534Y-109423138D01*
X107222862Y-109019466D01*
X107093784Y-108966000D01*
X107222862Y-108912534D01*
X107626534Y-108508862D01*
X107845000Y-107981439D01*
X107845000Y-107410561D01*
X107698534Y-107056959D01*
X108708086Y-107056959D01*
X108829371Y-107279000D01*
X109973000Y-107279000D01*
X109973000Y-106136085D01*
X110227000Y-106136085D01*
X110227000Y-107279000D01*
X111370629Y-107279000D01*
X111491914Y-107056959D01*
X111252389Y-106550866D01*
X110837423Y-106174959D01*
X110449039Y-106014096D01*
X110227000Y-106136085D01*
X109973000Y-106136085D01*
X109750961Y-106014096D01*
X109362577Y-106174959D01*
X108947611Y-106550866D01*
X108708086Y-107056959D01*
X107698534Y-107056959D01*
X107626534Y-106883138D01*
X107222862Y-106479466D01*
X107093784Y-106426000D01*
X107222862Y-106372534D01*
X107626534Y-105968862D01*
X107845000Y-105441439D01*
X107845000Y-104870561D01*
X107626534Y-104343138D01*
X107222862Y-103939466D01*
X106695439Y-103721000D01*
X106124561Y-103721000D01*
X105597138Y-103939466D01*
X105193466Y-104343138D01*
X105140000Y-104472216D01*
X105086534Y-104343138D01*
X104682862Y-103939466D01*
X104155439Y-103721000D01*
X103584561Y-103721000D01*
X103057138Y-103939466D01*
X102653466Y-104343138D01*
X102600000Y-104472216D01*
X102546534Y-104343138D01*
X102142862Y-103939466D01*
X101615439Y-103721000D01*
X101044561Y-103721000D01*
X100517138Y-103939466D01*
X100113466Y-104343138D01*
X100060000Y-104472216D01*
X100006534Y-104343138D01*
X99602862Y-103939466D01*
X99075439Y-103721000D01*
X98504561Y-103721000D01*
X97977138Y-103939466D01*
X97573466Y-104343138D01*
X97520000Y-104472216D01*
X97466534Y-104343138D01*
X97062862Y-103939466D01*
X96535439Y-103721000D01*
X95964561Y-103721000D01*
X95437138Y-103939466D01*
X95033466Y-104343138D01*
X94980000Y-104472216D01*
X94926534Y-104343138D01*
X94522862Y-103939466D01*
X93995439Y-103721000D01*
X93424561Y-103721000D01*
X92897138Y-103939466D01*
X92493466Y-104343138D01*
X92440000Y-104472216D01*
X92386534Y-104343138D01*
X91982862Y-103939466D01*
X91455439Y-103721000D01*
X90884561Y-103721000D01*
X90357138Y-103939466D01*
X89953466Y-104343138D01*
X89900000Y-104472216D01*
X89846534Y-104343138D01*
X89442862Y-103939466D01*
X88915439Y-103721000D01*
X88344561Y-103721000D01*
X87817138Y-103939466D01*
X87413466Y-104343138D01*
X87360000Y-104472216D01*
X87306534Y-104343138D01*
X86902862Y-103939466D01*
X86375439Y-103721000D01*
X85804561Y-103721000D01*
X85277138Y-103939466D01*
X84873466Y-104343138D01*
X84820000Y-104472216D01*
X84766534Y-104343138D01*
X84362862Y-103939466D01*
X83835439Y-103721000D01*
X83264561Y-103721000D01*
X82737138Y-103939466D01*
X82333466Y-104343138D01*
X82280000Y-104472216D01*
X82226534Y-104343138D01*
X81822862Y-103939466D01*
X81295439Y-103721000D01*
X80724561Y-103721000D01*
X80197138Y-103939466D01*
X79793466Y-104343138D01*
X79740000Y-104472216D01*
X79686534Y-104343138D01*
X79456414Y-104113018D01*
X80320432Y-103249000D01*
X93762153Y-103249000D01*
X93837000Y-103263888D01*
X93911847Y-103249000D01*
X93911852Y-103249000D01*
X94133537Y-103204904D01*
X94384929Y-103036929D01*
X94427331Y-102973470D01*
X95883593Y-101517209D01*
X96103744Y-101561000D01*
X96396256Y-101561000D01*
X96829418Y-101474839D01*
X97320625Y-101146625D01*
X97533843Y-100827522D01*
X97594817Y-100957358D01*
X98023076Y-101347645D01*
X98433110Y-101517476D01*
X98663000Y-101396155D01*
X98663000Y-100203000D01*
X98643000Y-100203000D01*
X98643000Y-99949000D01*
X98663000Y-99949000D01*
X98663000Y-98755845D01*
X98917000Y-98755845D01*
X98917000Y-99949000D01*
X98937000Y-99949000D01*
X98937000Y-100203000D01*
X98917000Y-100203000D01*
X98917000Y-101396155D01*
X99146890Y-101517476D01*
X99556924Y-101347645D01*
X99985183Y-100957358D01*
X100046157Y-100827522D01*
X100259375Y-101146625D01*
X100750582Y-101474839D01*
X101183744Y-101561000D01*
X101476256Y-101561000D01*
X101909418Y-101474839D01*
X102400625Y-101146625D01*
X102600000Y-100848239D01*
X102799375Y-101146625D01*
X103290582Y-101474839D01*
X103723744Y-101561000D01*
X104016256Y-101561000D01*
X104449418Y-101474839D01*
X104940625Y-101146625D01*
X105268839Y-100655418D01*
X105384092Y-100076000D01*
X105269631Y-99500561D01*
X108665000Y-99500561D01*
X108665000Y-100071439D01*
X108883466Y-100598862D01*
X109287138Y-101002534D01*
X109814561Y-101221000D01*
X110385439Y-101221000D01*
X110912862Y-101002534D01*
X111316534Y-100598862D01*
X111535000Y-100071439D01*
X111535000Y-99500561D01*
X111316534Y-98973138D01*
X110912862Y-98569466D01*
X110385439Y-98351000D01*
X109814561Y-98351000D01*
X109287138Y-98569466D01*
X108883466Y-98973138D01*
X108665000Y-99500561D01*
X105269631Y-99500561D01*
X105268839Y-99496582D01*
X104940625Y-99005375D01*
X104449418Y-98677161D01*
X104016256Y-98591000D01*
X103723744Y-98591000D01*
X103290582Y-98677161D01*
X102799375Y-99005375D01*
X102600000Y-99303761D01*
X102400625Y-99005375D01*
X101909418Y-98677161D01*
X101476256Y-98591000D01*
X101183744Y-98591000D01*
X100750582Y-98677161D01*
X100259375Y-99005375D01*
X100046157Y-99324478D01*
X99985183Y-99194642D01*
X99556924Y-98804355D01*
X99146890Y-98634524D01*
X98917000Y-98755845D01*
X98663000Y-98755845D01*
X98433110Y-98634524D01*
X98023076Y-98804355D01*
X97594817Y-99194642D01*
X97533843Y-99324478D01*
X97320625Y-99005375D01*
X96829418Y-98677161D01*
X96396256Y-98591000D01*
X96103744Y-98591000D01*
X95670582Y-98677161D01*
X95179375Y-99005375D01*
X94980000Y-99303761D01*
X94780625Y-99005375D01*
X94289418Y-98677161D01*
X93856256Y-98591000D01*
X93563744Y-98591000D01*
X93130582Y-98677161D01*
X92639375Y-99005375D01*
X92440000Y-99303761D01*
X92240625Y-99005375D01*
X91749418Y-98677161D01*
X91316256Y-98591000D01*
X91023744Y-98591000D01*
X90590582Y-98677161D01*
X90099375Y-99005375D01*
X89900000Y-99303761D01*
X89700625Y-99005375D01*
X89209418Y-98677161D01*
X88776256Y-98591000D01*
X88483744Y-98591000D01*
X88050582Y-98677161D01*
X87559375Y-99005375D01*
X87547184Y-99023619D01*
X87538157Y-98978235D01*
X87397809Y-98768191D01*
X87187765Y-98627843D01*
X86940000Y-98578560D01*
X85240000Y-98578560D01*
X84992235Y-98627843D01*
X84782191Y-98768191D01*
X84641843Y-98978235D01*
X84592560Y-99226000D01*
X84592560Y-100926000D01*
X84641843Y-101173765D01*
X84782191Y-101383809D01*
X84992235Y-101524157D01*
X85240000Y-101573440D01*
X86940000Y-101573440D01*
X87187765Y-101524157D01*
X87397809Y-101383809D01*
X87538157Y-101173765D01*
X87547184Y-101128381D01*
X87559375Y-101146625D01*
X88050582Y-101474839D01*
X88483744Y-101561000D01*
X88776256Y-101561000D01*
X89209418Y-101474839D01*
X89700625Y-101146625D01*
X89900000Y-100848239D01*
X90099375Y-101146625D01*
X90590582Y-101474839D01*
X91023744Y-101561000D01*
X91316256Y-101561000D01*
X91749418Y-101474839D01*
X92240625Y-101146625D01*
X92440000Y-100848239D01*
X92639375Y-101146625D01*
X93130582Y-101474839D01*
X93563744Y-101561000D01*
X93690199Y-101561000D01*
X93522199Y-101729000D01*
X80080478Y-101729000D01*
X80005630Y-101714112D01*
X79930782Y-101729000D01*
X79930778Y-101729000D01*
X79757235Y-101763520D01*
X79709092Y-101773096D01*
X79522048Y-101898076D01*
X79457701Y-101941071D01*
X79415301Y-102004527D01*
X77985528Y-103434301D01*
X77922072Y-103476701D01*
X77879672Y-103540157D01*
X77879671Y-103540158D01*
X77754097Y-103728093D01*
X77716983Y-103914677D01*
X77657138Y-103939466D01*
X77253466Y-104343138D01*
X77200000Y-104472216D01*
X77146534Y-104343138D01*
X76742862Y-103939466D01*
X76215439Y-103721000D01*
X75644561Y-103721000D01*
X75117138Y-103939466D01*
X74713466Y-104343138D01*
X74660000Y-104472216D01*
X74606534Y-104343138D01*
X74202862Y-103939466D01*
X73675439Y-103721000D01*
X73104561Y-103721000D01*
X72577138Y-103939466D01*
X72173466Y-104343138D01*
X71955000Y-104870561D01*
X70560000Y-104870561D01*
X70560000Y-98246000D01*
X117140001Y-98246000D01*
X117140001Y-101098601D01*
X117140001Y-101098601D01*
G37*
X117140001Y-101098601D02*
X117098157Y-100888235D01*
X116957809Y-100678191D01*
X116747765Y-100537843D01*
X116500000Y-100488560D01*
X114700000Y-100488560D01*
X114452235Y-100537843D01*
X114242191Y-100678191D01*
X114101843Y-100888235D01*
X114098725Y-100903908D01*
X113929507Y-100734690D01*
X113365330Y-100501000D01*
X112754670Y-100501000D01*
X112190493Y-100734690D01*
X111758690Y-101166493D01*
X111525000Y-101730670D01*
X111525000Y-102341330D01*
X111758690Y-102905507D01*
X112190493Y-103337310D01*
X112754670Y-103571000D01*
X113365330Y-103571000D01*
X113929507Y-103337310D01*
X114098725Y-103168092D01*
X114101843Y-103183765D01*
X114242191Y-103393809D01*
X114452235Y-103534157D01*
X114700000Y-103583440D01*
X116500000Y-103583440D01*
X116747765Y-103534157D01*
X116957809Y-103393809D01*
X117098157Y-103183765D01*
X117140001Y-102973400D01*
X117140001Y-107098600D01*
X117098157Y-106888235D01*
X116957809Y-106678191D01*
X116747765Y-106537843D01*
X116500000Y-106488560D01*
X114700000Y-106488560D01*
X114452235Y-106537843D01*
X114242191Y-106678191D01*
X114101843Y-106888235D01*
X114098725Y-106903908D01*
X113929507Y-106734690D01*
X113365330Y-106501000D01*
X112754670Y-106501000D01*
X112190493Y-106734690D01*
X111758690Y-107166493D01*
X111525000Y-107730670D01*
X111525000Y-108341330D01*
X111758690Y-108905507D01*
X112190493Y-109337310D01*
X112754670Y-109571000D01*
X113365330Y-109571000D01*
X113929507Y-109337310D01*
X114098725Y-109168092D01*
X114101843Y-109183765D01*
X114242191Y-109393809D01*
X114452235Y-109534157D01*
X114700000Y-109583440D01*
X116500000Y-109583440D01*
X116747765Y-109534157D01*
X116957809Y-109393809D01*
X117098157Y-109183765D01*
X117140001Y-108973400D01*
X117140001Y-113098599D01*
X117098157Y-112888235D01*
X116957809Y-112678191D01*
X116747765Y-112537843D01*
X116500000Y-112488560D01*
X114700000Y-112488560D01*
X114452235Y-112537843D01*
X114242191Y-112678191D01*
X114101843Y-112888235D01*
X114098725Y-112903908D01*
X113929507Y-112734690D01*
X113365330Y-112501000D01*
X112754670Y-112501000D01*
X112190493Y-112734690D01*
X111758690Y-113166493D01*
X111525000Y-113730670D01*
X111525000Y-114341330D01*
X111758690Y-114905507D01*
X112190493Y-115337310D01*
X112754670Y-115571000D01*
X113365330Y-115571000D01*
X113929507Y-115337310D01*
X114098725Y-115168092D01*
X114101843Y-115183765D01*
X114242191Y-115393809D01*
X114452235Y-115534157D01*
X114700000Y-115583440D01*
X116500000Y-115583440D01*
X116747765Y-115534157D01*
X116957809Y-115393809D01*
X117098157Y-115183765D01*
X117140001Y-114973401D01*
X117140000Y-131826000D01*
X70560000Y-131826000D01*
X70560000Y-128301750D01*
X74445000Y-128301750D01*
X74445000Y-128992309D01*
X74541673Y-129225698D01*
X74720301Y-129404327D01*
X74953690Y-129501000D01*
X75644250Y-129501000D01*
X75803000Y-129342250D01*
X75803000Y-128143000D01*
X74603750Y-128143000D01*
X74445000Y-128301750D01*
X70560000Y-128301750D01*
X70560000Y-127039691D01*
X74445000Y-127039691D01*
X74445000Y-127730250D01*
X74603750Y-127889000D01*
X75803000Y-127889000D01*
X75803000Y-126689750D01*
X75644250Y-126531000D01*
X74953690Y-126531000D01*
X74720301Y-126627673D01*
X74541673Y-126806302D01*
X74445000Y-127039691D01*
X70560000Y-127039691D01*
X70560000Y-120681750D01*
X71955000Y-120681750D01*
X71955000Y-121322310D01*
X72051673Y-121555699D01*
X72230302Y-121734327D01*
X72463691Y-121831000D01*
X73104250Y-121831000D01*
X73263000Y-121672250D01*
X73263000Y-120523000D01*
X72113750Y-120523000D01*
X71955000Y-120681750D01*
X70560000Y-120681750D01*
X70560000Y-119469690D01*
X71955000Y-119469690D01*
X71955000Y-120110250D01*
X72113750Y-120269000D01*
X73263000Y-120269000D01*
X73263000Y-119119750D01*
X73104250Y-118961000D01*
X72463691Y-118961000D01*
X72230302Y-119057673D01*
X72051673Y-119236301D01*
X71955000Y-119469690D01*
X70560000Y-119469690D01*
X70560000Y-104870561D01*
X71955000Y-104870561D01*
X71955000Y-105441439D01*
X72173466Y-105968862D01*
X72577138Y-106372534D01*
X73104561Y-106591000D01*
X73675439Y-106591000D01*
X74202862Y-106372534D01*
X74606534Y-105968862D01*
X74660000Y-105839784D01*
X74713466Y-105968862D01*
X75117138Y-106372534D01*
X75246216Y-106426000D01*
X75117138Y-106479466D01*
X74713466Y-106883138D01*
X74495000Y-107410561D01*
X74495000Y-107981439D01*
X74713466Y-108508862D01*
X75117138Y-108912534D01*
X75644561Y-109131000D01*
X76215439Y-109131000D01*
X76742862Y-108912534D01*
X77146534Y-108508862D01*
X77365000Y-107981439D01*
X77365000Y-107410561D01*
X77146534Y-106883138D01*
X76742862Y-106479466D01*
X76613784Y-106426000D01*
X76742862Y-106372534D01*
X77146534Y-105968862D01*
X77200000Y-105839784D01*
X77253466Y-105968862D01*
X77657138Y-106372534D01*
X77710001Y-106394430D01*
X77710000Y-109794198D01*
X76715528Y-110788671D01*
X76652072Y-110831071D01*
X76609672Y-110894527D01*
X76609671Y-110894528D01*
X76484097Y-111082463D01*
X76425112Y-111379000D01*
X76440001Y-111453852D01*
X76440000Y-119054016D01*
X76215439Y-118961000D01*
X75644561Y-118961000D01*
X75117138Y-119179466D01*
X74825000Y-119471604D01*
X74825000Y-119469690D01*
X74728327Y-119236301D01*
X74549698Y-119057673D01*
X74316309Y-118961000D01*
X73675750Y-118961000D01*
X73517000Y-119119750D01*
X73517000Y-120269000D01*
X73537000Y-120269000D01*
X73537000Y-120523000D01*
X73517000Y-120523000D01*
X73517000Y-121672250D01*
X73675750Y-121831000D01*
X74316309Y-121831000D01*
X74549698Y-121734327D01*
X74728327Y-121555699D01*
X74825000Y-121322310D01*
X74825000Y-121320396D01*
X75117138Y-121612534D01*
X75644561Y-121831000D01*
X76215439Y-121831000D01*
X76556412Y-121689764D01*
X76652071Y-121832929D01*
X76715530Y-121875331D01*
X77710001Y-122869802D01*
X77710000Y-126737822D01*
X77399375Y-126945375D01*
X77384904Y-126967033D01*
X77318327Y-126806302D01*
X77139699Y-126627673D01*
X76906310Y-126531000D01*
X76215750Y-126531000D01*
X76057000Y-126689750D01*
X76057000Y-127889000D01*
X76077000Y-127889000D01*
X76077000Y-128143000D01*
X76057000Y-128143000D01*
X76057000Y-129342250D01*
X76215750Y-129501000D01*
X76906310Y-129501000D01*
X77139699Y-129404327D01*
X77318327Y-129225698D01*
X77384904Y-129064967D01*
X77399375Y-129086625D01*
X77890582Y-129414839D01*
X78323744Y-129501000D01*
X78616256Y-129501000D01*
X79049418Y-129414839D01*
X79540625Y-129086625D01*
X79740000Y-128788239D01*
X79939375Y-129086625D01*
X80250287Y-129294370D01*
X80294097Y-129514618D01*
X80462072Y-129766010D01*
X80525528Y-129808410D01*
X81122590Y-130405473D01*
X81164990Y-130468929D01*
X81416382Y-130636904D01*
X81638067Y-130681000D01*
X81638071Y-130681000D01*
X81712919Y-130695888D01*
X81787767Y-130681000D01*
X91790153Y-130681000D01*
X91865000Y-130695888D01*
X91939847Y-130681000D01*
X91939852Y-130681000D01*
X92161537Y-130636904D01*
X92412929Y-130468929D01*
X92455331Y-130405470D01*
X92967909Y-129892892D01*
X111068514Y-129892892D01*
X111314817Y-130417358D01*
X111743076Y-130807645D01*
X112153110Y-130977476D01*
X112383000Y-130856155D01*
X112383000Y-129663000D01*
X111189181Y-129663000D01*
X111068514Y-129892892D01*
X92967909Y-129892892D01*
X94487909Y-128372892D01*
X97348514Y-128372892D01*
X97594817Y-128897358D01*
X98023076Y-129287645D01*
X98433110Y-129457476D01*
X98663000Y-129336155D01*
X98663000Y-128143000D01*
X97469181Y-128143000D01*
X97348514Y-128372892D01*
X94487909Y-128372892D01*
X97292560Y-125568242D01*
X97292560Y-126326000D01*
X97341843Y-126573765D01*
X97482191Y-126783809D01*
X97692235Y-126924157D01*
X97801855Y-126945961D01*
X97594817Y-127134642D01*
X97348514Y-127659108D01*
X97469181Y-127889000D01*
X98663000Y-127889000D01*
X98663000Y-127869000D01*
X98917000Y-127869000D01*
X98917000Y-127889000D01*
X98937000Y-127889000D01*
X98937000Y-128143000D01*
X98917000Y-128143000D01*
X98917000Y-129336155D01*
X99146890Y-129457476D01*
X99556924Y-129287645D01*
X99985183Y-128897358D01*
X100046157Y-128767522D01*
X100259375Y-129086625D01*
X100750582Y-129414839D01*
X101183744Y-129501000D01*
X101476256Y-129501000D01*
X101909418Y-129414839D01*
X102400625Y-129086625D01*
X102600000Y-128788239D01*
X102799375Y-129086625D01*
X103290582Y-129414839D01*
X103723744Y-129501000D01*
X104016256Y-129501000D01*
X104449418Y-129414839D01*
X104940625Y-129086625D01*
X105140000Y-128788239D01*
X105339375Y-129086625D01*
X105830582Y-129414839D01*
X106263744Y-129501000D01*
X106556256Y-129501000D01*
X106989418Y-129414839D01*
X107480625Y-129086625D01*
X107808839Y-128595418D01*
X107826816Y-128505041D01*
X108708086Y-128505041D01*
X108947611Y-129011134D01*
X109362577Y-129387041D01*
X109750961Y-129547904D01*
X109973000Y-129425915D01*
X109973000Y-128283000D01*
X110227000Y-128283000D01*
X110227000Y-129425915D01*
X110449039Y-129547904D01*
X110837423Y-129387041D01*
X111069663Y-129176660D01*
X111068514Y-129179108D01*
X111189181Y-129409000D01*
X112383000Y-129409000D01*
X112383000Y-128215845D01*
X112637000Y-128215845D01*
X112637000Y-129409000D01*
X112657000Y-129409000D01*
X112657000Y-129663000D01*
X112637000Y-129663000D01*
X112637000Y-130856155D01*
X112866890Y-130977476D01*
X113276924Y-130807645D01*
X113581261Y-130530292D01*
X113601843Y-130633765D01*
X113742191Y-130843809D01*
X113952235Y-130984157D01*
X114200000Y-131033440D01*
X115900000Y-131033440D01*
X116147765Y-130984157D01*
X116357809Y-130843809D01*
X116498157Y-130633765D01*
X116547440Y-130386000D01*
X116547440Y-128686000D01*
X116498157Y-128438235D01*
X116357809Y-128228191D01*
X116147765Y-128087843D01*
X115900000Y-128038560D01*
X114200000Y-128038560D01*
X113952235Y-128087843D01*
X113742191Y-128228191D01*
X113601843Y-128438235D01*
X113581261Y-128541708D01*
X113276924Y-128264355D01*
X112866890Y-128094524D01*
X112637000Y-128215845D01*
X112383000Y-128215845D01*
X112153110Y-128094524D01*
X111743076Y-128264355D01*
X111487613Y-128497167D01*
X111370629Y-128283000D01*
X110227000Y-128283000D01*
X109973000Y-128283000D01*
X108829371Y-128283000D01*
X108708086Y-128505041D01*
X107826816Y-128505041D01*
X107924092Y-128016000D01*
X107882512Y-127806959D01*
X108708086Y-127806959D01*
X108829371Y-128029000D01*
X109973000Y-128029000D01*
X109973000Y-126886085D01*
X110227000Y-126886085D01*
X110227000Y-128029000D01*
X111370629Y-128029000D01*
X111491914Y-127806959D01*
X111252389Y-127300866D01*
X110837423Y-126924959D01*
X110449039Y-126764096D01*
X110227000Y-126886085D01*
X109973000Y-126886085D01*
X109750961Y-126764096D01*
X109362577Y-126924959D01*
X108947611Y-127300866D01*
X108708086Y-127806959D01*
X107882512Y-127806959D01*
X107808839Y-127436582D01*
X107480625Y-126945375D01*
X107182239Y-126746000D01*
X107480625Y-126546625D01*
X107808839Y-126055418D01*
X107924092Y-125476000D01*
X107808839Y-124896582D01*
X107480625Y-124405375D01*
X106989418Y-124077161D01*
X106556256Y-123991000D01*
X106263744Y-123991000D01*
X105995430Y-124044371D01*
X108291473Y-121748329D01*
X108354929Y-121705929D01*
X108522904Y-121454537D01*
X108567000Y-121232852D01*
X108567000Y-121232848D01*
X108581888Y-121158000D01*
X108567000Y-121083152D01*
X108567000Y-120250561D01*
X108665000Y-120250561D01*
X108665000Y-120821439D01*
X108883466Y-121348862D01*
X109287138Y-121752534D01*
X109814561Y-121971000D01*
X110385439Y-121971000D01*
X110912862Y-121752534D01*
X111316534Y-121348862D01*
X111535000Y-120821439D01*
X111535000Y-120250561D01*
X111316534Y-119723138D01*
X110912862Y-119319466D01*
X110385439Y-119101000D01*
X109814561Y-119101000D01*
X109287138Y-119319466D01*
X108883466Y-119723138D01*
X108665000Y-120250561D01*
X108567000Y-120250561D01*
X108567000Y-119835848D01*
X108581888Y-119761000D01*
X108567000Y-119686152D01*
X108567000Y-119686148D01*
X108522904Y-119464463D01*
X108354929Y-119213071D01*
X108291473Y-119170671D01*
X107762331Y-118641530D01*
X107719929Y-118578071D01*
X107676234Y-118548875D01*
X107845000Y-118141439D01*
X107845000Y-118005041D01*
X108708086Y-118005041D01*
X108947611Y-118511134D01*
X109362577Y-118887041D01*
X109750961Y-119047904D01*
X109973000Y-118925915D01*
X109973000Y-117783000D01*
X110227000Y-117783000D01*
X110227000Y-118925915D01*
X110449039Y-119047904D01*
X110837423Y-118887041D01*
X111252389Y-118511134D01*
X111491914Y-118005041D01*
X111370629Y-117783000D01*
X110227000Y-117783000D01*
X109973000Y-117783000D01*
X108829371Y-117783000D01*
X108708086Y-118005041D01*
X107845000Y-118005041D01*
X107845000Y-117570561D01*
X107735813Y-117306959D01*
X108708086Y-117306959D01*
X108829371Y-117529000D01*
X109973000Y-117529000D01*
X109973000Y-116386085D01*
X110227000Y-116386085D01*
X110227000Y-117529000D01*
X111370629Y-117529000D01*
X111491914Y-117306959D01*
X111252389Y-116800866D01*
X110837423Y-116424959D01*
X110449039Y-116264096D01*
X110227000Y-116386085D01*
X109973000Y-116386085D01*
X109750961Y-116264096D01*
X109362577Y-116424959D01*
X108947611Y-116800866D01*
X108708086Y-117306959D01*
X107735813Y-117306959D01*
X107626534Y-117043138D01*
X107222862Y-116639466D01*
X107093784Y-116586000D01*
X107222862Y-116532534D01*
X107626534Y-116128862D01*
X107845000Y-115601439D01*
X107845000Y-115030561D01*
X107626534Y-114503138D01*
X107222862Y-114099466D01*
X107093784Y-114046000D01*
X107222862Y-113992534D01*
X107626534Y-113588862D01*
X107845000Y-113061439D01*
X107845000Y-112490561D01*
X107626534Y-111963138D01*
X107222862Y-111559466D01*
X107093784Y-111506000D01*
X107222862Y-111452534D01*
X107626534Y-111048862D01*
X107845000Y-110521439D01*
X107845000Y-109950561D01*
X107762158Y-109750561D01*
X108665000Y-109750561D01*
X108665000Y-110321439D01*
X108883466Y-110848862D01*
X109287138Y-111252534D01*
X109814561Y-111471000D01*
X110385439Y-111471000D01*
X110912862Y-111252534D01*
X111316534Y-110848862D01*
X111535000Y-110321439D01*
X111535000Y-109750561D01*
X111316534Y-109223138D01*
X110912862Y-108819466D01*
X110654930Y-108712627D01*
X110837423Y-108637041D01*
X111252389Y-108261134D01*
X111491914Y-107755041D01*
X111370629Y-107533000D01*
X110227000Y-107533000D01*
X110227000Y-107553000D01*
X109973000Y-107553000D01*
X109973000Y-107533000D01*
X108829371Y-107533000D01*
X108708086Y-107755041D01*
X108947611Y-108261134D01*
X109362577Y-108637041D01*
X109545070Y-108712627D01*
X109287138Y-108819466D01*
X108883466Y-109223138D01*
X108665000Y-109750561D01*
X107762158Y-109750561D01*
X107626534Y-109423138D01*
X107222862Y-109019466D01*
X107093784Y-108966000D01*
X107222862Y-108912534D01*
X107626534Y-108508862D01*
X107845000Y-107981439D01*
X107845000Y-107410561D01*
X107698534Y-107056959D01*
X108708086Y-107056959D01*
X108829371Y-107279000D01*
X109973000Y-107279000D01*
X109973000Y-106136085D01*
X110227000Y-106136085D01*
X110227000Y-107279000D01*
X111370629Y-107279000D01*
X111491914Y-107056959D01*
X111252389Y-106550866D01*
X110837423Y-106174959D01*
X110449039Y-106014096D01*
X110227000Y-106136085D01*
X109973000Y-106136085D01*
X109750961Y-106014096D01*
X109362577Y-106174959D01*
X108947611Y-106550866D01*
X108708086Y-107056959D01*
X107698534Y-107056959D01*
X107626534Y-106883138D01*
X107222862Y-106479466D01*
X107093784Y-106426000D01*
X107222862Y-106372534D01*
X107626534Y-105968862D01*
X107845000Y-105441439D01*
X107845000Y-104870561D01*
X107626534Y-104343138D01*
X107222862Y-103939466D01*
X106695439Y-103721000D01*
X106124561Y-103721000D01*
X105597138Y-103939466D01*
X105193466Y-104343138D01*
X105140000Y-104472216D01*
X105086534Y-104343138D01*
X104682862Y-103939466D01*
X104155439Y-103721000D01*
X103584561Y-103721000D01*
X103057138Y-103939466D01*
X102653466Y-104343138D01*
X102600000Y-104472216D01*
X102546534Y-104343138D01*
X102142862Y-103939466D01*
X101615439Y-103721000D01*
X101044561Y-103721000D01*
X100517138Y-103939466D01*
X100113466Y-104343138D01*
X100060000Y-104472216D01*
X100006534Y-104343138D01*
X99602862Y-103939466D01*
X99075439Y-103721000D01*
X98504561Y-103721000D01*
X97977138Y-103939466D01*
X97573466Y-104343138D01*
X97520000Y-104472216D01*
X97466534Y-104343138D01*
X97062862Y-103939466D01*
X96535439Y-103721000D01*
X95964561Y-103721000D01*
X95437138Y-103939466D01*
X95033466Y-104343138D01*
X94980000Y-104472216D01*
X94926534Y-104343138D01*
X94522862Y-103939466D01*
X93995439Y-103721000D01*
X93424561Y-103721000D01*
X92897138Y-103939466D01*
X92493466Y-104343138D01*
X92440000Y-104472216D01*
X92386534Y-104343138D01*
X91982862Y-103939466D01*
X91455439Y-103721000D01*
X90884561Y-103721000D01*
X90357138Y-103939466D01*
X89953466Y-104343138D01*
X89900000Y-104472216D01*
X89846534Y-104343138D01*
X89442862Y-103939466D01*
X88915439Y-103721000D01*
X88344561Y-103721000D01*
X87817138Y-103939466D01*
X87413466Y-104343138D01*
X87360000Y-104472216D01*
X87306534Y-104343138D01*
X86902862Y-103939466D01*
X86375439Y-103721000D01*
X85804561Y-103721000D01*
X85277138Y-103939466D01*
X84873466Y-104343138D01*
X84820000Y-104472216D01*
X84766534Y-104343138D01*
X84362862Y-103939466D01*
X83835439Y-103721000D01*
X83264561Y-103721000D01*
X82737138Y-103939466D01*
X82333466Y-104343138D01*
X82280000Y-104472216D01*
X82226534Y-104343138D01*
X81822862Y-103939466D01*
X81295439Y-103721000D01*
X80724561Y-103721000D01*
X80197138Y-103939466D01*
X79793466Y-104343138D01*
X79740000Y-104472216D01*
X79686534Y-104343138D01*
X79456414Y-104113018D01*
X80320432Y-103249000D01*
X93762153Y-103249000D01*
X93837000Y-103263888D01*
X93911847Y-103249000D01*
X93911852Y-103249000D01*
X94133537Y-103204904D01*
X94384929Y-103036929D01*
X94427331Y-102973470D01*
X95883593Y-101517209D01*
X96103744Y-101561000D01*
X96396256Y-101561000D01*
X96829418Y-101474839D01*
X97320625Y-101146625D01*
X97533843Y-100827522D01*
X97594817Y-100957358D01*
X98023076Y-101347645D01*
X98433110Y-101517476D01*
X98663000Y-101396155D01*
X98663000Y-100203000D01*
X98643000Y-100203000D01*
X98643000Y-99949000D01*
X98663000Y-99949000D01*
X98663000Y-98755845D01*
X98917000Y-98755845D01*
X98917000Y-99949000D01*
X98937000Y-99949000D01*
X98937000Y-100203000D01*
X98917000Y-100203000D01*
X98917000Y-101396155D01*
X99146890Y-101517476D01*
X99556924Y-101347645D01*
X99985183Y-100957358D01*
X100046157Y-100827522D01*
X100259375Y-101146625D01*
X100750582Y-101474839D01*
X101183744Y-101561000D01*
X101476256Y-101561000D01*
X101909418Y-101474839D01*
X102400625Y-101146625D01*
X102600000Y-100848239D01*
X102799375Y-101146625D01*
X103290582Y-101474839D01*
X103723744Y-101561000D01*
X104016256Y-101561000D01*
X104449418Y-101474839D01*
X104940625Y-101146625D01*
X105268839Y-100655418D01*
X105384092Y-100076000D01*
X105269631Y-99500561D01*
X108665000Y-99500561D01*
X108665000Y-100071439D01*
X108883466Y-100598862D01*
X109287138Y-101002534D01*
X109814561Y-101221000D01*
X110385439Y-101221000D01*
X110912862Y-101002534D01*
X111316534Y-100598862D01*
X111535000Y-100071439D01*
X111535000Y-99500561D01*
X111316534Y-98973138D01*
X110912862Y-98569466D01*
X110385439Y-98351000D01*
X109814561Y-98351000D01*
X109287138Y-98569466D01*
X108883466Y-98973138D01*
X108665000Y-99500561D01*
X105269631Y-99500561D01*
X105268839Y-99496582D01*
X104940625Y-99005375D01*
X104449418Y-98677161D01*
X104016256Y-98591000D01*
X103723744Y-98591000D01*
X103290582Y-98677161D01*
X102799375Y-99005375D01*
X102600000Y-99303761D01*
X102400625Y-99005375D01*
X101909418Y-98677161D01*
X101476256Y-98591000D01*
X101183744Y-98591000D01*
X100750582Y-98677161D01*
X100259375Y-99005375D01*
X100046157Y-99324478D01*
X99985183Y-99194642D01*
X99556924Y-98804355D01*
X99146890Y-98634524D01*
X98917000Y-98755845D01*
X98663000Y-98755845D01*
X98433110Y-98634524D01*
X98023076Y-98804355D01*
X97594817Y-99194642D01*
X97533843Y-99324478D01*
X97320625Y-99005375D01*
X96829418Y-98677161D01*
X96396256Y-98591000D01*
X96103744Y-98591000D01*
X95670582Y-98677161D01*
X95179375Y-99005375D01*
X94980000Y-99303761D01*
X94780625Y-99005375D01*
X94289418Y-98677161D01*
X93856256Y-98591000D01*
X93563744Y-98591000D01*
X93130582Y-98677161D01*
X92639375Y-99005375D01*
X92440000Y-99303761D01*
X92240625Y-99005375D01*
X91749418Y-98677161D01*
X91316256Y-98591000D01*
X91023744Y-98591000D01*
X90590582Y-98677161D01*
X90099375Y-99005375D01*
X89900000Y-99303761D01*
X89700625Y-99005375D01*
X89209418Y-98677161D01*
X88776256Y-98591000D01*
X88483744Y-98591000D01*
X88050582Y-98677161D01*
X87559375Y-99005375D01*
X87547184Y-99023619D01*
X87538157Y-98978235D01*
X87397809Y-98768191D01*
X87187765Y-98627843D01*
X86940000Y-98578560D01*
X85240000Y-98578560D01*
X84992235Y-98627843D01*
X84782191Y-98768191D01*
X84641843Y-98978235D01*
X84592560Y-99226000D01*
X84592560Y-100926000D01*
X84641843Y-101173765D01*
X84782191Y-101383809D01*
X84992235Y-101524157D01*
X85240000Y-101573440D01*
X86940000Y-101573440D01*
X87187765Y-101524157D01*
X87397809Y-101383809D01*
X87538157Y-101173765D01*
X87547184Y-101128381D01*
X87559375Y-101146625D01*
X88050582Y-101474839D01*
X88483744Y-101561000D01*
X88776256Y-101561000D01*
X89209418Y-101474839D01*
X89700625Y-101146625D01*
X89900000Y-100848239D01*
X90099375Y-101146625D01*
X90590582Y-101474839D01*
X91023744Y-101561000D01*
X91316256Y-101561000D01*
X91749418Y-101474839D01*
X92240625Y-101146625D01*
X92440000Y-100848239D01*
X92639375Y-101146625D01*
X93130582Y-101474839D01*
X93563744Y-101561000D01*
X93690199Y-101561000D01*
X93522199Y-101729000D01*
X80080478Y-101729000D01*
X80005630Y-101714112D01*
X79930782Y-101729000D01*
X79930778Y-101729000D01*
X79757235Y-101763520D01*
X79709092Y-101773096D01*
X79522048Y-101898076D01*
X79457701Y-101941071D01*
X79415301Y-102004527D01*
X77985528Y-103434301D01*
X77922072Y-103476701D01*
X77879672Y-103540157D01*
X77879671Y-103540158D01*
X77754097Y-103728093D01*
X77716983Y-103914677D01*
X77657138Y-103939466D01*
X77253466Y-104343138D01*
X77200000Y-104472216D01*
X77146534Y-104343138D01*
X76742862Y-103939466D01*
X76215439Y-103721000D01*
X75644561Y-103721000D01*
X75117138Y-103939466D01*
X74713466Y-104343138D01*
X74660000Y-104472216D01*
X74606534Y-104343138D01*
X74202862Y-103939466D01*
X73675439Y-103721000D01*
X73104561Y-103721000D01*
X72577138Y-103939466D01*
X72173466Y-104343138D01*
X71955000Y-104870561D01*
X70560000Y-104870561D01*
X70560000Y-98246000D01*
X117140001Y-98246000D01*
X117140001Y-101098601D01*
G36*
X79657671Y-124817473D02*
X79700071Y-124880929D01*
X79951463Y-125048904D01*
X80173148Y-125093000D01*
X80173153Y-125093000D01*
X80248000Y-125107888D01*
X80322847Y-125093000D01*
X87961375Y-125093000D01*
X87828071Y-125182071D01*
X87785671Y-125245527D01*
X86456408Y-126574791D01*
X86236256Y-126531000D01*
X85943744Y-126531000D01*
X85510582Y-126617161D01*
X85019375Y-126945375D01*
X84820000Y-127243761D01*
X84620625Y-126945375D01*
X84129418Y-126617161D01*
X83696256Y-126531000D01*
X83403744Y-126531000D01*
X82970582Y-126617161D01*
X82479375Y-126945375D01*
X82280000Y-127243761D01*
X82080625Y-126945375D01*
X81589418Y-126617161D01*
X81156256Y-126531000D01*
X80863744Y-126531000D01*
X80430582Y-126617161D01*
X79939375Y-126945375D01*
X79740000Y-127243761D01*
X79540625Y-126945375D01*
X79230000Y-126737822D01*
X79230000Y-124389802D01*
X79657671Y-124817473D01*
X79657671Y-124817473D01*
G37*
X79657671Y-124817473D02*
X79700071Y-124880929D01*
X79951463Y-125048904D01*
X80173148Y-125093000D01*
X80173153Y-125093000D01*
X80248000Y-125107888D01*
X80322847Y-125093000D01*
X87961375Y-125093000D01*
X87828071Y-125182071D01*
X87785671Y-125245527D01*
X86456408Y-126574791D01*
X86236256Y-126531000D01*
X85943744Y-126531000D01*
X85510582Y-126617161D01*
X85019375Y-126945375D01*
X84820000Y-127243761D01*
X84620625Y-126945375D01*
X84129418Y-126617161D01*
X83696256Y-126531000D01*
X83403744Y-126531000D01*
X82970582Y-126617161D01*
X82479375Y-126945375D01*
X82280000Y-127243761D01*
X82080625Y-126945375D01*
X81589418Y-126617161D01*
X81156256Y-126531000D01*
X80863744Y-126531000D01*
X80430582Y-126617161D01*
X79939375Y-126945375D01*
X79740000Y-127243761D01*
X79540625Y-126945375D01*
X79230000Y-126737822D01*
X79230000Y-124389802D01*
X79657671Y-124817473D01*
G36*
X95033466Y-121208862D02*
X95437138Y-121612534D01*
X95964561Y-121831000D01*
X96080198Y-121831000D01*
X94439455Y-123471744D01*
X94169280Y-123201569D01*
X93788874Y-123044000D01*
X93377126Y-123044000D01*
X92996720Y-123201569D01*
X92705569Y-123492720D01*
X92672316Y-123573000D01*
X80562802Y-123573000D01*
X79060330Y-122070529D01*
X79017929Y-122007071D01*
X78954471Y-121964670D01*
X78801657Y-121811856D01*
X79282862Y-121612534D01*
X79686534Y-121208862D01*
X79740000Y-121079784D01*
X79793466Y-121208862D01*
X80197138Y-121612534D01*
X80724561Y-121831000D01*
X81295439Y-121831000D01*
X81822862Y-121612534D01*
X82226534Y-121208862D01*
X82280000Y-121079784D01*
X82333466Y-121208862D01*
X82737138Y-121612534D01*
X83264561Y-121831000D01*
X83835439Y-121831000D01*
X84362862Y-121612534D01*
X84766534Y-121208862D01*
X84820000Y-121079784D01*
X84873466Y-121208862D01*
X85277138Y-121612534D01*
X85804561Y-121831000D01*
X86375439Y-121831000D01*
X86902862Y-121612534D01*
X87306534Y-121208862D01*
X87360000Y-121079784D01*
X87413466Y-121208862D01*
X87817138Y-121612534D01*
X88344561Y-121831000D01*
X88915439Y-121831000D01*
X89442862Y-121612534D01*
X89846534Y-121208862D01*
X89900000Y-121079784D01*
X89953466Y-121208862D01*
X90357138Y-121612534D01*
X90884561Y-121831000D01*
X91455439Y-121831000D01*
X91982862Y-121612534D01*
X92386534Y-121208862D01*
X92440000Y-121079784D01*
X92493466Y-121208862D01*
X92897138Y-121612534D01*
X93424561Y-121831000D01*
X93995439Y-121831000D01*
X94522862Y-121612534D01*
X94926534Y-121208862D01*
X94980000Y-121079784D01*
X95033466Y-121208862D01*
X95033466Y-121208862D01*
G37*
X95033466Y-121208862D02*
X95437138Y-121612534D01*
X95964561Y-121831000D01*
X96080198Y-121831000D01*
X94439455Y-123471744D01*
X94169280Y-123201569D01*
X93788874Y-123044000D01*
X93377126Y-123044000D01*
X92996720Y-123201569D01*
X92705569Y-123492720D01*
X92672316Y-123573000D01*
X80562802Y-123573000D01*
X79060330Y-122070529D01*
X79017929Y-122007071D01*
X78954471Y-121964670D01*
X78801657Y-121811856D01*
X79282862Y-121612534D01*
X79686534Y-121208862D01*
X79740000Y-121079784D01*
X79793466Y-121208862D01*
X80197138Y-121612534D01*
X80724561Y-121831000D01*
X81295439Y-121831000D01*
X81822862Y-121612534D01*
X82226534Y-121208862D01*
X82280000Y-121079784D01*
X82333466Y-121208862D01*
X82737138Y-121612534D01*
X83264561Y-121831000D01*
X83835439Y-121831000D01*
X84362862Y-121612534D01*
X84766534Y-121208862D01*
X84820000Y-121079784D01*
X84873466Y-121208862D01*
X85277138Y-121612534D01*
X85804561Y-121831000D01*
X86375439Y-121831000D01*
X86902862Y-121612534D01*
X87306534Y-121208862D01*
X87360000Y-121079784D01*
X87413466Y-121208862D01*
X87817138Y-121612534D01*
X88344561Y-121831000D01*
X88915439Y-121831000D01*
X89442862Y-121612534D01*
X89846534Y-121208862D01*
X89900000Y-121079784D01*
X89953466Y-121208862D01*
X90357138Y-121612534D01*
X90884561Y-121831000D01*
X91455439Y-121831000D01*
X91982862Y-121612534D01*
X92386534Y-121208862D01*
X92440000Y-121079784D01*
X92493466Y-121208862D01*
X92897138Y-121612534D01*
X93424561Y-121831000D01*
X93995439Y-121831000D01*
X94522862Y-121612534D01*
X94926534Y-121208862D01*
X94980000Y-121079784D01*
X95033466Y-121208862D01*
G36*
X102653466Y-105968862D02*
X103057138Y-106372534D01*
X103584561Y-106591000D01*
X104155439Y-106591000D01*
X104370123Y-106502075D01*
X103004528Y-107867671D01*
X102941072Y-107910071D01*
X102898672Y-107973527D01*
X102898671Y-107973528D01*
X102773097Y-108161463D01*
X102714112Y-108458000D01*
X102729001Y-108532852D01*
X102729000Y-115890197D01*
X99575528Y-119043671D01*
X99512072Y-119086071D01*
X99482876Y-119129766D01*
X99075439Y-118961000D01*
X98504561Y-118961000D01*
X97977138Y-119179466D01*
X97573466Y-119583138D01*
X97520000Y-119712216D01*
X97466534Y-119583138D01*
X97062862Y-119179466D01*
X96535439Y-118961000D01*
X95964561Y-118961000D01*
X95437138Y-119179466D01*
X95033466Y-119583138D01*
X94980000Y-119712216D01*
X94926534Y-119583138D01*
X94522862Y-119179466D01*
X93995439Y-118961000D01*
X93424561Y-118961000D01*
X92897138Y-119179466D01*
X92493466Y-119583138D01*
X92440000Y-119712216D01*
X92386534Y-119583138D01*
X91982862Y-119179466D01*
X91455439Y-118961000D01*
X90884561Y-118961000D01*
X90357138Y-119179466D01*
X89953466Y-119583138D01*
X89900000Y-119712216D01*
X89846534Y-119583138D01*
X89442862Y-119179466D01*
X88915439Y-118961000D01*
X88344561Y-118961000D01*
X87817138Y-119179466D01*
X87413466Y-119583138D01*
X87360000Y-119712216D01*
X87306534Y-119583138D01*
X86902862Y-119179466D01*
X86375439Y-118961000D01*
X85804561Y-118961000D01*
X85277138Y-119179466D01*
X84873466Y-119583138D01*
X84820000Y-119712216D01*
X84766534Y-119583138D01*
X84362862Y-119179466D01*
X83835439Y-118961000D01*
X83264561Y-118961000D01*
X82737138Y-119179466D01*
X82333466Y-119583138D01*
X82280000Y-119712216D01*
X82226534Y-119583138D01*
X81822862Y-119179466D01*
X81295439Y-118961000D01*
X80724561Y-118961000D01*
X80197138Y-119179466D01*
X79793466Y-119583138D01*
X79740000Y-119712216D01*
X79686534Y-119583138D01*
X79282862Y-119179466D01*
X78755439Y-118961000D01*
X78184561Y-118961000D01*
X77960000Y-119054016D01*
X77960000Y-112460724D01*
X78155000Y-112460724D01*
X78155000Y-113091276D01*
X78396302Y-113673830D01*
X78842170Y-114119698D01*
X79424724Y-114361000D01*
X80055276Y-114361000D01*
X80637830Y-114119698D01*
X81083698Y-113673830D01*
X81325000Y-113091276D01*
X81325000Y-112460724D01*
X81965000Y-112460724D01*
X81965000Y-113091276D01*
X82206302Y-113673830D01*
X82652170Y-114119698D01*
X83234724Y-114361000D01*
X83865276Y-114361000D01*
X84447830Y-114119698D01*
X84893698Y-113673830D01*
X85135000Y-113091276D01*
X85135000Y-112460724D01*
X84893698Y-111878170D01*
X84447830Y-111432302D01*
X83865276Y-111191000D01*
X83234724Y-111191000D01*
X82652170Y-111432302D01*
X82206302Y-111878170D01*
X81965000Y-112460724D01*
X81325000Y-112460724D01*
X81083698Y-111878170D01*
X80637830Y-111432302D01*
X80055276Y-111191000D01*
X79424724Y-111191000D01*
X78842170Y-111432302D01*
X78396302Y-111878170D01*
X78155000Y-112460724D01*
X77960000Y-112460724D01*
X77960000Y-111693801D01*
X78954473Y-110699329D01*
X79017929Y-110656929D01*
X79185904Y-110405537D01*
X79230000Y-110183852D01*
X79230000Y-110183848D01*
X79244888Y-110109001D01*
X79230000Y-110034154D01*
X79230000Y-106394430D01*
X79282862Y-106372534D01*
X79686534Y-105968862D01*
X79740000Y-105839784D01*
X79793466Y-105968862D01*
X80197138Y-106372534D01*
X80326216Y-106426000D01*
X80197138Y-106479466D01*
X79793466Y-106883138D01*
X79575000Y-107410561D01*
X79575000Y-107981439D01*
X79793466Y-108508862D01*
X80197138Y-108912534D01*
X80724561Y-109131000D01*
X81295439Y-109131000D01*
X81822862Y-108912534D01*
X82226534Y-108508862D01*
X82280000Y-108379784D01*
X82333466Y-108508862D01*
X82737138Y-108912534D01*
X83264561Y-109131000D01*
X83835439Y-109131000D01*
X84362862Y-108912534D01*
X84766534Y-108508862D01*
X84820000Y-108379784D01*
X84873466Y-108508862D01*
X85277138Y-108912534D01*
X85804561Y-109131000D01*
X86375439Y-109131000D01*
X86902862Y-108912534D01*
X87306534Y-108508862D01*
X87525000Y-107981439D01*
X87525000Y-107410561D01*
X87306534Y-106883138D01*
X86902862Y-106479466D01*
X86773784Y-106426000D01*
X86902862Y-106372534D01*
X87306534Y-105968862D01*
X87360000Y-105839784D01*
X87413466Y-105968862D01*
X87817138Y-106372534D01*
X88344561Y-106591000D01*
X88915439Y-106591000D01*
X89442862Y-106372534D01*
X89846534Y-105968862D01*
X89900000Y-105839784D01*
X89953466Y-105968862D01*
X90357138Y-106372534D01*
X90884561Y-106591000D01*
X91455439Y-106591000D01*
X91982862Y-106372534D01*
X92386534Y-105968862D01*
X92440000Y-105839784D01*
X92493466Y-105968862D01*
X92897138Y-106372534D01*
X93424561Y-106591000D01*
X93995439Y-106591000D01*
X94522862Y-106372534D01*
X94926534Y-105968862D01*
X94980000Y-105839784D01*
X95033466Y-105968862D01*
X95437138Y-106372534D01*
X95964561Y-106591000D01*
X96535439Y-106591000D01*
X97062862Y-106372534D01*
X97466534Y-105968862D01*
X97520000Y-105839784D01*
X97573466Y-105968862D01*
X97977138Y-106372534D01*
X98504561Y-106591000D01*
X99075439Y-106591000D01*
X99602862Y-106372534D01*
X100006534Y-105968862D01*
X100060000Y-105839784D01*
X100113466Y-105968862D01*
X100517138Y-106372534D01*
X101044561Y-106591000D01*
X101615439Y-106591000D01*
X102142862Y-106372534D01*
X102546534Y-105968862D01*
X102600000Y-105839784D01*
X102653466Y-105968862D01*
X102653466Y-105968862D01*
G37*
X102653466Y-105968862D02*
X103057138Y-106372534D01*
X103584561Y-106591000D01*
X104155439Y-106591000D01*
X104370123Y-106502075D01*
X103004528Y-107867671D01*
X102941072Y-107910071D01*
X102898672Y-107973527D01*
X102898671Y-107973528D01*
X102773097Y-108161463D01*
X102714112Y-108458000D01*
X102729001Y-108532852D01*
X102729000Y-115890197D01*
X99575528Y-119043671D01*
X99512072Y-119086071D01*
X99482876Y-119129766D01*
X99075439Y-118961000D01*
X98504561Y-118961000D01*
X97977138Y-119179466D01*
X97573466Y-119583138D01*
X97520000Y-119712216D01*
X97466534Y-119583138D01*
X97062862Y-119179466D01*
X96535439Y-118961000D01*
X95964561Y-118961000D01*
X95437138Y-119179466D01*
X95033466Y-119583138D01*
X94980000Y-119712216D01*
X94926534Y-119583138D01*
X94522862Y-119179466D01*
X93995439Y-118961000D01*
X93424561Y-118961000D01*
X92897138Y-119179466D01*
X92493466Y-119583138D01*
X92440000Y-119712216D01*
X92386534Y-119583138D01*
X91982862Y-119179466D01*
X91455439Y-118961000D01*
X90884561Y-118961000D01*
X90357138Y-119179466D01*
X89953466Y-119583138D01*
X89900000Y-119712216D01*
X89846534Y-119583138D01*
X89442862Y-119179466D01*
X88915439Y-118961000D01*
X88344561Y-118961000D01*
X87817138Y-119179466D01*
X87413466Y-119583138D01*
X87360000Y-119712216D01*
X87306534Y-119583138D01*
X86902862Y-119179466D01*
X86375439Y-118961000D01*
X85804561Y-118961000D01*
X85277138Y-119179466D01*
X84873466Y-119583138D01*
X84820000Y-119712216D01*
X84766534Y-119583138D01*
X84362862Y-119179466D01*
X83835439Y-118961000D01*
X83264561Y-118961000D01*
X82737138Y-119179466D01*
X82333466Y-119583138D01*
X82280000Y-119712216D01*
X82226534Y-119583138D01*
X81822862Y-119179466D01*
X81295439Y-118961000D01*
X80724561Y-118961000D01*
X80197138Y-119179466D01*
X79793466Y-119583138D01*
X79740000Y-119712216D01*
X79686534Y-119583138D01*
X79282862Y-119179466D01*
X78755439Y-118961000D01*
X78184561Y-118961000D01*
X77960000Y-119054016D01*
X77960000Y-112460724D01*
X78155000Y-112460724D01*
X78155000Y-113091276D01*
X78396302Y-113673830D01*
X78842170Y-114119698D01*
X79424724Y-114361000D01*
X80055276Y-114361000D01*
X80637830Y-114119698D01*
X81083698Y-113673830D01*
X81325000Y-113091276D01*
X81325000Y-112460724D01*
X81965000Y-112460724D01*
X81965000Y-113091276D01*
X82206302Y-113673830D01*
X82652170Y-114119698D01*
X83234724Y-114361000D01*
X83865276Y-114361000D01*
X84447830Y-114119698D01*
X84893698Y-113673830D01*
X85135000Y-113091276D01*
X85135000Y-112460724D01*
X84893698Y-111878170D01*
X84447830Y-111432302D01*
X83865276Y-111191000D01*
X83234724Y-111191000D01*
X82652170Y-111432302D01*
X82206302Y-111878170D01*
X81965000Y-112460724D01*
X81325000Y-112460724D01*
X81083698Y-111878170D01*
X80637830Y-111432302D01*
X80055276Y-111191000D01*
X79424724Y-111191000D01*
X78842170Y-111432302D01*
X78396302Y-111878170D01*
X78155000Y-112460724D01*
X77960000Y-112460724D01*
X77960000Y-111693801D01*
X78954473Y-110699329D01*
X79017929Y-110656929D01*
X79185904Y-110405537D01*
X79230000Y-110183852D01*
X79230000Y-110183848D01*
X79244888Y-110109001D01*
X79230000Y-110034154D01*
X79230000Y-106394430D01*
X79282862Y-106372534D01*
X79686534Y-105968862D01*
X79740000Y-105839784D01*
X79793466Y-105968862D01*
X80197138Y-106372534D01*
X80326216Y-106426000D01*
X80197138Y-106479466D01*
X79793466Y-106883138D01*
X79575000Y-107410561D01*
X79575000Y-107981439D01*
X79793466Y-108508862D01*
X80197138Y-108912534D01*
X80724561Y-109131000D01*
X81295439Y-109131000D01*
X81822862Y-108912534D01*
X82226534Y-108508862D01*
X82280000Y-108379784D01*
X82333466Y-108508862D01*
X82737138Y-108912534D01*
X83264561Y-109131000D01*
X83835439Y-109131000D01*
X84362862Y-108912534D01*
X84766534Y-108508862D01*
X84820000Y-108379784D01*
X84873466Y-108508862D01*
X85277138Y-108912534D01*
X85804561Y-109131000D01*
X86375439Y-109131000D01*
X86902862Y-108912534D01*
X87306534Y-108508862D01*
X87525000Y-107981439D01*
X87525000Y-107410561D01*
X87306534Y-106883138D01*
X86902862Y-106479466D01*
X86773784Y-106426000D01*
X86902862Y-106372534D01*
X87306534Y-105968862D01*
X87360000Y-105839784D01*
X87413466Y-105968862D01*
X87817138Y-106372534D01*
X88344561Y-106591000D01*
X88915439Y-106591000D01*
X89442862Y-106372534D01*
X89846534Y-105968862D01*
X89900000Y-105839784D01*
X89953466Y-105968862D01*
X90357138Y-106372534D01*
X90884561Y-106591000D01*
X91455439Y-106591000D01*
X91982862Y-106372534D01*
X92386534Y-105968862D01*
X92440000Y-105839784D01*
X92493466Y-105968862D01*
X92897138Y-106372534D01*
X93424561Y-106591000D01*
X93995439Y-106591000D01*
X94522862Y-106372534D01*
X94926534Y-105968862D01*
X94980000Y-105839784D01*
X95033466Y-105968862D01*
X95437138Y-106372534D01*
X95964561Y-106591000D01*
X96535439Y-106591000D01*
X97062862Y-106372534D01*
X97466534Y-105968862D01*
X97520000Y-105839784D01*
X97573466Y-105968862D01*
X97977138Y-106372534D01*
X98504561Y-106591000D01*
X99075439Y-106591000D01*
X99602862Y-106372534D01*
X100006534Y-105968862D01*
X100060000Y-105839784D01*
X100113466Y-105968862D01*
X100517138Y-106372534D01*
X101044561Y-106591000D01*
X101615439Y-106591000D01*
X102142862Y-106372534D01*
X102546534Y-105968862D01*
X102600000Y-105839784D01*
X102653466Y-105968862D01*
G04 #@! TD*
M02*
