G04 #@! TF.GenerationSoftware,KiCad,Pcbnew,(5.0.2)-1*
G04 #@! TF.CreationDate,2020-01-30T12:15:08+11:00*
G04 #@! TF.ProjectId,teensy_prototype_stack,7465656e-7379-45f7-9072-6f746f747970,rev?*
G04 #@! TF.SameCoordinates,Original*
G04 #@! TF.FileFunction,Soldermask,Bot*
G04 #@! TF.FilePolarity,Negative*
%FSLAX46Y46*%
G04 Gerber Fmt 4.6, Leading zero omitted, Abs format (unit mm)*
G04 Created by KiCad (PCBNEW (5.0.2)-1) date 30/01/2020 12:15:08 PM*
%MOMM*%
%LPD*%
G01*
G04 APERTURE LIST*
%ADD10C,0.100000*%
G04 APERTURE END LIST*
D10*
G36*
X115951000Y-130437000D02*
X114149000Y-130437000D01*
X114149000Y-128635000D01*
X115951000Y-128635000D01*
X115951000Y-130437000D01*
X115951000Y-130437000D01*
G37*
G36*
X112620442Y-128641518D02*
X112686627Y-128648037D01*
X112799853Y-128682384D01*
X112856467Y-128699557D01*
X112970779Y-128760659D01*
X113012991Y-128783222D01*
X113048729Y-128812552D01*
X113150186Y-128895814D01*
X113191392Y-128946025D01*
X113262778Y-129033009D01*
X113262779Y-129033011D01*
X113346443Y-129189533D01*
X113346443Y-129189534D01*
X113397963Y-129359373D01*
X113415359Y-129536000D01*
X113397963Y-129712627D01*
X113363616Y-129825853D01*
X113346443Y-129882467D01*
X113272348Y-130021087D01*
X113262778Y-130038991D01*
X113233448Y-130074729D01*
X113150186Y-130176186D01*
X113048729Y-130259448D01*
X113012991Y-130288778D01*
X113012989Y-130288779D01*
X112856467Y-130372443D01*
X112799853Y-130389616D01*
X112686627Y-130423963D01*
X112620442Y-130430482D01*
X112554260Y-130437000D01*
X112465740Y-130437000D01*
X112399558Y-130430482D01*
X112333373Y-130423963D01*
X112220147Y-130389616D01*
X112163533Y-130372443D01*
X112007011Y-130288779D01*
X112007009Y-130288778D01*
X111971271Y-130259448D01*
X111869814Y-130176186D01*
X111786552Y-130074729D01*
X111757222Y-130038991D01*
X111747652Y-130021087D01*
X111673557Y-129882467D01*
X111656384Y-129825853D01*
X111622037Y-129712627D01*
X111604641Y-129536000D01*
X111622037Y-129359373D01*
X111673557Y-129189534D01*
X111673557Y-129189533D01*
X111757221Y-129033011D01*
X111757222Y-129033009D01*
X111828608Y-128946025D01*
X111869814Y-128895814D01*
X111971271Y-128812552D01*
X112007009Y-128783222D01*
X112049221Y-128760659D01*
X112163533Y-128699557D01*
X112220147Y-128682384D01*
X112333373Y-128648037D01*
X112399558Y-128641518D01*
X112465740Y-128635000D01*
X112554260Y-128635000D01*
X112620442Y-128641518D01*
X112620442Y-128641518D01*
G37*
G36*
X110266821Y-127317313D02*
X110266824Y-127317314D01*
X110266825Y-127317314D01*
X110427239Y-127365975D01*
X110427241Y-127365976D01*
X110427244Y-127365977D01*
X110575078Y-127444995D01*
X110704659Y-127551341D01*
X110811005Y-127680922D01*
X110890023Y-127828756D01*
X110890024Y-127828759D01*
X110890025Y-127828761D01*
X110938686Y-127989175D01*
X110938687Y-127989179D01*
X110955117Y-128156000D01*
X110938687Y-128322821D01*
X110938686Y-128322824D01*
X110938686Y-128322825D01*
X110926661Y-128362467D01*
X110890023Y-128483244D01*
X110811005Y-128631078D01*
X110704659Y-128760659D01*
X110575078Y-128867005D01*
X110427244Y-128946023D01*
X110427241Y-128946024D01*
X110427239Y-128946025D01*
X110266825Y-128994686D01*
X110266824Y-128994686D01*
X110266821Y-128994687D01*
X110141804Y-129007000D01*
X110058196Y-129007000D01*
X109933179Y-128994687D01*
X109933176Y-128994686D01*
X109933175Y-128994686D01*
X109772761Y-128946025D01*
X109772759Y-128946024D01*
X109772756Y-128946023D01*
X109624922Y-128867005D01*
X109495341Y-128760659D01*
X109388995Y-128631078D01*
X109309977Y-128483244D01*
X109273340Y-128362467D01*
X109261314Y-128322825D01*
X109261314Y-128322824D01*
X109261313Y-128322821D01*
X109244883Y-128156000D01*
X109261313Y-127989179D01*
X109261314Y-127989175D01*
X109309975Y-127828761D01*
X109309976Y-127828759D01*
X109309977Y-127828756D01*
X109388995Y-127680922D01*
X109495341Y-127551341D01*
X109624922Y-127444995D01*
X109772756Y-127365977D01*
X109772759Y-127365976D01*
X109772761Y-127365975D01*
X109933175Y-127317314D01*
X109933176Y-127317314D01*
X109933179Y-127317313D01*
X110058196Y-127305000D01*
X110141804Y-127305000D01*
X110266821Y-127317313D01*
X110266821Y-127317313D01*
G37*
G36*
X103980443Y-127121519D02*
X104046627Y-127128037D01*
X104159853Y-127162384D01*
X104216467Y-127179557D01*
X104355087Y-127253652D01*
X104372991Y-127263222D01*
X104408729Y-127292552D01*
X104510186Y-127375814D01*
X104566961Y-127444996D01*
X104622778Y-127513009D01*
X104622779Y-127513011D01*
X104706443Y-127669533D01*
X104706443Y-127669534D01*
X104757963Y-127839373D01*
X104775359Y-128016000D01*
X104757963Y-128192627D01*
X104723616Y-128305853D01*
X104706443Y-128362467D01*
X104641888Y-128483239D01*
X104622778Y-128518991D01*
X104593448Y-128554729D01*
X104510186Y-128656186D01*
X104408729Y-128739448D01*
X104372991Y-128768778D01*
X104372989Y-128768779D01*
X104216467Y-128852443D01*
X104159853Y-128869616D01*
X104046627Y-128903963D01*
X103980442Y-128910482D01*
X103914260Y-128917000D01*
X103825740Y-128917000D01*
X103759558Y-128910482D01*
X103693373Y-128903963D01*
X103580147Y-128869616D01*
X103523533Y-128852443D01*
X103367011Y-128768779D01*
X103367009Y-128768778D01*
X103331271Y-128739448D01*
X103229814Y-128656186D01*
X103146552Y-128554729D01*
X103117222Y-128518991D01*
X103098112Y-128483239D01*
X103033557Y-128362467D01*
X103016384Y-128305853D01*
X102982037Y-128192627D01*
X102964641Y-128016000D01*
X102982037Y-127839373D01*
X103033557Y-127669534D01*
X103033557Y-127669533D01*
X103117221Y-127513011D01*
X103117222Y-127513009D01*
X103173039Y-127444996D01*
X103229814Y-127375814D01*
X103331271Y-127292552D01*
X103367009Y-127263222D01*
X103384913Y-127253652D01*
X103523533Y-127179557D01*
X103580147Y-127162384D01*
X103693373Y-127128037D01*
X103759557Y-127121519D01*
X103825740Y-127115000D01*
X103914260Y-127115000D01*
X103980443Y-127121519D01*
X103980443Y-127121519D01*
G37*
G36*
X106520443Y-127121519D02*
X106586627Y-127128037D01*
X106699853Y-127162384D01*
X106756467Y-127179557D01*
X106895087Y-127253652D01*
X106912991Y-127263222D01*
X106948729Y-127292552D01*
X107050186Y-127375814D01*
X107106961Y-127444996D01*
X107162778Y-127513009D01*
X107162779Y-127513011D01*
X107246443Y-127669533D01*
X107246443Y-127669534D01*
X107297963Y-127839373D01*
X107315359Y-128016000D01*
X107297963Y-128192627D01*
X107263616Y-128305853D01*
X107246443Y-128362467D01*
X107181888Y-128483239D01*
X107162778Y-128518991D01*
X107133448Y-128554729D01*
X107050186Y-128656186D01*
X106948729Y-128739448D01*
X106912991Y-128768778D01*
X106912989Y-128768779D01*
X106756467Y-128852443D01*
X106699853Y-128869616D01*
X106586627Y-128903963D01*
X106520442Y-128910482D01*
X106454260Y-128917000D01*
X106365740Y-128917000D01*
X106299558Y-128910482D01*
X106233373Y-128903963D01*
X106120147Y-128869616D01*
X106063533Y-128852443D01*
X105907011Y-128768779D01*
X105907009Y-128768778D01*
X105871271Y-128739448D01*
X105769814Y-128656186D01*
X105686552Y-128554729D01*
X105657222Y-128518991D01*
X105638112Y-128483239D01*
X105573557Y-128362467D01*
X105556384Y-128305853D01*
X105522037Y-128192627D01*
X105504641Y-128016000D01*
X105522037Y-127839373D01*
X105573557Y-127669534D01*
X105573557Y-127669533D01*
X105657221Y-127513011D01*
X105657222Y-127513009D01*
X105713039Y-127444996D01*
X105769814Y-127375814D01*
X105871271Y-127292552D01*
X105907009Y-127263222D01*
X105924913Y-127253652D01*
X106063533Y-127179557D01*
X106120147Y-127162384D01*
X106233373Y-127128037D01*
X106299557Y-127121519D01*
X106365740Y-127115000D01*
X106454260Y-127115000D01*
X106520443Y-127121519D01*
X106520443Y-127121519D01*
G37*
G36*
X101440443Y-127121519D02*
X101506627Y-127128037D01*
X101619853Y-127162384D01*
X101676467Y-127179557D01*
X101815087Y-127253652D01*
X101832991Y-127263222D01*
X101868729Y-127292552D01*
X101970186Y-127375814D01*
X102026961Y-127444996D01*
X102082778Y-127513009D01*
X102082779Y-127513011D01*
X102166443Y-127669533D01*
X102166443Y-127669534D01*
X102217963Y-127839373D01*
X102235359Y-128016000D01*
X102217963Y-128192627D01*
X102183616Y-128305853D01*
X102166443Y-128362467D01*
X102101888Y-128483239D01*
X102082778Y-128518991D01*
X102053448Y-128554729D01*
X101970186Y-128656186D01*
X101868729Y-128739448D01*
X101832991Y-128768778D01*
X101832989Y-128768779D01*
X101676467Y-128852443D01*
X101619853Y-128869616D01*
X101506627Y-128903963D01*
X101440442Y-128910482D01*
X101374260Y-128917000D01*
X101285740Y-128917000D01*
X101219558Y-128910482D01*
X101153373Y-128903963D01*
X101040147Y-128869616D01*
X100983533Y-128852443D01*
X100827011Y-128768779D01*
X100827009Y-128768778D01*
X100791271Y-128739448D01*
X100689814Y-128656186D01*
X100606552Y-128554729D01*
X100577222Y-128518991D01*
X100558112Y-128483239D01*
X100493557Y-128362467D01*
X100476384Y-128305853D01*
X100442037Y-128192627D01*
X100424641Y-128016000D01*
X100442037Y-127839373D01*
X100493557Y-127669534D01*
X100493557Y-127669533D01*
X100577221Y-127513011D01*
X100577222Y-127513009D01*
X100633039Y-127444996D01*
X100689814Y-127375814D01*
X100791271Y-127292552D01*
X100827009Y-127263222D01*
X100844913Y-127253652D01*
X100983533Y-127179557D01*
X101040147Y-127162384D01*
X101153373Y-127128037D01*
X101219557Y-127121519D01*
X101285740Y-127115000D01*
X101374260Y-127115000D01*
X101440443Y-127121519D01*
X101440443Y-127121519D01*
G37*
G36*
X98900443Y-127121519D02*
X98966627Y-127128037D01*
X99079853Y-127162384D01*
X99136467Y-127179557D01*
X99275087Y-127253652D01*
X99292991Y-127263222D01*
X99328729Y-127292552D01*
X99430186Y-127375814D01*
X99486961Y-127444996D01*
X99542778Y-127513009D01*
X99542779Y-127513011D01*
X99626443Y-127669533D01*
X99626443Y-127669534D01*
X99677963Y-127839373D01*
X99695359Y-128016000D01*
X99677963Y-128192627D01*
X99643616Y-128305853D01*
X99626443Y-128362467D01*
X99561888Y-128483239D01*
X99542778Y-128518991D01*
X99513448Y-128554729D01*
X99430186Y-128656186D01*
X99328729Y-128739448D01*
X99292991Y-128768778D01*
X99292989Y-128768779D01*
X99136467Y-128852443D01*
X99079853Y-128869616D01*
X98966627Y-128903963D01*
X98900442Y-128910482D01*
X98834260Y-128917000D01*
X98745740Y-128917000D01*
X98679558Y-128910482D01*
X98613373Y-128903963D01*
X98500147Y-128869616D01*
X98443533Y-128852443D01*
X98287011Y-128768779D01*
X98287009Y-128768778D01*
X98251271Y-128739448D01*
X98149814Y-128656186D01*
X98066552Y-128554729D01*
X98037222Y-128518991D01*
X98018112Y-128483239D01*
X97953557Y-128362467D01*
X97936384Y-128305853D01*
X97902037Y-128192627D01*
X97884641Y-128016000D01*
X97902037Y-127839373D01*
X97953557Y-127669534D01*
X97953557Y-127669533D01*
X98037221Y-127513011D01*
X98037222Y-127513009D01*
X98093039Y-127444996D01*
X98149814Y-127375814D01*
X98251271Y-127292552D01*
X98287009Y-127263222D01*
X98304913Y-127253652D01*
X98443533Y-127179557D01*
X98500147Y-127162384D01*
X98613373Y-127128037D01*
X98679557Y-127121519D01*
X98745740Y-127115000D01*
X98834260Y-127115000D01*
X98900443Y-127121519D01*
X98900443Y-127121519D01*
G37*
G36*
X91280443Y-127121519D02*
X91346627Y-127128037D01*
X91459853Y-127162384D01*
X91516467Y-127179557D01*
X91655087Y-127253652D01*
X91672991Y-127263222D01*
X91708729Y-127292552D01*
X91810186Y-127375814D01*
X91866961Y-127444996D01*
X91922778Y-127513009D01*
X91922779Y-127513011D01*
X92006443Y-127669533D01*
X92006443Y-127669534D01*
X92057963Y-127839373D01*
X92075359Y-128016000D01*
X92057963Y-128192627D01*
X92023616Y-128305853D01*
X92006443Y-128362467D01*
X91941888Y-128483239D01*
X91922778Y-128518991D01*
X91893448Y-128554729D01*
X91810186Y-128656186D01*
X91708729Y-128739448D01*
X91672991Y-128768778D01*
X91672989Y-128768779D01*
X91516467Y-128852443D01*
X91459853Y-128869616D01*
X91346627Y-128903963D01*
X91280442Y-128910482D01*
X91214260Y-128917000D01*
X91125740Y-128917000D01*
X91059558Y-128910482D01*
X90993373Y-128903963D01*
X90880147Y-128869616D01*
X90823533Y-128852443D01*
X90667011Y-128768779D01*
X90667009Y-128768778D01*
X90631271Y-128739448D01*
X90529814Y-128656186D01*
X90446552Y-128554729D01*
X90417222Y-128518991D01*
X90398112Y-128483239D01*
X90333557Y-128362467D01*
X90316384Y-128305853D01*
X90282037Y-128192627D01*
X90264641Y-128016000D01*
X90282037Y-127839373D01*
X90333557Y-127669534D01*
X90333557Y-127669533D01*
X90417221Y-127513011D01*
X90417222Y-127513009D01*
X90473039Y-127444996D01*
X90529814Y-127375814D01*
X90631271Y-127292552D01*
X90667009Y-127263222D01*
X90684913Y-127253652D01*
X90823533Y-127179557D01*
X90880147Y-127162384D01*
X90993373Y-127128037D01*
X91059557Y-127121519D01*
X91125740Y-127115000D01*
X91214260Y-127115000D01*
X91280443Y-127121519D01*
X91280443Y-127121519D01*
G37*
G36*
X88740443Y-127121519D02*
X88806627Y-127128037D01*
X88919853Y-127162384D01*
X88976467Y-127179557D01*
X89115087Y-127253652D01*
X89132991Y-127263222D01*
X89168729Y-127292552D01*
X89270186Y-127375814D01*
X89326961Y-127444996D01*
X89382778Y-127513009D01*
X89382779Y-127513011D01*
X89466443Y-127669533D01*
X89466443Y-127669534D01*
X89517963Y-127839373D01*
X89535359Y-128016000D01*
X89517963Y-128192627D01*
X89483616Y-128305853D01*
X89466443Y-128362467D01*
X89401888Y-128483239D01*
X89382778Y-128518991D01*
X89353448Y-128554729D01*
X89270186Y-128656186D01*
X89168729Y-128739448D01*
X89132991Y-128768778D01*
X89132989Y-128768779D01*
X88976467Y-128852443D01*
X88919853Y-128869616D01*
X88806627Y-128903963D01*
X88740442Y-128910482D01*
X88674260Y-128917000D01*
X88585740Y-128917000D01*
X88519558Y-128910482D01*
X88453373Y-128903963D01*
X88340147Y-128869616D01*
X88283533Y-128852443D01*
X88127011Y-128768779D01*
X88127009Y-128768778D01*
X88091271Y-128739448D01*
X87989814Y-128656186D01*
X87906552Y-128554729D01*
X87877222Y-128518991D01*
X87858112Y-128483239D01*
X87793557Y-128362467D01*
X87776384Y-128305853D01*
X87742037Y-128192627D01*
X87724641Y-128016000D01*
X87742037Y-127839373D01*
X87793557Y-127669534D01*
X87793557Y-127669533D01*
X87877221Y-127513011D01*
X87877222Y-127513009D01*
X87933039Y-127444996D01*
X87989814Y-127375814D01*
X88091271Y-127292552D01*
X88127009Y-127263222D01*
X88144913Y-127253652D01*
X88283533Y-127179557D01*
X88340147Y-127162384D01*
X88453373Y-127128037D01*
X88519557Y-127121519D01*
X88585740Y-127115000D01*
X88674260Y-127115000D01*
X88740443Y-127121519D01*
X88740443Y-127121519D01*
G37*
G36*
X86200443Y-127121519D02*
X86266627Y-127128037D01*
X86379853Y-127162384D01*
X86436467Y-127179557D01*
X86575087Y-127253652D01*
X86592991Y-127263222D01*
X86628729Y-127292552D01*
X86730186Y-127375814D01*
X86786961Y-127444996D01*
X86842778Y-127513009D01*
X86842779Y-127513011D01*
X86926443Y-127669533D01*
X86926443Y-127669534D01*
X86977963Y-127839373D01*
X86995359Y-128016000D01*
X86977963Y-128192627D01*
X86943616Y-128305853D01*
X86926443Y-128362467D01*
X86861888Y-128483239D01*
X86842778Y-128518991D01*
X86813448Y-128554729D01*
X86730186Y-128656186D01*
X86628729Y-128739448D01*
X86592991Y-128768778D01*
X86592989Y-128768779D01*
X86436467Y-128852443D01*
X86379853Y-128869616D01*
X86266627Y-128903963D01*
X86200442Y-128910482D01*
X86134260Y-128917000D01*
X86045740Y-128917000D01*
X85979558Y-128910482D01*
X85913373Y-128903963D01*
X85800147Y-128869616D01*
X85743533Y-128852443D01*
X85587011Y-128768779D01*
X85587009Y-128768778D01*
X85551271Y-128739448D01*
X85449814Y-128656186D01*
X85366552Y-128554729D01*
X85337222Y-128518991D01*
X85318112Y-128483239D01*
X85253557Y-128362467D01*
X85236384Y-128305853D01*
X85202037Y-128192627D01*
X85184641Y-128016000D01*
X85202037Y-127839373D01*
X85253557Y-127669534D01*
X85253557Y-127669533D01*
X85337221Y-127513011D01*
X85337222Y-127513009D01*
X85393039Y-127444996D01*
X85449814Y-127375814D01*
X85551271Y-127292552D01*
X85587009Y-127263222D01*
X85604913Y-127253652D01*
X85743533Y-127179557D01*
X85800147Y-127162384D01*
X85913373Y-127128037D01*
X85979557Y-127121519D01*
X86045740Y-127115000D01*
X86134260Y-127115000D01*
X86200443Y-127121519D01*
X86200443Y-127121519D01*
G37*
G36*
X83660443Y-127121519D02*
X83726627Y-127128037D01*
X83839853Y-127162384D01*
X83896467Y-127179557D01*
X84035087Y-127253652D01*
X84052991Y-127263222D01*
X84088729Y-127292552D01*
X84190186Y-127375814D01*
X84246961Y-127444996D01*
X84302778Y-127513009D01*
X84302779Y-127513011D01*
X84386443Y-127669533D01*
X84386443Y-127669534D01*
X84437963Y-127839373D01*
X84455359Y-128016000D01*
X84437963Y-128192627D01*
X84403616Y-128305853D01*
X84386443Y-128362467D01*
X84321888Y-128483239D01*
X84302778Y-128518991D01*
X84273448Y-128554729D01*
X84190186Y-128656186D01*
X84088729Y-128739448D01*
X84052991Y-128768778D01*
X84052989Y-128768779D01*
X83896467Y-128852443D01*
X83839853Y-128869616D01*
X83726627Y-128903963D01*
X83660442Y-128910482D01*
X83594260Y-128917000D01*
X83505740Y-128917000D01*
X83439558Y-128910482D01*
X83373373Y-128903963D01*
X83260147Y-128869616D01*
X83203533Y-128852443D01*
X83047011Y-128768779D01*
X83047009Y-128768778D01*
X83011271Y-128739448D01*
X82909814Y-128656186D01*
X82826552Y-128554729D01*
X82797222Y-128518991D01*
X82778112Y-128483239D01*
X82713557Y-128362467D01*
X82696384Y-128305853D01*
X82662037Y-128192627D01*
X82644641Y-128016000D01*
X82662037Y-127839373D01*
X82713557Y-127669534D01*
X82713557Y-127669533D01*
X82797221Y-127513011D01*
X82797222Y-127513009D01*
X82853039Y-127444996D01*
X82909814Y-127375814D01*
X83011271Y-127292552D01*
X83047009Y-127263222D01*
X83064913Y-127253652D01*
X83203533Y-127179557D01*
X83260147Y-127162384D01*
X83373373Y-127128037D01*
X83439557Y-127121519D01*
X83505740Y-127115000D01*
X83594260Y-127115000D01*
X83660443Y-127121519D01*
X83660443Y-127121519D01*
G37*
G36*
X81120443Y-127121519D02*
X81186627Y-127128037D01*
X81299853Y-127162384D01*
X81356467Y-127179557D01*
X81495087Y-127253652D01*
X81512991Y-127263222D01*
X81548729Y-127292552D01*
X81650186Y-127375814D01*
X81706961Y-127444996D01*
X81762778Y-127513009D01*
X81762779Y-127513011D01*
X81846443Y-127669533D01*
X81846443Y-127669534D01*
X81897963Y-127839373D01*
X81915359Y-128016000D01*
X81897963Y-128192627D01*
X81863616Y-128305853D01*
X81846443Y-128362467D01*
X81781888Y-128483239D01*
X81762778Y-128518991D01*
X81733448Y-128554729D01*
X81650186Y-128656186D01*
X81548729Y-128739448D01*
X81512991Y-128768778D01*
X81512989Y-128768779D01*
X81356467Y-128852443D01*
X81299853Y-128869616D01*
X81186627Y-128903963D01*
X81120442Y-128910482D01*
X81054260Y-128917000D01*
X80965740Y-128917000D01*
X80899558Y-128910482D01*
X80833373Y-128903963D01*
X80720147Y-128869616D01*
X80663533Y-128852443D01*
X80507011Y-128768779D01*
X80507009Y-128768778D01*
X80471271Y-128739448D01*
X80369814Y-128656186D01*
X80286552Y-128554729D01*
X80257222Y-128518991D01*
X80238112Y-128483239D01*
X80173557Y-128362467D01*
X80156384Y-128305853D01*
X80122037Y-128192627D01*
X80104641Y-128016000D01*
X80122037Y-127839373D01*
X80173557Y-127669534D01*
X80173557Y-127669533D01*
X80257221Y-127513011D01*
X80257222Y-127513009D01*
X80313039Y-127444996D01*
X80369814Y-127375814D01*
X80471271Y-127292552D01*
X80507009Y-127263222D01*
X80524913Y-127253652D01*
X80663533Y-127179557D01*
X80720147Y-127162384D01*
X80833373Y-127128037D01*
X80899557Y-127121519D01*
X80965740Y-127115000D01*
X81054260Y-127115000D01*
X81120443Y-127121519D01*
X81120443Y-127121519D01*
G37*
G36*
X78580443Y-127121519D02*
X78646627Y-127128037D01*
X78759853Y-127162384D01*
X78816467Y-127179557D01*
X78955087Y-127253652D01*
X78972991Y-127263222D01*
X79008729Y-127292552D01*
X79110186Y-127375814D01*
X79166961Y-127444996D01*
X79222778Y-127513009D01*
X79222779Y-127513011D01*
X79306443Y-127669533D01*
X79306443Y-127669534D01*
X79357963Y-127839373D01*
X79375359Y-128016000D01*
X79357963Y-128192627D01*
X79323616Y-128305853D01*
X79306443Y-128362467D01*
X79241888Y-128483239D01*
X79222778Y-128518991D01*
X79193448Y-128554729D01*
X79110186Y-128656186D01*
X79008729Y-128739448D01*
X78972991Y-128768778D01*
X78972989Y-128768779D01*
X78816467Y-128852443D01*
X78759853Y-128869616D01*
X78646627Y-128903963D01*
X78580442Y-128910482D01*
X78514260Y-128917000D01*
X78425740Y-128917000D01*
X78359558Y-128910482D01*
X78293373Y-128903963D01*
X78180147Y-128869616D01*
X78123533Y-128852443D01*
X77967011Y-128768779D01*
X77967009Y-128768778D01*
X77931271Y-128739448D01*
X77829814Y-128656186D01*
X77746552Y-128554729D01*
X77717222Y-128518991D01*
X77698112Y-128483239D01*
X77633557Y-128362467D01*
X77616384Y-128305853D01*
X77582037Y-128192627D01*
X77564641Y-128016000D01*
X77582037Y-127839373D01*
X77633557Y-127669534D01*
X77633557Y-127669533D01*
X77717221Y-127513011D01*
X77717222Y-127513009D01*
X77773039Y-127444996D01*
X77829814Y-127375814D01*
X77931271Y-127292552D01*
X77967009Y-127263222D01*
X77984913Y-127253652D01*
X78123533Y-127179557D01*
X78180147Y-127162384D01*
X78293373Y-127128037D01*
X78359557Y-127121519D01*
X78425740Y-127115000D01*
X78514260Y-127115000D01*
X78580443Y-127121519D01*
X78580443Y-127121519D01*
G37*
G36*
X76831000Y-128917000D02*
X75029000Y-128917000D01*
X75029000Y-127115000D01*
X76831000Y-127115000D01*
X76831000Y-128917000D01*
X76831000Y-128917000D01*
G37*
G36*
X103980443Y-124581519D02*
X104046627Y-124588037D01*
X104159853Y-124622384D01*
X104216467Y-124639557D01*
X104355087Y-124713652D01*
X104372991Y-124723222D01*
X104408729Y-124752552D01*
X104510186Y-124835814D01*
X104593448Y-124937271D01*
X104622778Y-124973009D01*
X104622779Y-124973011D01*
X104706443Y-125129533D01*
X104706443Y-125129534D01*
X104757963Y-125299373D01*
X104775359Y-125476000D01*
X104757963Y-125652627D01*
X104723616Y-125765853D01*
X104706443Y-125822467D01*
X104632348Y-125961087D01*
X104622778Y-125978991D01*
X104593448Y-126014729D01*
X104510186Y-126116186D01*
X104408729Y-126199448D01*
X104372991Y-126228778D01*
X104372989Y-126228779D01*
X104216467Y-126312443D01*
X104159853Y-126329616D01*
X104046627Y-126363963D01*
X103980442Y-126370482D01*
X103914260Y-126377000D01*
X103825740Y-126377000D01*
X103759558Y-126370482D01*
X103693373Y-126363963D01*
X103580147Y-126329616D01*
X103523533Y-126312443D01*
X103367011Y-126228779D01*
X103367009Y-126228778D01*
X103331271Y-126199448D01*
X103229814Y-126116186D01*
X103146552Y-126014729D01*
X103117222Y-125978991D01*
X103107652Y-125961087D01*
X103033557Y-125822467D01*
X103016384Y-125765853D01*
X102982037Y-125652627D01*
X102964641Y-125476000D01*
X102982037Y-125299373D01*
X103033557Y-125129534D01*
X103033557Y-125129533D01*
X103117221Y-124973011D01*
X103117222Y-124973009D01*
X103146552Y-124937271D01*
X103229814Y-124835814D01*
X103331271Y-124752552D01*
X103367009Y-124723222D01*
X103384913Y-124713652D01*
X103523533Y-124639557D01*
X103580147Y-124622384D01*
X103693373Y-124588037D01*
X103759557Y-124581519D01*
X103825740Y-124575000D01*
X103914260Y-124575000D01*
X103980443Y-124581519D01*
X103980443Y-124581519D01*
G37*
G36*
X101440443Y-124581519D02*
X101506627Y-124588037D01*
X101619853Y-124622384D01*
X101676467Y-124639557D01*
X101815087Y-124713652D01*
X101832991Y-124723222D01*
X101868729Y-124752552D01*
X101970186Y-124835814D01*
X102053448Y-124937271D01*
X102082778Y-124973009D01*
X102082779Y-124973011D01*
X102166443Y-125129533D01*
X102166443Y-125129534D01*
X102217963Y-125299373D01*
X102235359Y-125476000D01*
X102217963Y-125652627D01*
X102183616Y-125765853D01*
X102166443Y-125822467D01*
X102092348Y-125961087D01*
X102082778Y-125978991D01*
X102053448Y-126014729D01*
X101970186Y-126116186D01*
X101868729Y-126199448D01*
X101832991Y-126228778D01*
X101832989Y-126228779D01*
X101676467Y-126312443D01*
X101619853Y-126329616D01*
X101506627Y-126363963D01*
X101440442Y-126370482D01*
X101374260Y-126377000D01*
X101285740Y-126377000D01*
X101219558Y-126370482D01*
X101153373Y-126363963D01*
X101040147Y-126329616D01*
X100983533Y-126312443D01*
X100827011Y-126228779D01*
X100827009Y-126228778D01*
X100791271Y-126199448D01*
X100689814Y-126116186D01*
X100606552Y-126014729D01*
X100577222Y-125978991D01*
X100567652Y-125961087D01*
X100493557Y-125822467D01*
X100476384Y-125765853D01*
X100442037Y-125652627D01*
X100424641Y-125476000D01*
X100442037Y-125299373D01*
X100493557Y-125129534D01*
X100493557Y-125129533D01*
X100577221Y-124973011D01*
X100577222Y-124973009D01*
X100606552Y-124937271D01*
X100689814Y-124835814D01*
X100791271Y-124752552D01*
X100827009Y-124723222D01*
X100844913Y-124713652D01*
X100983533Y-124639557D01*
X101040147Y-124622384D01*
X101153373Y-124588037D01*
X101219557Y-124581519D01*
X101285740Y-124575000D01*
X101374260Y-124575000D01*
X101440443Y-124581519D01*
X101440443Y-124581519D01*
G37*
G36*
X99691000Y-126377000D02*
X97889000Y-126377000D01*
X97889000Y-124575000D01*
X99691000Y-124575000D01*
X99691000Y-126377000D01*
X99691000Y-126377000D01*
G37*
G36*
X106520443Y-124581519D02*
X106586627Y-124588037D01*
X106699853Y-124622384D01*
X106756467Y-124639557D01*
X106895087Y-124713652D01*
X106912991Y-124723222D01*
X106948729Y-124752552D01*
X107050186Y-124835814D01*
X107133448Y-124937271D01*
X107162778Y-124973009D01*
X107162779Y-124973011D01*
X107246443Y-125129533D01*
X107246443Y-125129534D01*
X107297963Y-125299373D01*
X107315359Y-125476000D01*
X107297963Y-125652627D01*
X107263616Y-125765853D01*
X107246443Y-125822467D01*
X107172348Y-125961087D01*
X107162778Y-125978991D01*
X107133448Y-126014729D01*
X107050186Y-126116186D01*
X106948729Y-126199448D01*
X106912991Y-126228778D01*
X106912989Y-126228779D01*
X106756467Y-126312443D01*
X106699853Y-126329616D01*
X106586627Y-126363963D01*
X106520442Y-126370482D01*
X106454260Y-126377000D01*
X106365740Y-126377000D01*
X106299558Y-126370482D01*
X106233373Y-126363963D01*
X106120147Y-126329616D01*
X106063533Y-126312443D01*
X105907011Y-126228779D01*
X105907009Y-126228778D01*
X105871271Y-126199448D01*
X105769814Y-126116186D01*
X105686552Y-126014729D01*
X105657222Y-125978991D01*
X105647652Y-125961087D01*
X105573557Y-125822467D01*
X105556384Y-125765853D01*
X105522037Y-125652627D01*
X105504641Y-125476000D01*
X105522037Y-125299373D01*
X105573557Y-125129534D01*
X105573557Y-125129533D01*
X105657221Y-124973011D01*
X105657222Y-124973009D01*
X105686552Y-124937271D01*
X105769814Y-124835814D01*
X105871271Y-124752552D01*
X105907009Y-124723222D01*
X105924913Y-124713652D01*
X106063533Y-124639557D01*
X106120147Y-124622384D01*
X106233373Y-124588037D01*
X106299557Y-124581519D01*
X106365740Y-124575000D01*
X106454260Y-124575000D01*
X106520443Y-124581519D01*
X106520443Y-124581519D01*
G37*
G36*
X110348228Y-119717703D02*
X110503100Y-119781853D01*
X110642481Y-119874985D01*
X110761015Y-119993519D01*
X110854147Y-120132900D01*
X110918297Y-120287772D01*
X110951000Y-120452184D01*
X110951000Y-120619816D01*
X110918297Y-120784228D01*
X110854147Y-120939100D01*
X110761015Y-121078481D01*
X110642481Y-121197015D01*
X110503100Y-121290147D01*
X110348228Y-121354297D01*
X110183816Y-121387000D01*
X110016184Y-121387000D01*
X109851772Y-121354297D01*
X109696900Y-121290147D01*
X109557519Y-121197015D01*
X109438985Y-121078481D01*
X109345853Y-120939100D01*
X109281703Y-120784228D01*
X109249000Y-120619816D01*
X109249000Y-120452184D01*
X109281703Y-120287772D01*
X109345853Y-120132900D01*
X109438985Y-119993519D01*
X109557519Y-119874985D01*
X109696900Y-119781853D01*
X109851772Y-119717703D01*
X110016184Y-119685000D01*
X110183816Y-119685000D01*
X110348228Y-119717703D01*
X110348228Y-119717703D01*
G37*
G36*
X104118228Y-119577703D02*
X104273100Y-119641853D01*
X104412481Y-119734985D01*
X104531015Y-119853519D01*
X104624147Y-119992900D01*
X104688297Y-120147772D01*
X104721000Y-120312184D01*
X104721000Y-120479816D01*
X104688297Y-120644228D01*
X104624147Y-120799100D01*
X104531015Y-120938481D01*
X104412481Y-121057015D01*
X104273100Y-121150147D01*
X104118228Y-121214297D01*
X103953816Y-121247000D01*
X103786184Y-121247000D01*
X103621772Y-121214297D01*
X103466900Y-121150147D01*
X103327519Y-121057015D01*
X103208985Y-120938481D01*
X103115853Y-120799100D01*
X103051703Y-120644228D01*
X103019000Y-120479816D01*
X103019000Y-120312184D01*
X103051703Y-120147772D01*
X103115853Y-119992900D01*
X103208985Y-119853519D01*
X103327519Y-119734985D01*
X103466900Y-119641853D01*
X103621772Y-119577703D01*
X103786184Y-119545000D01*
X103953816Y-119545000D01*
X104118228Y-119577703D01*
X104118228Y-119577703D01*
G37*
G36*
X74241000Y-121247000D02*
X72539000Y-121247000D01*
X72539000Y-119545000D01*
X74241000Y-119545000D01*
X74241000Y-121247000D01*
X74241000Y-121247000D01*
G37*
G36*
X101578228Y-119577703D02*
X101733100Y-119641853D01*
X101872481Y-119734985D01*
X101991015Y-119853519D01*
X102084147Y-119992900D01*
X102148297Y-120147772D01*
X102181000Y-120312184D01*
X102181000Y-120479816D01*
X102148297Y-120644228D01*
X102084147Y-120799100D01*
X101991015Y-120938481D01*
X101872481Y-121057015D01*
X101733100Y-121150147D01*
X101578228Y-121214297D01*
X101413816Y-121247000D01*
X101246184Y-121247000D01*
X101081772Y-121214297D01*
X100926900Y-121150147D01*
X100787519Y-121057015D01*
X100668985Y-120938481D01*
X100575853Y-120799100D01*
X100511703Y-120644228D01*
X100479000Y-120479816D01*
X100479000Y-120312184D01*
X100511703Y-120147772D01*
X100575853Y-119992900D01*
X100668985Y-119853519D01*
X100787519Y-119734985D01*
X100926900Y-119641853D01*
X101081772Y-119577703D01*
X101246184Y-119545000D01*
X101413816Y-119545000D01*
X101578228Y-119577703D01*
X101578228Y-119577703D01*
G37*
G36*
X99038228Y-119577703D02*
X99193100Y-119641853D01*
X99332481Y-119734985D01*
X99451015Y-119853519D01*
X99544147Y-119992900D01*
X99608297Y-120147772D01*
X99641000Y-120312184D01*
X99641000Y-120479816D01*
X99608297Y-120644228D01*
X99544147Y-120799100D01*
X99451015Y-120938481D01*
X99332481Y-121057015D01*
X99193100Y-121150147D01*
X99038228Y-121214297D01*
X98873816Y-121247000D01*
X98706184Y-121247000D01*
X98541772Y-121214297D01*
X98386900Y-121150147D01*
X98247519Y-121057015D01*
X98128985Y-120938481D01*
X98035853Y-120799100D01*
X97971703Y-120644228D01*
X97939000Y-120479816D01*
X97939000Y-120312184D01*
X97971703Y-120147772D01*
X98035853Y-119992900D01*
X98128985Y-119853519D01*
X98247519Y-119734985D01*
X98386900Y-119641853D01*
X98541772Y-119577703D01*
X98706184Y-119545000D01*
X98873816Y-119545000D01*
X99038228Y-119577703D01*
X99038228Y-119577703D01*
G37*
G36*
X96498228Y-119577703D02*
X96653100Y-119641853D01*
X96792481Y-119734985D01*
X96911015Y-119853519D01*
X97004147Y-119992900D01*
X97068297Y-120147772D01*
X97101000Y-120312184D01*
X97101000Y-120479816D01*
X97068297Y-120644228D01*
X97004147Y-120799100D01*
X96911015Y-120938481D01*
X96792481Y-121057015D01*
X96653100Y-121150147D01*
X96498228Y-121214297D01*
X96333816Y-121247000D01*
X96166184Y-121247000D01*
X96001772Y-121214297D01*
X95846900Y-121150147D01*
X95707519Y-121057015D01*
X95588985Y-120938481D01*
X95495853Y-120799100D01*
X95431703Y-120644228D01*
X95399000Y-120479816D01*
X95399000Y-120312184D01*
X95431703Y-120147772D01*
X95495853Y-119992900D01*
X95588985Y-119853519D01*
X95707519Y-119734985D01*
X95846900Y-119641853D01*
X96001772Y-119577703D01*
X96166184Y-119545000D01*
X96333816Y-119545000D01*
X96498228Y-119577703D01*
X96498228Y-119577703D01*
G37*
G36*
X93958228Y-119577703D02*
X94113100Y-119641853D01*
X94252481Y-119734985D01*
X94371015Y-119853519D01*
X94464147Y-119992900D01*
X94528297Y-120147772D01*
X94561000Y-120312184D01*
X94561000Y-120479816D01*
X94528297Y-120644228D01*
X94464147Y-120799100D01*
X94371015Y-120938481D01*
X94252481Y-121057015D01*
X94113100Y-121150147D01*
X93958228Y-121214297D01*
X93793816Y-121247000D01*
X93626184Y-121247000D01*
X93461772Y-121214297D01*
X93306900Y-121150147D01*
X93167519Y-121057015D01*
X93048985Y-120938481D01*
X92955853Y-120799100D01*
X92891703Y-120644228D01*
X92859000Y-120479816D01*
X92859000Y-120312184D01*
X92891703Y-120147772D01*
X92955853Y-119992900D01*
X93048985Y-119853519D01*
X93167519Y-119734985D01*
X93306900Y-119641853D01*
X93461772Y-119577703D01*
X93626184Y-119545000D01*
X93793816Y-119545000D01*
X93958228Y-119577703D01*
X93958228Y-119577703D01*
G37*
G36*
X91418228Y-119577703D02*
X91573100Y-119641853D01*
X91712481Y-119734985D01*
X91831015Y-119853519D01*
X91924147Y-119992900D01*
X91988297Y-120147772D01*
X92021000Y-120312184D01*
X92021000Y-120479816D01*
X91988297Y-120644228D01*
X91924147Y-120799100D01*
X91831015Y-120938481D01*
X91712481Y-121057015D01*
X91573100Y-121150147D01*
X91418228Y-121214297D01*
X91253816Y-121247000D01*
X91086184Y-121247000D01*
X90921772Y-121214297D01*
X90766900Y-121150147D01*
X90627519Y-121057015D01*
X90508985Y-120938481D01*
X90415853Y-120799100D01*
X90351703Y-120644228D01*
X90319000Y-120479816D01*
X90319000Y-120312184D01*
X90351703Y-120147772D01*
X90415853Y-119992900D01*
X90508985Y-119853519D01*
X90627519Y-119734985D01*
X90766900Y-119641853D01*
X90921772Y-119577703D01*
X91086184Y-119545000D01*
X91253816Y-119545000D01*
X91418228Y-119577703D01*
X91418228Y-119577703D01*
G37*
G36*
X88878228Y-119577703D02*
X89033100Y-119641853D01*
X89172481Y-119734985D01*
X89291015Y-119853519D01*
X89384147Y-119992900D01*
X89448297Y-120147772D01*
X89481000Y-120312184D01*
X89481000Y-120479816D01*
X89448297Y-120644228D01*
X89384147Y-120799100D01*
X89291015Y-120938481D01*
X89172481Y-121057015D01*
X89033100Y-121150147D01*
X88878228Y-121214297D01*
X88713816Y-121247000D01*
X88546184Y-121247000D01*
X88381772Y-121214297D01*
X88226900Y-121150147D01*
X88087519Y-121057015D01*
X87968985Y-120938481D01*
X87875853Y-120799100D01*
X87811703Y-120644228D01*
X87779000Y-120479816D01*
X87779000Y-120312184D01*
X87811703Y-120147772D01*
X87875853Y-119992900D01*
X87968985Y-119853519D01*
X88087519Y-119734985D01*
X88226900Y-119641853D01*
X88381772Y-119577703D01*
X88546184Y-119545000D01*
X88713816Y-119545000D01*
X88878228Y-119577703D01*
X88878228Y-119577703D01*
G37*
G36*
X86338228Y-119577703D02*
X86493100Y-119641853D01*
X86632481Y-119734985D01*
X86751015Y-119853519D01*
X86844147Y-119992900D01*
X86908297Y-120147772D01*
X86941000Y-120312184D01*
X86941000Y-120479816D01*
X86908297Y-120644228D01*
X86844147Y-120799100D01*
X86751015Y-120938481D01*
X86632481Y-121057015D01*
X86493100Y-121150147D01*
X86338228Y-121214297D01*
X86173816Y-121247000D01*
X86006184Y-121247000D01*
X85841772Y-121214297D01*
X85686900Y-121150147D01*
X85547519Y-121057015D01*
X85428985Y-120938481D01*
X85335853Y-120799100D01*
X85271703Y-120644228D01*
X85239000Y-120479816D01*
X85239000Y-120312184D01*
X85271703Y-120147772D01*
X85335853Y-119992900D01*
X85428985Y-119853519D01*
X85547519Y-119734985D01*
X85686900Y-119641853D01*
X85841772Y-119577703D01*
X86006184Y-119545000D01*
X86173816Y-119545000D01*
X86338228Y-119577703D01*
X86338228Y-119577703D01*
G37*
G36*
X83798228Y-119577703D02*
X83953100Y-119641853D01*
X84092481Y-119734985D01*
X84211015Y-119853519D01*
X84304147Y-119992900D01*
X84368297Y-120147772D01*
X84401000Y-120312184D01*
X84401000Y-120479816D01*
X84368297Y-120644228D01*
X84304147Y-120799100D01*
X84211015Y-120938481D01*
X84092481Y-121057015D01*
X83953100Y-121150147D01*
X83798228Y-121214297D01*
X83633816Y-121247000D01*
X83466184Y-121247000D01*
X83301772Y-121214297D01*
X83146900Y-121150147D01*
X83007519Y-121057015D01*
X82888985Y-120938481D01*
X82795853Y-120799100D01*
X82731703Y-120644228D01*
X82699000Y-120479816D01*
X82699000Y-120312184D01*
X82731703Y-120147772D01*
X82795853Y-119992900D01*
X82888985Y-119853519D01*
X83007519Y-119734985D01*
X83146900Y-119641853D01*
X83301772Y-119577703D01*
X83466184Y-119545000D01*
X83633816Y-119545000D01*
X83798228Y-119577703D01*
X83798228Y-119577703D01*
G37*
G36*
X81258228Y-119577703D02*
X81413100Y-119641853D01*
X81552481Y-119734985D01*
X81671015Y-119853519D01*
X81764147Y-119992900D01*
X81828297Y-120147772D01*
X81861000Y-120312184D01*
X81861000Y-120479816D01*
X81828297Y-120644228D01*
X81764147Y-120799100D01*
X81671015Y-120938481D01*
X81552481Y-121057015D01*
X81413100Y-121150147D01*
X81258228Y-121214297D01*
X81093816Y-121247000D01*
X80926184Y-121247000D01*
X80761772Y-121214297D01*
X80606900Y-121150147D01*
X80467519Y-121057015D01*
X80348985Y-120938481D01*
X80255853Y-120799100D01*
X80191703Y-120644228D01*
X80159000Y-120479816D01*
X80159000Y-120312184D01*
X80191703Y-120147772D01*
X80255853Y-119992900D01*
X80348985Y-119853519D01*
X80467519Y-119734985D01*
X80606900Y-119641853D01*
X80761772Y-119577703D01*
X80926184Y-119545000D01*
X81093816Y-119545000D01*
X81258228Y-119577703D01*
X81258228Y-119577703D01*
G37*
G36*
X78718228Y-119577703D02*
X78873100Y-119641853D01*
X79012481Y-119734985D01*
X79131015Y-119853519D01*
X79224147Y-119992900D01*
X79288297Y-120147772D01*
X79321000Y-120312184D01*
X79321000Y-120479816D01*
X79288297Y-120644228D01*
X79224147Y-120799100D01*
X79131015Y-120938481D01*
X79012481Y-121057015D01*
X78873100Y-121150147D01*
X78718228Y-121214297D01*
X78553816Y-121247000D01*
X78386184Y-121247000D01*
X78221772Y-121214297D01*
X78066900Y-121150147D01*
X77927519Y-121057015D01*
X77808985Y-120938481D01*
X77715853Y-120799100D01*
X77651703Y-120644228D01*
X77619000Y-120479816D01*
X77619000Y-120312184D01*
X77651703Y-120147772D01*
X77715853Y-119992900D01*
X77808985Y-119853519D01*
X77927519Y-119734985D01*
X78066900Y-119641853D01*
X78221772Y-119577703D01*
X78386184Y-119545000D01*
X78553816Y-119545000D01*
X78718228Y-119577703D01*
X78718228Y-119577703D01*
G37*
G36*
X76178228Y-119577703D02*
X76333100Y-119641853D01*
X76472481Y-119734985D01*
X76591015Y-119853519D01*
X76684147Y-119992900D01*
X76748297Y-120147772D01*
X76781000Y-120312184D01*
X76781000Y-120479816D01*
X76748297Y-120644228D01*
X76684147Y-120799100D01*
X76591015Y-120938481D01*
X76472481Y-121057015D01*
X76333100Y-121150147D01*
X76178228Y-121214297D01*
X76013816Y-121247000D01*
X75846184Y-121247000D01*
X75681772Y-121214297D01*
X75526900Y-121150147D01*
X75387519Y-121057015D01*
X75268985Y-120938481D01*
X75175853Y-120799100D01*
X75111703Y-120644228D01*
X75079000Y-120479816D01*
X75079000Y-120312184D01*
X75111703Y-120147772D01*
X75175853Y-119992900D01*
X75268985Y-119853519D01*
X75387519Y-119734985D01*
X75526900Y-119641853D01*
X75681772Y-119577703D01*
X75846184Y-119545000D01*
X76013816Y-119545000D01*
X76178228Y-119577703D01*
X76178228Y-119577703D01*
G37*
G36*
X106658228Y-119577703D02*
X106813100Y-119641853D01*
X106952481Y-119734985D01*
X107071015Y-119853519D01*
X107164147Y-119992900D01*
X107228297Y-120147772D01*
X107261000Y-120312184D01*
X107261000Y-120479816D01*
X107228297Y-120644228D01*
X107164147Y-120799100D01*
X107071015Y-120938481D01*
X106952481Y-121057015D01*
X106813100Y-121150147D01*
X106658228Y-121214297D01*
X106493816Y-121247000D01*
X106326184Y-121247000D01*
X106161772Y-121214297D01*
X106006900Y-121150147D01*
X105867519Y-121057015D01*
X105748985Y-120938481D01*
X105655853Y-120799100D01*
X105591703Y-120644228D01*
X105559000Y-120479816D01*
X105559000Y-120312184D01*
X105591703Y-120147772D01*
X105655853Y-119992900D01*
X105748985Y-119853519D01*
X105867519Y-119734985D01*
X106006900Y-119641853D01*
X106161772Y-119577703D01*
X106326184Y-119545000D01*
X106493816Y-119545000D01*
X106658228Y-119577703D01*
X106658228Y-119577703D01*
G37*
G36*
X106658228Y-117037703D02*
X106813100Y-117101853D01*
X106952481Y-117194985D01*
X107071015Y-117313519D01*
X107164147Y-117452900D01*
X107228297Y-117607772D01*
X107261000Y-117772184D01*
X107261000Y-117939816D01*
X107228297Y-118104228D01*
X107164147Y-118259100D01*
X107071015Y-118398481D01*
X106952481Y-118517015D01*
X106813100Y-118610147D01*
X106658228Y-118674297D01*
X106493816Y-118707000D01*
X106326184Y-118707000D01*
X106161772Y-118674297D01*
X106006900Y-118610147D01*
X105867519Y-118517015D01*
X105748985Y-118398481D01*
X105655853Y-118259100D01*
X105591703Y-118104228D01*
X105559000Y-117939816D01*
X105559000Y-117772184D01*
X105591703Y-117607772D01*
X105655853Y-117452900D01*
X105748985Y-117313519D01*
X105867519Y-117194985D01*
X106006900Y-117101853D01*
X106161772Y-117037703D01*
X106326184Y-117005000D01*
X106493816Y-117005000D01*
X106658228Y-117037703D01*
X106658228Y-117037703D01*
G37*
G36*
X110266821Y-116817313D02*
X110266824Y-116817314D01*
X110266825Y-116817314D01*
X110427239Y-116865975D01*
X110427241Y-116865976D01*
X110427244Y-116865977D01*
X110575078Y-116944995D01*
X110704659Y-117051341D01*
X110811005Y-117180922D01*
X110890023Y-117328756D01*
X110938687Y-117489179D01*
X110955117Y-117656000D01*
X110938687Y-117822821D01*
X110890023Y-117983244D01*
X110811005Y-118131078D01*
X110704659Y-118260659D01*
X110575078Y-118367005D01*
X110427244Y-118446023D01*
X110427241Y-118446024D01*
X110427239Y-118446025D01*
X110266825Y-118494686D01*
X110266824Y-118494686D01*
X110266821Y-118494687D01*
X110141804Y-118507000D01*
X110058196Y-118507000D01*
X109933179Y-118494687D01*
X109933176Y-118494686D01*
X109933175Y-118494686D01*
X109772761Y-118446025D01*
X109772759Y-118446024D01*
X109772756Y-118446023D01*
X109624922Y-118367005D01*
X109495341Y-118260659D01*
X109388995Y-118131078D01*
X109309977Y-117983244D01*
X109261313Y-117822821D01*
X109244883Y-117656000D01*
X109261313Y-117489179D01*
X109309977Y-117328756D01*
X109388995Y-117180922D01*
X109495341Y-117051341D01*
X109624922Y-116944995D01*
X109772756Y-116865977D01*
X109772759Y-116865976D01*
X109772761Y-116865975D01*
X109933175Y-116817314D01*
X109933176Y-116817314D01*
X109933179Y-116817313D01*
X110058196Y-116805000D01*
X110141804Y-116805000D01*
X110266821Y-116817313D01*
X110266821Y-116817313D01*
G37*
G36*
X106658228Y-114497703D02*
X106813100Y-114561853D01*
X106952481Y-114654985D01*
X107071015Y-114773519D01*
X107164147Y-114912900D01*
X107228297Y-115067772D01*
X107261000Y-115232184D01*
X107261000Y-115399816D01*
X107228297Y-115564228D01*
X107164147Y-115719100D01*
X107071015Y-115858481D01*
X106952481Y-115977015D01*
X106813100Y-116070147D01*
X106658228Y-116134297D01*
X106493816Y-116167000D01*
X106326184Y-116167000D01*
X106161772Y-116134297D01*
X106006900Y-116070147D01*
X105867519Y-115977015D01*
X105748985Y-115858481D01*
X105655853Y-115719100D01*
X105591703Y-115564228D01*
X105559000Y-115399816D01*
X105559000Y-115232184D01*
X105591703Y-115067772D01*
X105655853Y-114912900D01*
X105748985Y-114773519D01*
X105867519Y-114654985D01*
X106006900Y-114561853D01*
X106161772Y-114497703D01*
X106326184Y-114465000D01*
X106493816Y-114465000D01*
X106658228Y-114497703D01*
X106658228Y-114497703D01*
G37*
G36*
X116551000Y-114987000D02*
X114649000Y-114987000D01*
X114649000Y-113085000D01*
X116551000Y-113085000D01*
X116551000Y-114987000D01*
X116551000Y-114987000D01*
G37*
G36*
X113337396Y-113121546D02*
X113510466Y-113193234D01*
X113666230Y-113297312D01*
X113798688Y-113429770D01*
X113902766Y-113585534D01*
X113974454Y-113758604D01*
X114011000Y-113942333D01*
X114011000Y-114129667D01*
X113974454Y-114313396D01*
X113902766Y-114486466D01*
X113798688Y-114642230D01*
X113666230Y-114774688D01*
X113510466Y-114878766D01*
X113337396Y-114950454D01*
X113153667Y-114987000D01*
X112966333Y-114987000D01*
X112782604Y-114950454D01*
X112609534Y-114878766D01*
X112453770Y-114774688D01*
X112321312Y-114642230D01*
X112217234Y-114486466D01*
X112145546Y-114313396D01*
X112109000Y-114129667D01*
X112109000Y-113942333D01*
X112145546Y-113758604D01*
X112217234Y-113585534D01*
X112321312Y-113429770D01*
X112453770Y-113297312D01*
X112609534Y-113193234D01*
X112782604Y-113121546D01*
X112966333Y-113085000D01*
X113153667Y-113085000D01*
X113337396Y-113121546D01*
X113337396Y-113121546D01*
G37*
G36*
X83841981Y-111813468D02*
X84024150Y-111888925D01*
X84188103Y-111998475D01*
X84327525Y-112137897D01*
X84437075Y-112301850D01*
X84512532Y-112484019D01*
X84551000Y-112677410D01*
X84551000Y-112874590D01*
X84512532Y-113067981D01*
X84437075Y-113250150D01*
X84327525Y-113414103D01*
X84188103Y-113553525D01*
X84024150Y-113663075D01*
X83841981Y-113738532D01*
X83648590Y-113777000D01*
X83451410Y-113777000D01*
X83258019Y-113738532D01*
X83075850Y-113663075D01*
X82911897Y-113553525D01*
X82772475Y-113414103D01*
X82662925Y-113250150D01*
X82587468Y-113067981D01*
X82549000Y-112874590D01*
X82549000Y-112677410D01*
X82587468Y-112484019D01*
X82662925Y-112301850D01*
X82772475Y-112137897D01*
X82911897Y-111998475D01*
X83075850Y-111888925D01*
X83258019Y-111813468D01*
X83451410Y-111775000D01*
X83648590Y-111775000D01*
X83841981Y-111813468D01*
X83841981Y-111813468D01*
G37*
G36*
X80031981Y-111813468D02*
X80214150Y-111888925D01*
X80378103Y-111998475D01*
X80517525Y-112137897D01*
X80627075Y-112301850D01*
X80702532Y-112484019D01*
X80741000Y-112677410D01*
X80741000Y-112874590D01*
X80702532Y-113067981D01*
X80627075Y-113250150D01*
X80517525Y-113414103D01*
X80378103Y-113553525D01*
X80214150Y-113663075D01*
X80031981Y-113738532D01*
X79838590Y-113777000D01*
X79641410Y-113777000D01*
X79448019Y-113738532D01*
X79265850Y-113663075D01*
X79101897Y-113553525D01*
X78962475Y-113414103D01*
X78852925Y-113250150D01*
X78777468Y-113067981D01*
X78739000Y-112874590D01*
X78739000Y-112677410D01*
X78777468Y-112484019D01*
X78852925Y-112301850D01*
X78962475Y-112137897D01*
X79101897Y-111998475D01*
X79265850Y-111888925D01*
X79448019Y-111813468D01*
X79641410Y-111775000D01*
X79838590Y-111775000D01*
X80031981Y-111813468D01*
X80031981Y-111813468D01*
G37*
G36*
X106658228Y-111957703D02*
X106813100Y-112021853D01*
X106952481Y-112114985D01*
X107071015Y-112233519D01*
X107164147Y-112372900D01*
X107228297Y-112527772D01*
X107261000Y-112692184D01*
X107261000Y-112859816D01*
X107228297Y-113024228D01*
X107164147Y-113179100D01*
X107071015Y-113318481D01*
X106952481Y-113437015D01*
X106813100Y-113530147D01*
X106658228Y-113594297D01*
X106493816Y-113627000D01*
X106326184Y-113627000D01*
X106161772Y-113594297D01*
X106006900Y-113530147D01*
X105867519Y-113437015D01*
X105748985Y-113318481D01*
X105655853Y-113179100D01*
X105591703Y-113024228D01*
X105559000Y-112859816D01*
X105559000Y-112692184D01*
X105591703Y-112527772D01*
X105655853Y-112372900D01*
X105748985Y-112233519D01*
X105867519Y-112114985D01*
X106006900Y-112021853D01*
X106161772Y-111957703D01*
X106326184Y-111925000D01*
X106493816Y-111925000D01*
X106658228Y-111957703D01*
X106658228Y-111957703D01*
G37*
G36*
X106658228Y-109417703D02*
X106813100Y-109481853D01*
X106952481Y-109574985D01*
X107071015Y-109693519D01*
X107164147Y-109832900D01*
X107228297Y-109987772D01*
X107261000Y-110152184D01*
X107261000Y-110319816D01*
X107228297Y-110484228D01*
X107164147Y-110639100D01*
X107071015Y-110778481D01*
X106952481Y-110897015D01*
X106813100Y-110990147D01*
X106658228Y-111054297D01*
X106493816Y-111087000D01*
X106326184Y-111087000D01*
X106161772Y-111054297D01*
X106006900Y-110990147D01*
X105867519Y-110897015D01*
X105748985Y-110778481D01*
X105655853Y-110639100D01*
X105591703Y-110484228D01*
X105559000Y-110319816D01*
X105559000Y-110152184D01*
X105591703Y-109987772D01*
X105655853Y-109832900D01*
X105748985Y-109693519D01*
X105867519Y-109574985D01*
X106006900Y-109481853D01*
X106161772Y-109417703D01*
X106326184Y-109385000D01*
X106493816Y-109385000D01*
X106658228Y-109417703D01*
X106658228Y-109417703D01*
G37*
G36*
X110348228Y-109217703D02*
X110503100Y-109281853D01*
X110642481Y-109374985D01*
X110761015Y-109493519D01*
X110854147Y-109632900D01*
X110918297Y-109787772D01*
X110951000Y-109952184D01*
X110951000Y-110119816D01*
X110918297Y-110284228D01*
X110854147Y-110439100D01*
X110761015Y-110578481D01*
X110642481Y-110697015D01*
X110503100Y-110790147D01*
X110348228Y-110854297D01*
X110183816Y-110887000D01*
X110016184Y-110887000D01*
X109851772Y-110854297D01*
X109696900Y-110790147D01*
X109557519Y-110697015D01*
X109438985Y-110578481D01*
X109345853Y-110439100D01*
X109281703Y-110284228D01*
X109249000Y-110119816D01*
X109249000Y-109952184D01*
X109281703Y-109787772D01*
X109345853Y-109632900D01*
X109438985Y-109493519D01*
X109557519Y-109374985D01*
X109696900Y-109281853D01*
X109851772Y-109217703D01*
X110016184Y-109185000D01*
X110183816Y-109185000D01*
X110348228Y-109217703D01*
X110348228Y-109217703D01*
G37*
G36*
X116551000Y-108987000D02*
X114649000Y-108987000D01*
X114649000Y-107085000D01*
X116551000Y-107085000D01*
X116551000Y-108987000D01*
X116551000Y-108987000D01*
G37*
G36*
X113337396Y-107121546D02*
X113510466Y-107193234D01*
X113666230Y-107297312D01*
X113798688Y-107429770D01*
X113902766Y-107585534D01*
X113974454Y-107758604D01*
X114011000Y-107942333D01*
X114011000Y-108129667D01*
X113974454Y-108313396D01*
X113902766Y-108486466D01*
X113798688Y-108642230D01*
X113666230Y-108774688D01*
X113510466Y-108878766D01*
X113337396Y-108950454D01*
X113153667Y-108987000D01*
X112966333Y-108987000D01*
X112782604Y-108950454D01*
X112609534Y-108878766D01*
X112453770Y-108774688D01*
X112321312Y-108642230D01*
X112217234Y-108486466D01*
X112145546Y-108313396D01*
X112109000Y-108129667D01*
X112109000Y-107942333D01*
X112145546Y-107758604D01*
X112217234Y-107585534D01*
X112321312Y-107429770D01*
X112453770Y-107297312D01*
X112609534Y-107193234D01*
X112782604Y-107121546D01*
X112966333Y-107085000D01*
X113153667Y-107085000D01*
X113337396Y-107121546D01*
X113337396Y-107121546D01*
G37*
G36*
X76178228Y-106877703D02*
X76333100Y-106941853D01*
X76472481Y-107034985D01*
X76591015Y-107153519D01*
X76684147Y-107292900D01*
X76748297Y-107447772D01*
X76781000Y-107612184D01*
X76781000Y-107779816D01*
X76748297Y-107944228D01*
X76684147Y-108099100D01*
X76591015Y-108238481D01*
X76472481Y-108357015D01*
X76333100Y-108450147D01*
X76178228Y-108514297D01*
X76013816Y-108547000D01*
X75846184Y-108547000D01*
X75681772Y-108514297D01*
X75526900Y-108450147D01*
X75387519Y-108357015D01*
X75268985Y-108238481D01*
X75175853Y-108099100D01*
X75111703Y-107944228D01*
X75079000Y-107779816D01*
X75079000Y-107612184D01*
X75111703Y-107447772D01*
X75175853Y-107292900D01*
X75268985Y-107153519D01*
X75387519Y-107034985D01*
X75526900Y-106941853D01*
X75681772Y-106877703D01*
X75846184Y-106845000D01*
X76013816Y-106845000D01*
X76178228Y-106877703D01*
X76178228Y-106877703D01*
G37*
G36*
X81258228Y-106877703D02*
X81413100Y-106941853D01*
X81552481Y-107034985D01*
X81671015Y-107153519D01*
X81764147Y-107292900D01*
X81828297Y-107447772D01*
X81861000Y-107612184D01*
X81861000Y-107779816D01*
X81828297Y-107944228D01*
X81764147Y-108099100D01*
X81671015Y-108238481D01*
X81552481Y-108357015D01*
X81413100Y-108450147D01*
X81258228Y-108514297D01*
X81093816Y-108547000D01*
X80926184Y-108547000D01*
X80761772Y-108514297D01*
X80606900Y-108450147D01*
X80467519Y-108357015D01*
X80348985Y-108238481D01*
X80255853Y-108099100D01*
X80191703Y-107944228D01*
X80159000Y-107779816D01*
X80159000Y-107612184D01*
X80191703Y-107447772D01*
X80255853Y-107292900D01*
X80348985Y-107153519D01*
X80467519Y-107034985D01*
X80606900Y-106941853D01*
X80761772Y-106877703D01*
X80926184Y-106845000D01*
X81093816Y-106845000D01*
X81258228Y-106877703D01*
X81258228Y-106877703D01*
G37*
G36*
X83798228Y-106877703D02*
X83953100Y-106941853D01*
X84092481Y-107034985D01*
X84211015Y-107153519D01*
X84304147Y-107292900D01*
X84368297Y-107447772D01*
X84401000Y-107612184D01*
X84401000Y-107779816D01*
X84368297Y-107944228D01*
X84304147Y-108099100D01*
X84211015Y-108238481D01*
X84092481Y-108357015D01*
X83953100Y-108450147D01*
X83798228Y-108514297D01*
X83633816Y-108547000D01*
X83466184Y-108547000D01*
X83301772Y-108514297D01*
X83146900Y-108450147D01*
X83007519Y-108357015D01*
X82888985Y-108238481D01*
X82795853Y-108099100D01*
X82731703Y-107944228D01*
X82699000Y-107779816D01*
X82699000Y-107612184D01*
X82731703Y-107447772D01*
X82795853Y-107292900D01*
X82888985Y-107153519D01*
X83007519Y-107034985D01*
X83146900Y-106941853D01*
X83301772Y-106877703D01*
X83466184Y-106845000D01*
X83633816Y-106845000D01*
X83798228Y-106877703D01*
X83798228Y-106877703D01*
G37*
G36*
X86338228Y-106877703D02*
X86493100Y-106941853D01*
X86632481Y-107034985D01*
X86751015Y-107153519D01*
X86844147Y-107292900D01*
X86908297Y-107447772D01*
X86941000Y-107612184D01*
X86941000Y-107779816D01*
X86908297Y-107944228D01*
X86844147Y-108099100D01*
X86751015Y-108238481D01*
X86632481Y-108357015D01*
X86493100Y-108450147D01*
X86338228Y-108514297D01*
X86173816Y-108547000D01*
X86006184Y-108547000D01*
X85841772Y-108514297D01*
X85686900Y-108450147D01*
X85547519Y-108357015D01*
X85428985Y-108238481D01*
X85335853Y-108099100D01*
X85271703Y-107944228D01*
X85239000Y-107779816D01*
X85239000Y-107612184D01*
X85271703Y-107447772D01*
X85335853Y-107292900D01*
X85428985Y-107153519D01*
X85547519Y-107034985D01*
X85686900Y-106941853D01*
X85841772Y-106877703D01*
X86006184Y-106845000D01*
X86173816Y-106845000D01*
X86338228Y-106877703D01*
X86338228Y-106877703D01*
G37*
G36*
X106658228Y-106877703D02*
X106813100Y-106941853D01*
X106952481Y-107034985D01*
X107071015Y-107153519D01*
X107164147Y-107292900D01*
X107228297Y-107447772D01*
X107261000Y-107612184D01*
X107261000Y-107779816D01*
X107228297Y-107944228D01*
X107164147Y-108099100D01*
X107071015Y-108238481D01*
X106952481Y-108357015D01*
X106813100Y-108450147D01*
X106658228Y-108514297D01*
X106493816Y-108547000D01*
X106326184Y-108547000D01*
X106161772Y-108514297D01*
X106006900Y-108450147D01*
X105867519Y-108357015D01*
X105748985Y-108238481D01*
X105655853Y-108099100D01*
X105591703Y-107944228D01*
X105559000Y-107779816D01*
X105559000Y-107612184D01*
X105591703Y-107447772D01*
X105655853Y-107292900D01*
X105748985Y-107153519D01*
X105867519Y-107034985D01*
X106006900Y-106941853D01*
X106161772Y-106877703D01*
X106326184Y-106845000D01*
X106493816Y-106845000D01*
X106658228Y-106877703D01*
X106658228Y-106877703D01*
G37*
G36*
X110266821Y-106567313D02*
X110266824Y-106567314D01*
X110266825Y-106567314D01*
X110427239Y-106615975D01*
X110427241Y-106615976D01*
X110427244Y-106615977D01*
X110575078Y-106694995D01*
X110704659Y-106801341D01*
X110811005Y-106930922D01*
X110890023Y-107078756D01*
X110890024Y-107078759D01*
X110890025Y-107078761D01*
X110924750Y-107193234D01*
X110938687Y-107239179D01*
X110955117Y-107406000D01*
X110938687Y-107572821D01*
X110938686Y-107572824D01*
X110938686Y-107572825D01*
X110926747Y-107612184D01*
X110890023Y-107733244D01*
X110811005Y-107881078D01*
X110704659Y-108010659D01*
X110575078Y-108117005D01*
X110427244Y-108196023D01*
X110427241Y-108196024D01*
X110427239Y-108196025D01*
X110266825Y-108244686D01*
X110266824Y-108244686D01*
X110266821Y-108244687D01*
X110141804Y-108257000D01*
X110058196Y-108257000D01*
X109933179Y-108244687D01*
X109933176Y-108244686D01*
X109933175Y-108244686D01*
X109772761Y-108196025D01*
X109772759Y-108196024D01*
X109772756Y-108196023D01*
X109624922Y-108117005D01*
X109495341Y-108010659D01*
X109388995Y-107881078D01*
X109309977Y-107733244D01*
X109273254Y-107612184D01*
X109261314Y-107572825D01*
X109261314Y-107572824D01*
X109261313Y-107572821D01*
X109244883Y-107406000D01*
X109261313Y-107239179D01*
X109275250Y-107193234D01*
X109309975Y-107078761D01*
X109309976Y-107078759D01*
X109309977Y-107078756D01*
X109388995Y-106930922D01*
X109495341Y-106801341D01*
X109624922Y-106694995D01*
X109772756Y-106615977D01*
X109772759Y-106615976D01*
X109772761Y-106615975D01*
X109933175Y-106567314D01*
X109933176Y-106567314D01*
X109933179Y-106567313D01*
X110058196Y-106555000D01*
X110141804Y-106555000D01*
X110266821Y-106567313D01*
X110266821Y-106567313D01*
G37*
G36*
X101578228Y-104337703D02*
X101733100Y-104401853D01*
X101872481Y-104494985D01*
X101991015Y-104613519D01*
X102084147Y-104752900D01*
X102148297Y-104907772D01*
X102181000Y-105072184D01*
X102181000Y-105239816D01*
X102148297Y-105404228D01*
X102084147Y-105559100D01*
X101991015Y-105698481D01*
X101872481Y-105817015D01*
X101733100Y-105910147D01*
X101578228Y-105974297D01*
X101413816Y-106007000D01*
X101246184Y-106007000D01*
X101081772Y-105974297D01*
X100926900Y-105910147D01*
X100787519Y-105817015D01*
X100668985Y-105698481D01*
X100575853Y-105559100D01*
X100511703Y-105404228D01*
X100479000Y-105239816D01*
X100479000Y-105072184D01*
X100511703Y-104907772D01*
X100575853Y-104752900D01*
X100668985Y-104613519D01*
X100787519Y-104494985D01*
X100926900Y-104401853D01*
X101081772Y-104337703D01*
X101246184Y-104305000D01*
X101413816Y-104305000D01*
X101578228Y-104337703D01*
X101578228Y-104337703D01*
G37*
G36*
X104118228Y-104337703D02*
X104273100Y-104401853D01*
X104412481Y-104494985D01*
X104531015Y-104613519D01*
X104624147Y-104752900D01*
X104688297Y-104907772D01*
X104721000Y-105072184D01*
X104721000Y-105239816D01*
X104688297Y-105404228D01*
X104624147Y-105559100D01*
X104531015Y-105698481D01*
X104412481Y-105817015D01*
X104273100Y-105910147D01*
X104118228Y-105974297D01*
X103953816Y-106007000D01*
X103786184Y-106007000D01*
X103621772Y-105974297D01*
X103466900Y-105910147D01*
X103327519Y-105817015D01*
X103208985Y-105698481D01*
X103115853Y-105559100D01*
X103051703Y-105404228D01*
X103019000Y-105239816D01*
X103019000Y-105072184D01*
X103051703Y-104907772D01*
X103115853Y-104752900D01*
X103208985Y-104613519D01*
X103327519Y-104494985D01*
X103466900Y-104401853D01*
X103621772Y-104337703D01*
X103786184Y-104305000D01*
X103953816Y-104305000D01*
X104118228Y-104337703D01*
X104118228Y-104337703D01*
G37*
G36*
X76178228Y-104337703D02*
X76333100Y-104401853D01*
X76472481Y-104494985D01*
X76591015Y-104613519D01*
X76684147Y-104752900D01*
X76748297Y-104907772D01*
X76781000Y-105072184D01*
X76781000Y-105239816D01*
X76748297Y-105404228D01*
X76684147Y-105559100D01*
X76591015Y-105698481D01*
X76472481Y-105817015D01*
X76333100Y-105910147D01*
X76178228Y-105974297D01*
X76013816Y-106007000D01*
X75846184Y-106007000D01*
X75681772Y-105974297D01*
X75526900Y-105910147D01*
X75387519Y-105817015D01*
X75268985Y-105698481D01*
X75175853Y-105559100D01*
X75111703Y-105404228D01*
X75079000Y-105239816D01*
X75079000Y-105072184D01*
X75111703Y-104907772D01*
X75175853Y-104752900D01*
X75268985Y-104613519D01*
X75387519Y-104494985D01*
X75526900Y-104401853D01*
X75681772Y-104337703D01*
X75846184Y-104305000D01*
X76013816Y-104305000D01*
X76178228Y-104337703D01*
X76178228Y-104337703D01*
G37*
G36*
X78718228Y-104337703D02*
X78873100Y-104401853D01*
X79012481Y-104494985D01*
X79131015Y-104613519D01*
X79224147Y-104752900D01*
X79288297Y-104907772D01*
X79321000Y-105072184D01*
X79321000Y-105239816D01*
X79288297Y-105404228D01*
X79224147Y-105559100D01*
X79131015Y-105698481D01*
X79012481Y-105817015D01*
X78873100Y-105910147D01*
X78718228Y-105974297D01*
X78553816Y-106007000D01*
X78386184Y-106007000D01*
X78221772Y-105974297D01*
X78066900Y-105910147D01*
X77927519Y-105817015D01*
X77808985Y-105698481D01*
X77715853Y-105559100D01*
X77651703Y-105404228D01*
X77619000Y-105239816D01*
X77619000Y-105072184D01*
X77651703Y-104907772D01*
X77715853Y-104752900D01*
X77808985Y-104613519D01*
X77927519Y-104494985D01*
X78066900Y-104401853D01*
X78221772Y-104337703D01*
X78386184Y-104305000D01*
X78553816Y-104305000D01*
X78718228Y-104337703D01*
X78718228Y-104337703D01*
G37*
G36*
X81258228Y-104337703D02*
X81413100Y-104401853D01*
X81552481Y-104494985D01*
X81671015Y-104613519D01*
X81764147Y-104752900D01*
X81828297Y-104907772D01*
X81861000Y-105072184D01*
X81861000Y-105239816D01*
X81828297Y-105404228D01*
X81764147Y-105559100D01*
X81671015Y-105698481D01*
X81552481Y-105817015D01*
X81413100Y-105910147D01*
X81258228Y-105974297D01*
X81093816Y-106007000D01*
X80926184Y-106007000D01*
X80761772Y-105974297D01*
X80606900Y-105910147D01*
X80467519Y-105817015D01*
X80348985Y-105698481D01*
X80255853Y-105559100D01*
X80191703Y-105404228D01*
X80159000Y-105239816D01*
X80159000Y-105072184D01*
X80191703Y-104907772D01*
X80255853Y-104752900D01*
X80348985Y-104613519D01*
X80467519Y-104494985D01*
X80606900Y-104401853D01*
X80761772Y-104337703D01*
X80926184Y-104305000D01*
X81093816Y-104305000D01*
X81258228Y-104337703D01*
X81258228Y-104337703D01*
G37*
G36*
X83798228Y-104337703D02*
X83953100Y-104401853D01*
X84092481Y-104494985D01*
X84211015Y-104613519D01*
X84304147Y-104752900D01*
X84368297Y-104907772D01*
X84401000Y-105072184D01*
X84401000Y-105239816D01*
X84368297Y-105404228D01*
X84304147Y-105559100D01*
X84211015Y-105698481D01*
X84092481Y-105817015D01*
X83953100Y-105910147D01*
X83798228Y-105974297D01*
X83633816Y-106007000D01*
X83466184Y-106007000D01*
X83301772Y-105974297D01*
X83146900Y-105910147D01*
X83007519Y-105817015D01*
X82888985Y-105698481D01*
X82795853Y-105559100D01*
X82731703Y-105404228D01*
X82699000Y-105239816D01*
X82699000Y-105072184D01*
X82731703Y-104907772D01*
X82795853Y-104752900D01*
X82888985Y-104613519D01*
X83007519Y-104494985D01*
X83146900Y-104401853D01*
X83301772Y-104337703D01*
X83466184Y-104305000D01*
X83633816Y-104305000D01*
X83798228Y-104337703D01*
X83798228Y-104337703D01*
G37*
G36*
X88878228Y-104337703D02*
X89033100Y-104401853D01*
X89172481Y-104494985D01*
X89291015Y-104613519D01*
X89384147Y-104752900D01*
X89448297Y-104907772D01*
X89481000Y-105072184D01*
X89481000Y-105239816D01*
X89448297Y-105404228D01*
X89384147Y-105559100D01*
X89291015Y-105698481D01*
X89172481Y-105817015D01*
X89033100Y-105910147D01*
X88878228Y-105974297D01*
X88713816Y-106007000D01*
X88546184Y-106007000D01*
X88381772Y-105974297D01*
X88226900Y-105910147D01*
X88087519Y-105817015D01*
X87968985Y-105698481D01*
X87875853Y-105559100D01*
X87811703Y-105404228D01*
X87779000Y-105239816D01*
X87779000Y-105072184D01*
X87811703Y-104907772D01*
X87875853Y-104752900D01*
X87968985Y-104613519D01*
X88087519Y-104494985D01*
X88226900Y-104401853D01*
X88381772Y-104337703D01*
X88546184Y-104305000D01*
X88713816Y-104305000D01*
X88878228Y-104337703D01*
X88878228Y-104337703D01*
G37*
G36*
X91418228Y-104337703D02*
X91573100Y-104401853D01*
X91712481Y-104494985D01*
X91831015Y-104613519D01*
X91924147Y-104752900D01*
X91988297Y-104907772D01*
X92021000Y-105072184D01*
X92021000Y-105239816D01*
X91988297Y-105404228D01*
X91924147Y-105559100D01*
X91831015Y-105698481D01*
X91712481Y-105817015D01*
X91573100Y-105910147D01*
X91418228Y-105974297D01*
X91253816Y-106007000D01*
X91086184Y-106007000D01*
X90921772Y-105974297D01*
X90766900Y-105910147D01*
X90627519Y-105817015D01*
X90508985Y-105698481D01*
X90415853Y-105559100D01*
X90351703Y-105404228D01*
X90319000Y-105239816D01*
X90319000Y-105072184D01*
X90351703Y-104907772D01*
X90415853Y-104752900D01*
X90508985Y-104613519D01*
X90627519Y-104494985D01*
X90766900Y-104401853D01*
X90921772Y-104337703D01*
X91086184Y-104305000D01*
X91253816Y-104305000D01*
X91418228Y-104337703D01*
X91418228Y-104337703D01*
G37*
G36*
X93958228Y-104337703D02*
X94113100Y-104401853D01*
X94252481Y-104494985D01*
X94371015Y-104613519D01*
X94464147Y-104752900D01*
X94528297Y-104907772D01*
X94561000Y-105072184D01*
X94561000Y-105239816D01*
X94528297Y-105404228D01*
X94464147Y-105559100D01*
X94371015Y-105698481D01*
X94252481Y-105817015D01*
X94113100Y-105910147D01*
X93958228Y-105974297D01*
X93793816Y-106007000D01*
X93626184Y-106007000D01*
X93461772Y-105974297D01*
X93306900Y-105910147D01*
X93167519Y-105817015D01*
X93048985Y-105698481D01*
X92955853Y-105559100D01*
X92891703Y-105404228D01*
X92859000Y-105239816D01*
X92859000Y-105072184D01*
X92891703Y-104907772D01*
X92955853Y-104752900D01*
X93048985Y-104613519D01*
X93167519Y-104494985D01*
X93306900Y-104401853D01*
X93461772Y-104337703D01*
X93626184Y-104305000D01*
X93793816Y-104305000D01*
X93958228Y-104337703D01*
X93958228Y-104337703D01*
G37*
G36*
X96498228Y-104337703D02*
X96653100Y-104401853D01*
X96792481Y-104494985D01*
X96911015Y-104613519D01*
X97004147Y-104752900D01*
X97068297Y-104907772D01*
X97101000Y-105072184D01*
X97101000Y-105239816D01*
X97068297Y-105404228D01*
X97004147Y-105559100D01*
X96911015Y-105698481D01*
X96792481Y-105817015D01*
X96653100Y-105910147D01*
X96498228Y-105974297D01*
X96333816Y-106007000D01*
X96166184Y-106007000D01*
X96001772Y-105974297D01*
X95846900Y-105910147D01*
X95707519Y-105817015D01*
X95588985Y-105698481D01*
X95495853Y-105559100D01*
X95431703Y-105404228D01*
X95399000Y-105239816D01*
X95399000Y-105072184D01*
X95431703Y-104907772D01*
X95495853Y-104752900D01*
X95588985Y-104613519D01*
X95707519Y-104494985D01*
X95846900Y-104401853D01*
X96001772Y-104337703D01*
X96166184Y-104305000D01*
X96333816Y-104305000D01*
X96498228Y-104337703D01*
X96498228Y-104337703D01*
G37*
G36*
X99038228Y-104337703D02*
X99193100Y-104401853D01*
X99332481Y-104494985D01*
X99451015Y-104613519D01*
X99544147Y-104752900D01*
X99608297Y-104907772D01*
X99641000Y-105072184D01*
X99641000Y-105239816D01*
X99608297Y-105404228D01*
X99544147Y-105559100D01*
X99451015Y-105698481D01*
X99332481Y-105817015D01*
X99193100Y-105910147D01*
X99038228Y-105974297D01*
X98873816Y-106007000D01*
X98706184Y-106007000D01*
X98541772Y-105974297D01*
X98386900Y-105910147D01*
X98247519Y-105817015D01*
X98128985Y-105698481D01*
X98035853Y-105559100D01*
X97971703Y-105404228D01*
X97939000Y-105239816D01*
X97939000Y-105072184D01*
X97971703Y-104907772D01*
X98035853Y-104752900D01*
X98128985Y-104613519D01*
X98247519Y-104494985D01*
X98386900Y-104401853D01*
X98541772Y-104337703D01*
X98706184Y-104305000D01*
X98873816Y-104305000D01*
X99038228Y-104337703D01*
X99038228Y-104337703D01*
G37*
G36*
X73638228Y-104337703D02*
X73793100Y-104401853D01*
X73932481Y-104494985D01*
X74051015Y-104613519D01*
X74144147Y-104752900D01*
X74208297Y-104907772D01*
X74241000Y-105072184D01*
X74241000Y-105239816D01*
X74208297Y-105404228D01*
X74144147Y-105559100D01*
X74051015Y-105698481D01*
X73932481Y-105817015D01*
X73793100Y-105910147D01*
X73638228Y-105974297D01*
X73473816Y-106007000D01*
X73306184Y-106007000D01*
X73141772Y-105974297D01*
X72986900Y-105910147D01*
X72847519Y-105817015D01*
X72728985Y-105698481D01*
X72635853Y-105559100D01*
X72571703Y-105404228D01*
X72539000Y-105239816D01*
X72539000Y-105072184D01*
X72571703Y-104907772D01*
X72635853Y-104752900D01*
X72728985Y-104613519D01*
X72847519Y-104494985D01*
X72986900Y-104401853D01*
X73141772Y-104337703D01*
X73306184Y-104305000D01*
X73473816Y-104305000D01*
X73638228Y-104337703D01*
X73638228Y-104337703D01*
G37*
G36*
X106658228Y-104337703D02*
X106813100Y-104401853D01*
X106952481Y-104494985D01*
X107071015Y-104613519D01*
X107164147Y-104752900D01*
X107228297Y-104907772D01*
X107261000Y-105072184D01*
X107261000Y-105239816D01*
X107228297Y-105404228D01*
X107164147Y-105559100D01*
X107071015Y-105698481D01*
X106952481Y-105817015D01*
X106813100Y-105910147D01*
X106658228Y-105974297D01*
X106493816Y-106007000D01*
X106326184Y-106007000D01*
X106161772Y-105974297D01*
X106006900Y-105910147D01*
X105867519Y-105817015D01*
X105748985Y-105698481D01*
X105655853Y-105559100D01*
X105591703Y-105404228D01*
X105559000Y-105239816D01*
X105559000Y-105072184D01*
X105591703Y-104907772D01*
X105655853Y-104752900D01*
X105748985Y-104613519D01*
X105867519Y-104494985D01*
X106006900Y-104401853D01*
X106161772Y-104337703D01*
X106326184Y-104305000D01*
X106493816Y-104305000D01*
X106658228Y-104337703D01*
X106658228Y-104337703D01*
G37*
G36*
X86338228Y-104337703D02*
X86493100Y-104401853D01*
X86632481Y-104494985D01*
X86751015Y-104613519D01*
X86844147Y-104752900D01*
X86908297Y-104907772D01*
X86941000Y-105072184D01*
X86941000Y-105239816D01*
X86908297Y-105404228D01*
X86844147Y-105559100D01*
X86751015Y-105698481D01*
X86632481Y-105817015D01*
X86493100Y-105910147D01*
X86338228Y-105974297D01*
X86173816Y-106007000D01*
X86006184Y-106007000D01*
X85841772Y-105974297D01*
X85686900Y-105910147D01*
X85547519Y-105817015D01*
X85428985Y-105698481D01*
X85335853Y-105559100D01*
X85271703Y-105404228D01*
X85239000Y-105239816D01*
X85239000Y-105072184D01*
X85271703Y-104907772D01*
X85335853Y-104752900D01*
X85428985Y-104613519D01*
X85547519Y-104494985D01*
X85686900Y-104401853D01*
X85841772Y-104337703D01*
X86006184Y-104305000D01*
X86173816Y-104305000D01*
X86338228Y-104337703D01*
X86338228Y-104337703D01*
G37*
G36*
X113337396Y-101121546D02*
X113510466Y-101193234D01*
X113666230Y-101297312D01*
X113798688Y-101429770D01*
X113902766Y-101585534D01*
X113974454Y-101758604D01*
X114011000Y-101942333D01*
X114011000Y-102129667D01*
X113974454Y-102313396D01*
X113902766Y-102486466D01*
X113798688Y-102642230D01*
X113666230Y-102774688D01*
X113510466Y-102878766D01*
X113337396Y-102950454D01*
X113153667Y-102987000D01*
X112966333Y-102987000D01*
X112782604Y-102950454D01*
X112609534Y-102878766D01*
X112453770Y-102774688D01*
X112321312Y-102642230D01*
X112217234Y-102486466D01*
X112145546Y-102313396D01*
X112109000Y-102129667D01*
X112109000Y-101942333D01*
X112145546Y-101758604D01*
X112217234Y-101585534D01*
X112321312Y-101429770D01*
X112453770Y-101297312D01*
X112609534Y-101193234D01*
X112782604Y-101121546D01*
X112966333Y-101085000D01*
X113153667Y-101085000D01*
X113337396Y-101121546D01*
X113337396Y-101121546D01*
G37*
G36*
X116551000Y-102987000D02*
X114649000Y-102987000D01*
X114649000Y-101085000D01*
X116551000Y-101085000D01*
X116551000Y-102987000D01*
X116551000Y-102987000D01*
G37*
G36*
X101440442Y-99181518D02*
X101506627Y-99188037D01*
X101619853Y-99222384D01*
X101676467Y-99239557D01*
X101815087Y-99313652D01*
X101832991Y-99323222D01*
X101868729Y-99352552D01*
X101970186Y-99435814D01*
X102053448Y-99537271D01*
X102082778Y-99573009D01*
X102082779Y-99573011D01*
X102166443Y-99729533D01*
X102166443Y-99729534D01*
X102217963Y-99899373D01*
X102235359Y-100076000D01*
X102217963Y-100252627D01*
X102194953Y-100328481D01*
X102166443Y-100422467D01*
X102103541Y-100540146D01*
X102082778Y-100578991D01*
X102062010Y-100604297D01*
X101970186Y-100716186D01*
X101868729Y-100799448D01*
X101832991Y-100828778D01*
X101832989Y-100828779D01*
X101676467Y-100912443D01*
X101619853Y-100929616D01*
X101506627Y-100963963D01*
X101440442Y-100970482D01*
X101374260Y-100977000D01*
X101285740Y-100977000D01*
X101219558Y-100970482D01*
X101153373Y-100963963D01*
X101040147Y-100929616D01*
X100983533Y-100912443D01*
X100827011Y-100828779D01*
X100827009Y-100828778D01*
X100791271Y-100799448D01*
X100689814Y-100716186D01*
X100597990Y-100604297D01*
X100577222Y-100578991D01*
X100556459Y-100540146D01*
X100493557Y-100422467D01*
X100465047Y-100328481D01*
X100442037Y-100252627D01*
X100424641Y-100076000D01*
X100442037Y-99899373D01*
X100493557Y-99729534D01*
X100493557Y-99729533D01*
X100577221Y-99573011D01*
X100577222Y-99573009D01*
X100606552Y-99537271D01*
X100689814Y-99435814D01*
X100791271Y-99352552D01*
X100827009Y-99323222D01*
X100844913Y-99313652D01*
X100983533Y-99239557D01*
X101040147Y-99222384D01*
X101153373Y-99188037D01*
X101219558Y-99181518D01*
X101285740Y-99175000D01*
X101374260Y-99175000D01*
X101440442Y-99181518D01*
X101440442Y-99181518D01*
G37*
G36*
X103980442Y-99181518D02*
X104046627Y-99188037D01*
X104159853Y-99222384D01*
X104216467Y-99239557D01*
X104355087Y-99313652D01*
X104372991Y-99323222D01*
X104408729Y-99352552D01*
X104510186Y-99435814D01*
X104593448Y-99537271D01*
X104622778Y-99573009D01*
X104622779Y-99573011D01*
X104706443Y-99729533D01*
X104706443Y-99729534D01*
X104757963Y-99899373D01*
X104775359Y-100076000D01*
X104757963Y-100252627D01*
X104734953Y-100328481D01*
X104706443Y-100422467D01*
X104643541Y-100540146D01*
X104622778Y-100578991D01*
X104602010Y-100604297D01*
X104510186Y-100716186D01*
X104408729Y-100799448D01*
X104372991Y-100828778D01*
X104372989Y-100828779D01*
X104216467Y-100912443D01*
X104159853Y-100929616D01*
X104046627Y-100963963D01*
X103980442Y-100970482D01*
X103914260Y-100977000D01*
X103825740Y-100977000D01*
X103759558Y-100970482D01*
X103693373Y-100963963D01*
X103580147Y-100929616D01*
X103523533Y-100912443D01*
X103367011Y-100828779D01*
X103367009Y-100828778D01*
X103331271Y-100799448D01*
X103229814Y-100716186D01*
X103137990Y-100604297D01*
X103117222Y-100578991D01*
X103096459Y-100540146D01*
X103033557Y-100422467D01*
X103005047Y-100328481D01*
X102982037Y-100252627D01*
X102964641Y-100076000D01*
X102982037Y-99899373D01*
X103033557Y-99729534D01*
X103033557Y-99729533D01*
X103117221Y-99573011D01*
X103117222Y-99573009D01*
X103146552Y-99537271D01*
X103229814Y-99435814D01*
X103331271Y-99352552D01*
X103367009Y-99323222D01*
X103384913Y-99313652D01*
X103523533Y-99239557D01*
X103580147Y-99222384D01*
X103693373Y-99188037D01*
X103759558Y-99181518D01*
X103825740Y-99175000D01*
X103914260Y-99175000D01*
X103980442Y-99181518D01*
X103980442Y-99181518D01*
G37*
G36*
X98900442Y-99181518D02*
X98966627Y-99188037D01*
X99079853Y-99222384D01*
X99136467Y-99239557D01*
X99275087Y-99313652D01*
X99292991Y-99323222D01*
X99328729Y-99352552D01*
X99430186Y-99435814D01*
X99513448Y-99537271D01*
X99542778Y-99573009D01*
X99542779Y-99573011D01*
X99626443Y-99729533D01*
X99626443Y-99729534D01*
X99677963Y-99899373D01*
X99695359Y-100076000D01*
X99677963Y-100252627D01*
X99654953Y-100328481D01*
X99626443Y-100422467D01*
X99563541Y-100540146D01*
X99542778Y-100578991D01*
X99522010Y-100604297D01*
X99430186Y-100716186D01*
X99328729Y-100799448D01*
X99292991Y-100828778D01*
X99292989Y-100828779D01*
X99136467Y-100912443D01*
X99079853Y-100929616D01*
X98966627Y-100963963D01*
X98900442Y-100970482D01*
X98834260Y-100977000D01*
X98745740Y-100977000D01*
X98679558Y-100970482D01*
X98613373Y-100963963D01*
X98500147Y-100929616D01*
X98443533Y-100912443D01*
X98287011Y-100828779D01*
X98287009Y-100828778D01*
X98251271Y-100799448D01*
X98149814Y-100716186D01*
X98057990Y-100604297D01*
X98037222Y-100578991D01*
X98016459Y-100540146D01*
X97953557Y-100422467D01*
X97925047Y-100328481D01*
X97902037Y-100252627D01*
X97884641Y-100076000D01*
X97902037Y-99899373D01*
X97953557Y-99729534D01*
X97953557Y-99729533D01*
X98037221Y-99573011D01*
X98037222Y-99573009D01*
X98066552Y-99537271D01*
X98149814Y-99435814D01*
X98251271Y-99352552D01*
X98287009Y-99323222D01*
X98304913Y-99313652D01*
X98443533Y-99239557D01*
X98500147Y-99222384D01*
X98613373Y-99188037D01*
X98679558Y-99181518D01*
X98745740Y-99175000D01*
X98834260Y-99175000D01*
X98900442Y-99181518D01*
X98900442Y-99181518D01*
G37*
G36*
X96360442Y-99181518D02*
X96426627Y-99188037D01*
X96539853Y-99222384D01*
X96596467Y-99239557D01*
X96735087Y-99313652D01*
X96752991Y-99323222D01*
X96788729Y-99352552D01*
X96890186Y-99435814D01*
X96973448Y-99537271D01*
X97002778Y-99573009D01*
X97002779Y-99573011D01*
X97086443Y-99729533D01*
X97086443Y-99729534D01*
X97137963Y-99899373D01*
X97155359Y-100076000D01*
X97137963Y-100252627D01*
X97114953Y-100328481D01*
X97086443Y-100422467D01*
X97023541Y-100540146D01*
X97002778Y-100578991D01*
X96982010Y-100604297D01*
X96890186Y-100716186D01*
X96788729Y-100799448D01*
X96752991Y-100828778D01*
X96752989Y-100828779D01*
X96596467Y-100912443D01*
X96539853Y-100929616D01*
X96426627Y-100963963D01*
X96360442Y-100970482D01*
X96294260Y-100977000D01*
X96205740Y-100977000D01*
X96139558Y-100970482D01*
X96073373Y-100963963D01*
X95960147Y-100929616D01*
X95903533Y-100912443D01*
X95747011Y-100828779D01*
X95747009Y-100828778D01*
X95711271Y-100799448D01*
X95609814Y-100716186D01*
X95517990Y-100604297D01*
X95497222Y-100578991D01*
X95476459Y-100540146D01*
X95413557Y-100422467D01*
X95385047Y-100328481D01*
X95362037Y-100252627D01*
X95344641Y-100076000D01*
X95362037Y-99899373D01*
X95413557Y-99729534D01*
X95413557Y-99729533D01*
X95497221Y-99573011D01*
X95497222Y-99573009D01*
X95526552Y-99537271D01*
X95609814Y-99435814D01*
X95711271Y-99352552D01*
X95747009Y-99323222D01*
X95764913Y-99313652D01*
X95903533Y-99239557D01*
X95960147Y-99222384D01*
X96073373Y-99188037D01*
X96139558Y-99181518D01*
X96205740Y-99175000D01*
X96294260Y-99175000D01*
X96360442Y-99181518D01*
X96360442Y-99181518D01*
G37*
G36*
X93820442Y-99181518D02*
X93886627Y-99188037D01*
X93999853Y-99222384D01*
X94056467Y-99239557D01*
X94195087Y-99313652D01*
X94212991Y-99323222D01*
X94248729Y-99352552D01*
X94350186Y-99435814D01*
X94433448Y-99537271D01*
X94462778Y-99573009D01*
X94462779Y-99573011D01*
X94546443Y-99729533D01*
X94546443Y-99729534D01*
X94597963Y-99899373D01*
X94615359Y-100076000D01*
X94597963Y-100252627D01*
X94574953Y-100328481D01*
X94546443Y-100422467D01*
X94483541Y-100540146D01*
X94462778Y-100578991D01*
X94442010Y-100604297D01*
X94350186Y-100716186D01*
X94248729Y-100799448D01*
X94212991Y-100828778D01*
X94212989Y-100828779D01*
X94056467Y-100912443D01*
X93999853Y-100929616D01*
X93886627Y-100963963D01*
X93820442Y-100970482D01*
X93754260Y-100977000D01*
X93665740Y-100977000D01*
X93599558Y-100970482D01*
X93533373Y-100963963D01*
X93420147Y-100929616D01*
X93363533Y-100912443D01*
X93207011Y-100828779D01*
X93207009Y-100828778D01*
X93171271Y-100799448D01*
X93069814Y-100716186D01*
X92977990Y-100604297D01*
X92957222Y-100578991D01*
X92936459Y-100540146D01*
X92873557Y-100422467D01*
X92845047Y-100328481D01*
X92822037Y-100252627D01*
X92804641Y-100076000D01*
X92822037Y-99899373D01*
X92873557Y-99729534D01*
X92873557Y-99729533D01*
X92957221Y-99573011D01*
X92957222Y-99573009D01*
X92986552Y-99537271D01*
X93069814Y-99435814D01*
X93171271Y-99352552D01*
X93207009Y-99323222D01*
X93224913Y-99313652D01*
X93363533Y-99239557D01*
X93420147Y-99222384D01*
X93533373Y-99188037D01*
X93599558Y-99181518D01*
X93665740Y-99175000D01*
X93754260Y-99175000D01*
X93820442Y-99181518D01*
X93820442Y-99181518D01*
G37*
G36*
X91280442Y-99181518D02*
X91346627Y-99188037D01*
X91459853Y-99222384D01*
X91516467Y-99239557D01*
X91655087Y-99313652D01*
X91672991Y-99323222D01*
X91708729Y-99352552D01*
X91810186Y-99435814D01*
X91893448Y-99537271D01*
X91922778Y-99573009D01*
X91922779Y-99573011D01*
X92006443Y-99729533D01*
X92006443Y-99729534D01*
X92057963Y-99899373D01*
X92075359Y-100076000D01*
X92057963Y-100252627D01*
X92034953Y-100328481D01*
X92006443Y-100422467D01*
X91943541Y-100540146D01*
X91922778Y-100578991D01*
X91902010Y-100604297D01*
X91810186Y-100716186D01*
X91708729Y-100799448D01*
X91672991Y-100828778D01*
X91672989Y-100828779D01*
X91516467Y-100912443D01*
X91459853Y-100929616D01*
X91346627Y-100963963D01*
X91280442Y-100970482D01*
X91214260Y-100977000D01*
X91125740Y-100977000D01*
X91059558Y-100970482D01*
X90993373Y-100963963D01*
X90880147Y-100929616D01*
X90823533Y-100912443D01*
X90667011Y-100828779D01*
X90667009Y-100828778D01*
X90631271Y-100799448D01*
X90529814Y-100716186D01*
X90437990Y-100604297D01*
X90417222Y-100578991D01*
X90396459Y-100540146D01*
X90333557Y-100422467D01*
X90305047Y-100328481D01*
X90282037Y-100252627D01*
X90264641Y-100076000D01*
X90282037Y-99899373D01*
X90333557Y-99729534D01*
X90333557Y-99729533D01*
X90417221Y-99573011D01*
X90417222Y-99573009D01*
X90446552Y-99537271D01*
X90529814Y-99435814D01*
X90631271Y-99352552D01*
X90667009Y-99323222D01*
X90684913Y-99313652D01*
X90823533Y-99239557D01*
X90880147Y-99222384D01*
X90993373Y-99188037D01*
X91059558Y-99181518D01*
X91125740Y-99175000D01*
X91214260Y-99175000D01*
X91280442Y-99181518D01*
X91280442Y-99181518D01*
G37*
G36*
X88740442Y-99181518D02*
X88806627Y-99188037D01*
X88919853Y-99222384D01*
X88976467Y-99239557D01*
X89115087Y-99313652D01*
X89132991Y-99323222D01*
X89168729Y-99352552D01*
X89270186Y-99435814D01*
X89353448Y-99537271D01*
X89382778Y-99573009D01*
X89382779Y-99573011D01*
X89466443Y-99729533D01*
X89466443Y-99729534D01*
X89517963Y-99899373D01*
X89535359Y-100076000D01*
X89517963Y-100252627D01*
X89494953Y-100328481D01*
X89466443Y-100422467D01*
X89403541Y-100540146D01*
X89382778Y-100578991D01*
X89362010Y-100604297D01*
X89270186Y-100716186D01*
X89168729Y-100799448D01*
X89132991Y-100828778D01*
X89132989Y-100828779D01*
X88976467Y-100912443D01*
X88919853Y-100929616D01*
X88806627Y-100963963D01*
X88740442Y-100970482D01*
X88674260Y-100977000D01*
X88585740Y-100977000D01*
X88519558Y-100970482D01*
X88453373Y-100963963D01*
X88340147Y-100929616D01*
X88283533Y-100912443D01*
X88127011Y-100828779D01*
X88127009Y-100828778D01*
X88091271Y-100799448D01*
X87989814Y-100716186D01*
X87897990Y-100604297D01*
X87877222Y-100578991D01*
X87856459Y-100540146D01*
X87793557Y-100422467D01*
X87765047Y-100328481D01*
X87742037Y-100252627D01*
X87724641Y-100076000D01*
X87742037Y-99899373D01*
X87793557Y-99729534D01*
X87793557Y-99729533D01*
X87877221Y-99573011D01*
X87877222Y-99573009D01*
X87906552Y-99537271D01*
X87989814Y-99435814D01*
X88091271Y-99352552D01*
X88127009Y-99323222D01*
X88144913Y-99313652D01*
X88283533Y-99239557D01*
X88340147Y-99222384D01*
X88453373Y-99188037D01*
X88519558Y-99181518D01*
X88585740Y-99175000D01*
X88674260Y-99175000D01*
X88740442Y-99181518D01*
X88740442Y-99181518D01*
G37*
G36*
X86991000Y-100977000D02*
X85189000Y-100977000D01*
X85189000Y-99175000D01*
X86991000Y-99175000D01*
X86991000Y-100977000D01*
X86991000Y-100977000D01*
G37*
G36*
X110348228Y-98967703D02*
X110503100Y-99031853D01*
X110642481Y-99124985D01*
X110761015Y-99243519D01*
X110854147Y-99382900D01*
X110918297Y-99537772D01*
X110951000Y-99702184D01*
X110951000Y-99869816D01*
X110918297Y-100034228D01*
X110854147Y-100189100D01*
X110761015Y-100328481D01*
X110642481Y-100447015D01*
X110503100Y-100540147D01*
X110348228Y-100604297D01*
X110183816Y-100637000D01*
X110016184Y-100637000D01*
X109851772Y-100604297D01*
X109696900Y-100540147D01*
X109557519Y-100447015D01*
X109438985Y-100328481D01*
X109345853Y-100189100D01*
X109281703Y-100034228D01*
X109249000Y-99869816D01*
X109249000Y-99702184D01*
X109281703Y-99537772D01*
X109345853Y-99382900D01*
X109438985Y-99243519D01*
X109557519Y-99124985D01*
X109696900Y-99031853D01*
X109851772Y-98967703D01*
X110016184Y-98935000D01*
X110183816Y-98935000D01*
X110348228Y-98967703D01*
X110348228Y-98967703D01*
G37*
M02*
